%!PS-Adobe-3.0 EPSF-3.0
%%Title: /home/lboyles/research/beta_tree/figures/2dheavy_density.eps
%%Creator: matplotlib version 1.1.0, http://matplotlib.sourceforge.net/
%%CreationDate: Mon May 28 16:49:34 2012
%%Orientation: portrait
%%BoundingBox: 18 180 594 612
%%EndComments
%%BeginProlog
/mpldict 8 dict def
mpldict begin
/m { moveto } bind def
/l { lineto } bind def
/r { rlineto } bind def
/c { curveto } bind def
/cl { closepath } bind def
/box {
m
1 index 0 r
0 exch r
neg 0 r
cl
} bind def
/clipbox {
box
clip
newpath
} bind def
%!PS-Adobe-3.0 Resource-Font
%%Title: Bitstream Vera Sans
%%Copyright: Copyright (c) 2003 by Bitstream, Inc. All Rights Reserved.
%%Creator: Converted from TrueType to type 3 by PPR
25 dict begin
/_d{bind def}bind def
/_m{moveto}_d
/_l{lineto}_d
/_cl{closepath eofill}_d
/_c{curveto}_d
/_sc{7 -1 roll{setcachedevice}{pop pop pop pop pop pop}ifelse}_d
/_e{exec}_d
/FontName /BitstreamVeraSans-Roman def
/PaintType 0 def
/FontMatrix[.001 0 0 .001 0 0]def
/FontBBox[-183 -236 1287 928]def
/FontType 3 def
/Encoding [ /zero /one /two /five /minus ] def
/FontInfo 10 dict dup begin
/FamilyName (Bitstream Vera Sans) def
/FullName (Bitstream Vera Sans) def
/Notice (Copyright (c) 2003 by Bitstream, Inc. All Rights Reserved. Bitstream Vera is a trademark of Bitstream, Inc.) def
/Weight (Roman) def
/Version (Release 1.10) def
/ItalicAngle 0.0 def
/isFixedPitch false def
/UnderlinePosition -213 def
/UnderlineThickness 143 def
end readonly def
/CharStrings 5 dict dup begin
/zero{636 0 66 -13 570 742 _sc
318 664 _m
267 664 229 639 203 589 _c
177 539 165 464 165 364 _c
165 264 177 189 203 139 _c
229 89 267 64 318 64 _c
369 64 407 89 433 139 _c
458 189 471 264 471 364 _c
471 464 458 539 433 589 _c
407 639 369 664 318 664 _c
318 742 _m
399 742 461 709 505 645 _c
548 580 570 486 570 364 _c
570 241 548 147 505 83 _c
461 19 399 -13 318 -13 _c
236 -13 173 19 130 83 _c
87 147 66 241 66 364 _c
66 486 87 580 130 645 _c
173 709 236 742 318 742 _c
_cl}_d
/one{636 0 110 0 544 729 _sc
124 83 _m
285 83 _l
285 639 _l
110 604 _l
110 694 _l
284 729 _l
383 729 _l
383 83 _l
544 83 _l
544 0 _l
124 0 _l
124 83 _l
_cl}_d
/two{{636 0 73 0 536 742 _sc
192 83 _m
536 83 _l
536 0 _l
73 0 _l
73 83 _l
110 121 161 173 226 239 _c
290 304 331 346 348 365 _c
380 400 402 430 414 455 _c
426 479 433 504 433 528 _c
433 566 419 598 392 622 _c
365 646 330 659 286 659 _c
255 659 222 653 188 643 _c
154 632 117 616 78 594 _c
78 694 _l
118 710 155 722 189 730 _c
223 738 255 742 284 742 _c
359 742 419 723 464 685 _c
509 647 532 597 532 534 _c
532 504 526 475 515 449 _c
504 422 484 390 454 354 _c
446 344 420 317 376 272 _c
332 227 271 164 192 83 _c
_cl}_e}_d
/five{{636 0 77 -13 549 729 _sc
108 729 _m
495 729 _l
495 646 _l
198 646 _l
198 467 _l
212 472 227 476 241 478 _c
255 480 270 482 284 482 _c
365 482 429 459 477 415 _c
525 370 549 310 549 234 _c
549 155 524 94 475 51 _c
426 8 357 -13 269 -13 _c
238 -13 207 -10 175 -6 _c
143 -1 111 6 77 17 _c
77 116 _l
106 100 136 88 168 80 _c
199 72 232 69 267 69 _c
323 69 368 83 401 113 _c
433 143 450 183 450 234 _c
450 284 433 324 401 354 _c
368 384 323 399 267 399 _c
241 399 214 396 188 390 _c
162 384 135 375 108 363 _c
108 729 _l
_cl}_e}_d
/minus{838 0 106 272 732 355 _sc
106 355 _m
732 355 _l
732 272 _l
106 272 _l
106 355 _l
_cl}_d
end readonly def

/BuildGlyph
 {exch begin
 CharStrings exch
 2 copy known not{pop /.notdef}if
 true 3 1 roll get exec
 end}_d

/BuildChar {
 1 index /Encoding get exch get
 1 index /BuildGlyph get exec
}_d

FontName currentdict end definefont pop
end
%%EndProlog
mpldict begin
18 180 translate
576 432 0 0 clipbox
gsave
0 0 m
576 0 l
576 432 l
0 432 l
cl
1.000 setgray
fill
grestore
gsave
72 43.2 m
518.4 43.2 l
518.4 388.8 l
72 388.8 l
cl
1.000 setgray
fill
grestore
/p0_0 {
newpath
translate
0 -2.23607 m
0.593012 -2.23607 1.16182 -2.00046 1.58114 -1.58114 c
2.00046 -1.16182 2.23607 -0.593012 2.23607 0 c
2.23607 0.593012 2.00046 1.16182 1.58114 1.58114 c
1.16182 2.00046 0.593012 2.23607 0 2.23607 c
-0.593012 2.23607 -1.16182 2.00046 -1.58114 1.58114 c
-2.00046 1.16182 -2.23607 0.593012 -2.23607 0 c
-2.23607 -0.593012 -2.00046 -1.16182 -1.58114 -1.58114 c
-1.16182 -2.00046 -0.593012 -2.23607 0 -2.23607 c
cl
} bind def
1.000 setlinewidth
1 setlinejoin
0 setlinecap
[] 0 setdash
0.000 setgray
gsave
446.4 345.6 72 43.2 clipbox
329.589 302.06 p0_0
gsave
0.000 0.000 1.000 setrgbcolor
fill
grestore
stroke
grestore
gsave
446.4 345.6 72 43.2 clipbox
347.909 290.542 p0_0
gsave
0.000 0.000 1.000 setrgbcolor
fill
grestore
stroke
grestore
gsave
446.4 345.6 72 43.2 clipbox
329.851 279.73 p0_0
gsave
0.000 0.000 1.000 setrgbcolor
fill
grestore
stroke
grestore
gsave
446.4 345.6 72 43.2 clipbox
352.59 291.833 p0_0
gsave
0.000 0.000 1.000 setrgbcolor
fill
grestore
stroke
grestore
gsave
446.4 345.6 72 43.2 clipbox
336.525 295.872 p0_0
gsave
0.000 0.000 1.000 setrgbcolor
fill
grestore
stroke
grestore
gsave
446.4 345.6 72 43.2 clipbox
317.369 301.35 p0_0
gsave
0.000 0.000 1.000 setrgbcolor
fill
grestore
stroke
grestore
gsave
446.4 345.6 72 43.2 clipbox
339.77 297.972 p0_0
gsave
0.000 0.000 1.000 setrgbcolor
fill
grestore
stroke
grestore
gsave
446.4 345.6 72 43.2 clipbox
338.652 294.226 p0_0
gsave
0.000 0.000 1.000 setrgbcolor
fill
grestore
stroke
grestore
gsave
446.4 345.6 72 43.2 clipbox
336.325 301.238 p0_0
gsave
0.000 0.000 1.000 setrgbcolor
fill
grestore
stroke
grestore
gsave
446.4 345.6 72 43.2 clipbox
333.676 285.626 p0_0
gsave
0.000 0.000 1.000 setrgbcolor
fill
grestore
stroke
grestore
gsave
446.4 345.6 72 43.2 clipbox
352.67 319.29 p0_0
gsave
0.000 0.000 1.000 setrgbcolor
fill
grestore
stroke
grestore
gsave
446.4 345.6 72 43.2 clipbox
338.71 293.094 p0_0
gsave
0.000 0.000 1.000 setrgbcolor
fill
grestore
stroke
grestore
gsave
446.4 345.6 72 43.2 clipbox
338.019 289.371 p0_0
gsave
0.000 0.000 1.000 setrgbcolor
fill
grestore
stroke
grestore
gsave
446.4 345.6 72 43.2 clipbox
336.238 289.421 p0_0
gsave
0.000 0.000 1.000 setrgbcolor
fill
grestore
stroke
grestore
gsave
446.4 345.6 72 43.2 clipbox
335.07 311.879 p0_0
gsave
0.000 0.000 1.000 setrgbcolor
fill
grestore
stroke
grestore
gsave
446.4 345.6 72 43.2 clipbox
334.094 307.244 p0_0
gsave
0.000 0.000 1.000 setrgbcolor
fill
grestore
stroke
grestore
gsave
446.4 345.6 72 43.2 clipbox
342.727 301.516 p0_0
gsave
0.000 0.000 1.000 setrgbcolor
fill
grestore
stroke
grestore
gsave
446.4 345.6 72 43.2 clipbox
343.8 293.455 p0_0
gsave
0.000 0.000 1.000 setrgbcolor
fill
grestore
stroke
grestore
gsave
446.4 345.6 72 43.2 clipbox
375.069 338.48 p0_0
gsave
0.000 0.000 1.000 setrgbcolor
fill
grestore
stroke
grestore
gsave
446.4 345.6 72 43.2 clipbox
322.974 302.321 p0_0
gsave
0.000 0.000 1.000 setrgbcolor
fill
grestore
stroke
grestore
gsave
446.4 345.6 72 43.2 clipbox
342.456 301.703 p0_0
gsave
0.000 0.000 1.000 setrgbcolor
fill
grestore
stroke
grestore
gsave
446.4 345.6 72 43.2 clipbox
323.93 304.724 p0_0
gsave
0.000 0.000 1.000 setrgbcolor
fill
grestore
stroke
grestore
gsave
446.4 345.6 72 43.2 clipbox
354.961 312.705 p0_0
gsave
0.000 0.000 1.000 setrgbcolor
fill
grestore
stroke
grestore
gsave
446.4 345.6 72 43.2 clipbox
348.234 310.04 p0_0
gsave
0.000 0.000 1.000 setrgbcolor
fill
grestore
stroke
grestore
gsave
446.4 345.6 72 43.2 clipbox
330.194 301.123 p0_0
gsave
0.000 0.000 1.000 setrgbcolor
fill
grestore
stroke
grestore
gsave
446.4 345.6 72 43.2 clipbox
329.421 299.468 p0_0
gsave
0.000 0.000 1.000 setrgbcolor
fill
grestore
stroke
grestore
gsave
446.4 345.6 72 43.2 clipbox
335.68 300.165 p0_0
gsave
0.000 0.000 1.000 setrgbcolor
fill
grestore
stroke
grestore
gsave
446.4 345.6 72 43.2 clipbox
342.327 315.353 p0_0
gsave
0.000 0.000 1.000 setrgbcolor
fill
grestore
stroke
grestore
gsave
446.4 345.6 72 43.2 clipbox
333.72 291.341 p0_0
gsave
0.000 0.000 1.000 setrgbcolor
fill
grestore
stroke
grestore
gsave
446.4 345.6 72 43.2 clipbox
327.689 288.841 p0_0
gsave
0.000 0.000 1.000 setrgbcolor
fill
grestore
stroke
grestore
gsave
446.4 345.6 72 43.2 clipbox
327.65 299.475 p0_0
gsave
0.000 0.000 1.000 setrgbcolor
fill
grestore
stroke
grestore
gsave
446.4 345.6 72 43.2 clipbox
342.467 304.945 p0_0
gsave
0.000 0.000 1.000 setrgbcolor
fill
grestore
stroke
grestore
gsave
446.4 345.6 72 43.2 clipbox
341.677 278.945 p0_0
gsave
0.000 0.000 1.000 setrgbcolor
fill
grestore
stroke
grestore
gsave
446.4 345.6 72 43.2 clipbox
339.934 293.545 p0_0
gsave
0.000 0.000 1.000 setrgbcolor
fill
grestore
stroke
grestore
gsave
446.4 345.6 72 43.2 clipbox
334.659 316.414 p0_0
gsave
0.000 0.000 1.000 setrgbcolor
fill
grestore
stroke
grestore
gsave
446.4 345.6 72 43.2 clipbox
339.577 296.021 p0_0
gsave
0.000 0.000 1.000 setrgbcolor
fill
grestore
stroke
grestore
gsave
446.4 345.6 72 43.2 clipbox
324.357 292.82 p0_0
gsave
0.000 0.000 1.000 setrgbcolor
fill
grestore
stroke
grestore
gsave
446.4 345.6 72 43.2 clipbox
329.912 302.606 p0_0
gsave
0.000 0.000 1.000 setrgbcolor
fill
grestore
stroke
grestore
gsave
446.4 345.6 72 43.2 clipbox
330.675 329.295 p0_0
gsave
0.000 0.000 1.000 setrgbcolor
fill
grestore
stroke
grestore
gsave
446.4 345.6 72 43.2 clipbox
340.103 305.83 p0_0
gsave
0.000 0.000 1.000 setrgbcolor
fill
grestore
stroke
grestore
gsave
446.4 345.6 72 43.2 clipbox
341.13 298.591 p0_0
gsave
0.000 0.000 1.000 setrgbcolor
fill
grestore
stroke
grestore
gsave
446.4 345.6 72 43.2 clipbox
349.009 286.754 p0_0
gsave
0.000 0.000 1.000 setrgbcolor
fill
grestore
stroke
grestore
gsave
446.4 345.6 72 43.2 clipbox
341.153 308.243 p0_0
gsave
0.000 0.000 1.000 setrgbcolor
fill
grestore
stroke
grestore
gsave
446.4 345.6 72 43.2 clipbox
339.08 295.322 p0_0
gsave
0.000 0.000 1.000 setrgbcolor
fill
grestore
stroke
grestore
gsave
446.4 345.6 72 43.2 clipbox
342.477 293.232 p0_0
gsave
0.000 0.000 1.000 setrgbcolor
fill
grestore
stroke
grestore
gsave
446.4 345.6 72 43.2 clipbox
336.231 285.634 p0_0
gsave
0.000 0.000 1.000 setrgbcolor
fill
grestore
stroke
grestore
gsave
446.4 345.6 72 43.2 clipbox
394.623 324.84 p0_0
gsave
0.000 0.000 1.000 setrgbcolor
fill
grestore
stroke
grestore
gsave
446.4 345.6 72 43.2 clipbox
337.841 301.943 p0_0
gsave
0.000 0.000 1.000 setrgbcolor
fill
grestore
stroke
grestore
gsave
446.4 345.6 72 43.2 clipbox
334.939 291.414 p0_0
gsave
0.000 0.000 1.000 setrgbcolor
fill
grestore
stroke
grestore
gsave
446.4 345.6 72 43.2 clipbox
355.641 297.801 p0_0
gsave
0.000 0.000 1.000 setrgbcolor
fill
grestore
stroke
grestore
gsave
446.4 345.6 72 43.2 clipbox
192.519 184.651 p0_0
gsave
0.000 0.000 1.000 setrgbcolor
fill
grestore
stroke
grestore
gsave
446.4 345.6 72 43.2 clipbox
185.907 186.696 p0_0
gsave
0.000 0.000 1.000 setrgbcolor
fill
grestore
stroke
grestore
gsave
446.4 345.6 72 43.2 clipbox
183.286 185.81 p0_0
gsave
0.000 0.000 1.000 setrgbcolor
fill
grestore
stroke
grestore
gsave
446.4 345.6 72 43.2 clipbox
192.036 192.625 p0_0
gsave
0.000 0.000 1.000 setrgbcolor
fill
grestore
stroke
grestore
gsave
446.4 345.6 72 43.2 clipbox
186.891 185.495 p0_0
gsave
0.000 0.000 1.000 setrgbcolor
fill
grestore
stroke
grestore
gsave
446.4 345.6 72 43.2 clipbox
189.344 169.027 p0_0
gsave
0.000 0.000 1.000 setrgbcolor
fill
grestore
stroke
grestore
gsave
446.4 345.6 72 43.2 clipbox
186.14 194.321 p0_0
gsave
0.000 0.000 1.000 setrgbcolor
fill
grestore
stroke
grestore
gsave
446.4 345.6 72 43.2 clipbox
181.992 189.198 p0_0
gsave
0.000 0.000 1.000 setrgbcolor
fill
grestore
stroke
grestore
gsave
446.4 345.6 72 43.2 clipbox
179.11 188.081 p0_0
gsave
0.000 0.000 1.000 setrgbcolor
fill
grestore
stroke
grestore
gsave
446.4 345.6 72 43.2 clipbox
177.227 194.877 p0_0
gsave
0.000 0.000 1.000 setrgbcolor
fill
grestore
stroke
grestore
gsave
446.4 345.6 72 43.2 clipbox
172.348 197.342 p0_0
gsave
0.000 0.000 1.000 setrgbcolor
fill
grestore
stroke
grestore
gsave
446.4 345.6 72 43.2 clipbox
165.557 208.127 p0_0
gsave
0.000 0.000 1.000 setrgbcolor
fill
grestore
stroke
grestore
gsave
446.4 345.6 72 43.2 clipbox
194.533 192.483 p0_0
gsave
0.000 0.000 1.000 setrgbcolor
fill
grestore
stroke
grestore
gsave
446.4 345.6 72 43.2 clipbox
180.199 184.699 p0_0
gsave
0.000 0.000 1.000 setrgbcolor
fill
grestore
stroke
grestore
gsave
446.4 345.6 72 43.2 clipbox
181.228 201.502 p0_0
gsave
0.000 0.000 1.000 setrgbcolor
fill
grestore
stroke
grestore
gsave
446.4 345.6 72 43.2 clipbox
182.949 172.983 p0_0
gsave
0.000 0.000 1.000 setrgbcolor
fill
grestore
stroke
grestore
gsave
446.4 345.6 72 43.2 clipbox
175.366 190.275 p0_0
gsave
0.000 0.000 1.000 setrgbcolor
fill
grestore
stroke
grestore
gsave
446.4 345.6 72 43.2 clipbox
182.803 190.738 p0_0
gsave
0.000 0.000 1.000 setrgbcolor
fill
grestore
stroke
grestore
gsave
446.4 345.6 72 43.2 clipbox
170.957 197.986 p0_0
gsave
0.000 0.000 1.000 setrgbcolor
fill
grestore
stroke
grestore
gsave
446.4 345.6 72 43.2 clipbox
190.179 189.868 p0_0
gsave
0.000 0.000 1.000 setrgbcolor
fill
grestore
stroke
grestore
gsave
446.4 345.6 72 43.2 clipbox
183.116 189.007 p0_0
gsave
0.000 0.000 1.000 setrgbcolor
fill
grestore
stroke
grestore
gsave
446.4 345.6 72 43.2 clipbox
187.202 191.162 p0_0
gsave
0.000 0.000 1.000 setrgbcolor
fill
grestore
stroke
grestore
gsave
446.4 345.6 72 43.2 clipbox
180.749 207.307 p0_0
gsave
0.000 0.000 1.000 setrgbcolor
fill
grestore
stroke
grestore
gsave
446.4 345.6 72 43.2 clipbox
182.732 196.535 p0_0
gsave
0.000 0.000 1.000 setrgbcolor
fill
grestore
stroke
grestore
gsave
446.4 345.6 72 43.2 clipbox
181.115 201.944 p0_0
gsave
0.000 0.000 1.000 setrgbcolor
fill
grestore
stroke
grestore
gsave
446.4 345.6 72 43.2 clipbox
165.633 200.648 p0_0
gsave
0.000 0.000 1.000 setrgbcolor
fill
grestore
stroke
grestore
gsave
446.4 345.6 72 43.2 clipbox
184.02 186.389 p0_0
gsave
0.000 0.000 1.000 setrgbcolor
fill
grestore
stroke
grestore
gsave
446.4 345.6 72 43.2 clipbox
171.405 198.145 p0_0
gsave
0.000 0.000 1.000 setrgbcolor
fill
grestore
stroke
grestore
gsave
446.4 345.6 72 43.2 clipbox
188.992 164.446 p0_0
gsave
0.000 0.000 1.000 setrgbcolor
fill
grestore
stroke
grestore
gsave
446.4 345.6 72 43.2 clipbox
184.13 196.501 p0_0
gsave
0.000 0.000 1.000 setrgbcolor
fill
grestore
stroke
grestore
gsave
446.4 345.6 72 43.2 clipbox
191.11 195.355 p0_0
gsave
0.000 0.000 1.000 setrgbcolor
fill
grestore
stroke
grestore
gsave
446.4 345.6 72 43.2 clipbox
186.811 197.82 p0_0
gsave
0.000 0.000 1.000 setrgbcolor
fill
grestore
stroke
grestore
gsave
446.4 345.6 72 43.2 clipbox
180.842 191.02 p0_0
gsave
0.000 0.000 1.000 setrgbcolor
fill
grestore
stroke
grestore
gsave
446.4 345.6 72 43.2 clipbox
173.061 189.245 p0_0
gsave
0.000 0.000 1.000 setrgbcolor
fill
grestore
stroke
grestore
gsave
446.4 345.6 72 43.2 clipbox
193.729 171.253 p0_0
gsave
0.000 0.000 1.000 setrgbcolor
fill
grestore
stroke
grestore
gsave
446.4 345.6 72 43.2 clipbox
186.288 183.806 p0_0
gsave
0.000 0.000 1.000 setrgbcolor
fill
grestore
stroke
grestore
gsave
446.4 345.6 72 43.2 clipbox
163.155 200.421 p0_0
gsave
0.000 0.000 1.000 setrgbcolor
fill
grestore
stroke
grestore
gsave
446.4 345.6 72 43.2 clipbox
182.106 186.55 p0_0
gsave
0.000 0.000 1.000 setrgbcolor
fill
grestore
stroke
grestore
gsave
446.4 345.6 72 43.2 clipbox
196.258 167.621 p0_0
gsave
0.000 0.000 1.000 setrgbcolor
fill
grestore
stroke
grestore
gsave
446.4 345.6 72 43.2 clipbox
183.065 194.182 p0_0
gsave
0.000 0.000 1.000 setrgbcolor
fill
grestore
stroke
grestore
gsave
446.4 345.6 72 43.2 clipbox
185.094 187.599 p0_0
gsave
0.000 0.000 1.000 setrgbcolor
fill
grestore
stroke
grestore
gsave
446.4 345.6 72 43.2 clipbox
185.298 212.226 p0_0
gsave
0.000 0.000 1.000 setrgbcolor
fill
grestore
stroke
grestore
gsave
446.4 345.6 72 43.2 clipbox
192.953 177.648 p0_0
gsave
0.000 0.000 1.000 setrgbcolor
fill
grestore
stroke
grestore
gsave
446.4 345.6 72 43.2 clipbox
187.164 187.258 p0_0
gsave
0.000 0.000 1.000 setrgbcolor
fill
grestore
stroke
grestore
gsave
446.4 345.6 72 43.2 clipbox
217.303 173.195 p0_0
gsave
0.000 0.000 1.000 setrgbcolor
fill
grestore
stroke
grestore
gsave
446.4 345.6 72 43.2 clipbox
181.421 200.346 p0_0
gsave
0.000 0.000 1.000 setrgbcolor
fill
grestore
stroke
grestore
gsave
446.4 345.6 72 43.2 clipbox
174.062 191.765 p0_0
gsave
0.000 0.000 1.000 setrgbcolor
fill
grestore
stroke
grestore
gsave
446.4 345.6 72 43.2 clipbox
126.309 214.362 p0_0
gsave
0.000 0.000 1.000 setrgbcolor
fill
grestore
stroke
grestore
gsave
446.4 345.6 72 43.2 clipbox
171.145 192.663 p0_0
gsave
0.000 0.000 1.000 setrgbcolor
fill
grestore
stroke
grestore
gsave
446.4 345.6 72 43.2 clipbox
195.241 187.441 p0_0
gsave
0.000 0.000 1.000 setrgbcolor
fill
grestore
stroke
grestore
gsave
446.4 345.6 72 43.2 clipbox
342.702 142.575 p0_0
gsave
0.000 0.000 1.000 setrgbcolor
fill
grestore
stroke
grestore
gsave
446.4 345.6 72 43.2 clipbox
352.86 122.271 p0_0
gsave
0.000 0.000 1.000 setrgbcolor
fill
grestore
stroke
grestore
gsave
446.4 345.6 72 43.2 clipbox
343.086 130.971 p0_0
gsave
0.000 0.000 1.000 setrgbcolor
fill
grestore
stroke
grestore
gsave
446.4 345.6 72 43.2 clipbox
352.283 115.821 p0_0
gsave
0.000 0.000 1.000 setrgbcolor
fill
grestore
stroke
grestore
gsave
446.4 345.6 72 43.2 clipbox
348.44 130.654 p0_0
gsave
0.000 0.000 1.000 setrgbcolor
fill
grestore
stroke
grestore
gsave
446.4 345.6 72 43.2 clipbox
346.912 142.569 p0_0
gsave
0.000 0.000 1.000 setrgbcolor
fill
grestore
stroke
grestore
gsave
446.4 345.6 72 43.2 clipbox
346.757 127.935 p0_0
gsave
0.000 0.000 1.000 setrgbcolor
fill
grestore
stroke
grestore
gsave
446.4 345.6 72 43.2 clipbox
350.233 130.184 p0_0
gsave
0.000 0.000 1.000 setrgbcolor
fill
grestore
stroke
grestore
gsave
446.4 345.6 72 43.2 clipbox
344.912 131.615 p0_0
gsave
0.000 0.000 1.000 setrgbcolor
fill
grestore
stroke
grestore
gsave
446.4 345.6 72 43.2 clipbox
350.378 127.914 p0_0
gsave
0.000 0.000 1.000 setrgbcolor
fill
grestore
stroke
grestore
gsave
446.4 345.6 72 43.2 clipbox
374.175 119.746 p0_0
gsave
0.000 0.000 1.000 setrgbcolor
fill
grestore
stroke
grestore
gsave
446.4 345.6 72 43.2 clipbox
358 131.732 p0_0
gsave
0.000 0.000 1.000 setrgbcolor
fill
grestore
stroke
grestore
gsave
446.4 345.6 72 43.2 clipbox
353.446 131.437 p0_0
gsave
0.000 0.000 1.000 setrgbcolor
fill
grestore
stroke
grestore
gsave
446.4 345.6 72 43.2 clipbox
342.436 135.491 p0_0
gsave
0.000 0.000 1.000 setrgbcolor
fill
grestore
stroke
grestore
gsave
446.4 345.6 72 43.2 clipbox
356.325 133.879 p0_0
gsave
0.000 0.000 1.000 setrgbcolor
fill
grestore
stroke
grestore
gsave
446.4 345.6 72 43.2 clipbox
348.776 138.403 p0_0
gsave
0.000 0.000 1.000 setrgbcolor
fill
grestore
stroke
grestore
gsave
446.4 345.6 72 43.2 clipbox
356.61 127.059 p0_0
gsave
0.000 0.000 1.000 setrgbcolor
fill
grestore
stroke
grestore
gsave
446.4 345.6 72 43.2 clipbox
347.72 131.654 p0_0
gsave
0.000 0.000 1.000 setrgbcolor
fill
grestore
stroke
grestore
gsave
446.4 345.6 72 43.2 clipbox
376.018 138.459 p0_0
gsave
0.000 0.000 1.000 setrgbcolor
fill
grestore
stroke
grestore
gsave
446.4 345.6 72 43.2 clipbox
356.204 138.747 p0_0
gsave
0.000 0.000 1.000 setrgbcolor
fill
grestore
stroke
grestore
gsave
446.4 345.6 72 43.2 clipbox
356.949 131.13 p0_0
gsave
0.000 0.000 1.000 setrgbcolor
fill
grestore
stroke
grestore
gsave
446.4 345.6 72 43.2 clipbox
346.852 139.869 p0_0
gsave
0.000 0.000 1.000 setrgbcolor
fill
grestore
stroke
grestore
gsave
446.4 345.6 72 43.2 clipbox
361.841 125.116 p0_0
gsave
0.000 0.000 1.000 setrgbcolor
fill
grestore
stroke
grestore
gsave
446.4 345.6 72 43.2 clipbox
356.078 130.593 p0_0
gsave
0.000 0.000 1.000 setrgbcolor
fill
grestore
stroke
grestore
gsave
446.4 345.6 72 43.2 clipbox
362.34 136.941 p0_0
gsave
0.000 0.000 1.000 setrgbcolor
fill
grestore
stroke
grestore
gsave
446.4 345.6 72 43.2 clipbox
351.676 140.962 p0_0
gsave
0.000 0.000 1.000 setrgbcolor
fill
grestore
stroke
grestore
gsave
446.4 345.6 72 43.2 clipbox
350.28 129.618 p0_0
gsave
0.000 0.000 1.000 setrgbcolor
fill
grestore
stroke
grestore
gsave
446.4 345.6 72 43.2 clipbox
371.227 135.523 p0_0
gsave
0.000 0.000 1.000 setrgbcolor
fill
grestore
stroke
grestore
gsave
446.4 345.6 72 43.2 clipbox
350.203 139.485 p0_0
gsave
0.000 0.000 1.000 setrgbcolor
fill
grestore
stroke
grestore
gsave
446.4 345.6 72 43.2 clipbox
353.012 140.651 p0_0
gsave
0.000 0.000 1.000 setrgbcolor
fill
grestore
stroke
grestore
gsave
446.4 345.6 72 43.2 clipbox
358.094 136.692 p0_0
gsave
0.000 0.000 1.000 setrgbcolor
fill
grestore
stroke
grestore
gsave
446.4 345.6 72 43.2 clipbox
351.593 134.888 p0_0
gsave
0.000 0.000 1.000 setrgbcolor
fill
grestore
stroke
grestore
gsave
446.4 345.6 72 43.2 clipbox
345.275 129.072 p0_0
gsave
0.000 0.000 1.000 setrgbcolor
fill
grestore
stroke
grestore
gsave
446.4 345.6 72 43.2 clipbox
352.98 129.531 p0_0
gsave
0.000 0.000 1.000 setrgbcolor
fill
grestore
stroke
grestore
gsave
446.4 345.6 72 43.2 clipbox
372.608 143.546 p0_0
gsave
0.000 0.000 1.000 setrgbcolor
fill
grestore
stroke
grestore
gsave
446.4 345.6 72 43.2 clipbox
346.913 126.26 p0_0
gsave
0.000 0.000 1.000 setrgbcolor
fill
grestore
stroke
grestore
gsave
446.4 345.6 72 43.2 clipbox
354.183 135.144 p0_0
gsave
0.000 0.000 1.000 setrgbcolor
fill
grestore
stroke
grestore
gsave
446.4 345.6 72 43.2 clipbox
343.486 141.077 p0_0
gsave
0.000 0.000 1.000 setrgbcolor
fill
grestore
stroke
grestore
gsave
446.4 345.6 72 43.2 clipbox
358.221 162.092 p0_0
gsave
0.000 0.000 1.000 setrgbcolor
fill
grestore
stroke
grestore
gsave
446.4 345.6 72 43.2 clipbox
358.568 134.436 p0_0
gsave
0.000 0.000 1.000 setrgbcolor
fill
grestore
stroke
grestore
gsave
446.4 345.6 72 43.2 clipbox
344.222 130.491 p0_0
gsave
0.000 0.000 1.000 setrgbcolor
fill
grestore
stroke
grestore
gsave
446.4 345.6 72 43.2 clipbox
343.426 123.504 p0_0
gsave
0.000 0.000 1.000 setrgbcolor
fill
grestore
stroke
grestore
gsave
446.4 345.6 72 43.2 clipbox
353.702 135.33 p0_0
gsave
0.000 0.000 1.000 setrgbcolor
fill
grestore
stroke
grestore
gsave
446.4 345.6 72 43.2 clipbox
351.604 138.337 p0_0
gsave
0.000 0.000 1.000 setrgbcolor
fill
grestore
stroke
grestore
gsave
446.4 345.6 72 43.2 clipbox
346.74 136.759 p0_0
gsave
0.000 0.000 1.000 setrgbcolor
fill
grestore
stroke
grestore
gsave
446.4 345.6 72 43.2 clipbox
343.221 127.242 p0_0
gsave
0.000 0.000 1.000 setrgbcolor
fill
grestore
stroke
grestore
gsave
446.4 345.6 72 43.2 clipbox
475.921 86.5248 p0_0
gsave
0.000 0.000 1.000 setrgbcolor
fill
grestore
stroke
grestore
gsave
446.4 345.6 72 43.2 clipbox
350.385 134.886 p0_0
gsave
0.000 0.000 1.000 setrgbcolor
fill
grestore
stroke
grestore
gsave
446.4 345.6 72 43.2 clipbox
347.751 139.112 p0_0
gsave
0.000 0.000 1.000 setrgbcolor
fill
grestore
stroke
grestore
gsave
446.4 345.6 72 43.2 clipbox
348.408 123.26 p0_0
gsave
0.000 0.000 1.000 setrgbcolor
fill
grestore
stroke
grestore
gsave
446.4 345.6 72 43.2 clipbox
172.426 110.769 p0_0
gsave
0.000 0.000 1.000 setrgbcolor
fill
grestore
stroke
grestore
gsave
446.4 345.6 72 43.2 clipbox
183.048 108.851 p0_0
gsave
0.000 0.000 1.000 setrgbcolor
fill
grestore
stroke
grestore
gsave
446.4 345.6 72 43.2 clipbox
181.154 105.199 p0_0
gsave
0.000 0.000 1.000 setrgbcolor
fill
grestore
stroke
grestore
gsave
446.4 345.6 72 43.2 clipbox
169.657 118.533 p0_0
gsave
0.000 0.000 1.000 setrgbcolor
fill
grestore
stroke
grestore
gsave
446.4 345.6 72 43.2 clipbox
182.206 106.528 p0_0
gsave
0.000 0.000 1.000 setrgbcolor
fill
grestore
stroke
grestore
gsave
446.4 345.6 72 43.2 clipbox
196.533 92.1483 p0_0
gsave
0.000 0.000 1.000 setrgbcolor
fill
grestore
stroke
grestore
gsave
446.4 345.6 72 43.2 clipbox
158.349 107.164 p0_0
gsave
0.000 0.000 1.000 setrgbcolor
fill
grestore
stroke
grestore
gsave
446.4 345.6 72 43.2 clipbox
172.578 104.463 p0_0
gsave
0.000 0.000 1.000 setrgbcolor
fill
grestore
stroke
grestore
gsave
446.4 345.6 72 43.2 clipbox
182.524 101.148 p0_0
gsave
0.000 0.000 1.000 setrgbcolor
fill
grestore
stroke
grestore
gsave
446.4 345.6 72 43.2 clipbox
169.746 99.7235 p0_0
gsave
0.000 0.000 1.000 setrgbcolor
fill
grestore
stroke
grestore
gsave
446.4 345.6 72 43.2 clipbox
170.948 102.277 p0_0
gsave
0.000 0.000 1.000 setrgbcolor
fill
grestore
stroke
grestore
gsave
446.4 345.6 72 43.2 clipbox
165.877 102.568 p0_0
gsave
0.000 0.000 1.000 setrgbcolor
fill
grestore
stroke
grestore
gsave
446.4 345.6 72 43.2 clipbox
170.051 126.523 p0_0
gsave
0.000 0.000 1.000 setrgbcolor
fill
grestore
stroke
grestore
gsave
446.4 345.6 72 43.2 clipbox
190.336 97.413 p0_0
gsave
0.000 0.000 1.000 setrgbcolor
fill
grestore
stroke
grestore
gsave
446.4 345.6 72 43.2 clipbox
165.504 118.66 p0_0
gsave
0.000 0.000 1.000 setrgbcolor
fill
grestore
stroke
grestore
gsave
446.4 345.6 72 43.2 clipbox
208.75 93.5761 p0_0
gsave
0.000 0.000 1.000 setrgbcolor
fill
grestore
stroke
grestore
gsave
446.4 345.6 72 43.2 clipbox
176.67 101.089 p0_0
gsave
0.000 0.000 1.000 setrgbcolor
fill
grestore
stroke
grestore
gsave
446.4 345.6 72 43.2 clipbox
172.333 105.889 p0_0
gsave
0.000 0.000 1.000 setrgbcolor
fill
grestore
stroke
grestore
gsave
446.4 345.6 72 43.2 clipbox
174.743 106.757 p0_0
gsave
0.000 0.000 1.000 setrgbcolor
fill
grestore
stroke
grestore
gsave
446.4 345.6 72 43.2 clipbox
166.824 117.199 p0_0
gsave
0.000 0.000 1.000 setrgbcolor
fill
grestore
stroke
grestore
gsave
446.4 345.6 72 43.2 clipbox
171.719 106.783 p0_0
gsave
0.000 0.000 1.000 setrgbcolor
fill
grestore
stroke
grestore
gsave
446.4 345.6 72 43.2 clipbox
177.407 113.432 p0_0
gsave
0.000 0.000 1.000 setrgbcolor
fill
grestore
stroke
grestore
gsave
446.4 345.6 72 43.2 clipbox
164.023 125.33 p0_0
gsave
0.000 0.000 1.000 setrgbcolor
fill
grestore
stroke
grestore
gsave
446.4 345.6 72 43.2 clipbox
164.65 108.26 p0_0
gsave
0.000 0.000 1.000 setrgbcolor
fill
grestore
stroke
grestore
gsave
446.4 345.6 72 43.2 clipbox
161.883 113.844 p0_0
gsave
0.000 0.000 1.000 setrgbcolor
fill
grestore
stroke
grestore
gsave
446.4 345.6 72 43.2 clipbox
179.51 98.0268 p0_0
gsave
0.000 0.000 1.000 setrgbcolor
fill
grestore
stroke
grestore
gsave
446.4 345.6 72 43.2 clipbox
174.302 102.239 p0_0
gsave
0.000 0.000 1.000 setrgbcolor
fill
grestore
stroke
grestore
gsave
446.4 345.6 72 43.2 clipbox
197.546 103.518 p0_0
gsave
0.000 0.000 1.000 setrgbcolor
fill
grestore
stroke
grestore
gsave
446.4 345.6 72 43.2 clipbox
228.853 99.3943 p0_0
gsave
0.000 0.000 1.000 setrgbcolor
fill
grestore
stroke
grestore
gsave
446.4 345.6 72 43.2 clipbox
167.733 116.439 p0_0
gsave
0.000 0.000 1.000 setrgbcolor
fill
grestore
stroke
grestore
gsave
446.4 345.6 72 43.2 clipbox
160.349 117.503 p0_0
gsave
0.000 0.000 1.000 setrgbcolor
fill
grestore
stroke
grestore
gsave
446.4 345.6 72 43.2 clipbox
170.916 112.056 p0_0
gsave
0.000 0.000 1.000 setrgbcolor
fill
grestore
stroke
grestore
gsave
446.4 345.6 72 43.2 clipbox
171.374 103.51 p0_0
gsave
0.000 0.000 1.000 setrgbcolor
fill
grestore
stroke
grestore
gsave
446.4 345.6 72 43.2 clipbox
187.528 101.709 p0_0
gsave
0.000 0.000 1.000 setrgbcolor
fill
grestore
stroke
grestore
gsave
446.4 345.6 72 43.2 clipbox
187.583 105.219 p0_0
gsave
0.000 0.000 1.000 setrgbcolor
fill
grestore
stroke
grestore
gsave
446.4 345.6 72 43.2 clipbox
178.911 104.902 p0_0
gsave
0.000 0.000 1.000 setrgbcolor
fill
grestore
stroke
grestore
gsave
446.4 345.6 72 43.2 clipbox
174.46 100.619 p0_0
gsave
0.000 0.000 1.000 setrgbcolor
fill
grestore
stroke
grestore
gsave
446.4 345.6 72 43.2 clipbox
193.139 108.023 p0_0
gsave
0.000 0.000 1.000 setrgbcolor
fill
grestore
stroke
grestore
gsave
446.4 345.6 72 43.2 clipbox
211.907 104.716 p0_0
gsave
0.000 0.000 1.000 setrgbcolor
fill
grestore
stroke
grestore
gsave
446.4 345.6 72 43.2 clipbox
169.153 107.294 p0_0
gsave
0.000 0.000 1.000 setrgbcolor
fill
grestore
stroke
grestore
gsave
446.4 345.6 72 43.2 clipbox
170.103 105.483 p0_0
gsave
0.000 0.000 1.000 setrgbcolor
fill
grestore
stroke
grestore
gsave
446.4 345.6 72 43.2 clipbox
145.552 129.03 p0_0
gsave
0.000 0.000 1.000 setrgbcolor
fill
grestore
stroke
grestore
gsave
446.4 345.6 72 43.2 clipbox
190.639 107.727 p0_0
gsave
0.000 0.000 1.000 setrgbcolor
fill
grestore
stroke
grestore
gsave
446.4 345.6 72 43.2 clipbox
176.594 110.405 p0_0
gsave
0.000 0.000 1.000 setrgbcolor
fill
grestore
stroke
grestore
gsave
446.4 345.6 72 43.2 clipbox
170.835 120.857 p0_0
gsave
0.000 0.000 1.000 setrgbcolor
fill
grestore
stroke
grestore
gsave
446.4 345.6 72 43.2 clipbox
160.457 110.946 p0_0
gsave
0.000 0.000 1.000 setrgbcolor
fill
grestore
stroke
grestore
gsave
446.4 345.6 72 43.2 clipbox
180.279 100.814 p0_0
gsave
0.000 0.000 1.000 setrgbcolor
fill
grestore
stroke
grestore
gsave
446.4 345.6 72 43.2 clipbox
198.613 87.3291 p0_0
gsave
0.000 0.000 1.000 setrgbcolor
fill
grestore
stroke
grestore
gsave
446.4 345.6 72 43.2 clipbox
185.493 102.807 p0_0
gsave
0.000 0.000 1.000 setrgbcolor
fill
grestore
stroke
grestore
gsave
446.4 345.6 72 43.2 clipbox
174.676 118.26 p0_0
gsave
0.000 0.000 1.000 setrgbcolor
fill
grestore
stroke
grestore
/p1_0 {
newpath
translate
164.256 86.5898 m
168.72 85.0415 l
173.184 84.163 l
177.648 83.7474 l
182.112 83.7051 l
186.576 84.0328 l
191.04 84.8023 l
195.504 86.1616 l
197.415 86.976 l
199.968 88.069 l
203.922 90.432 l
204.432 90.7937 l
208.184 93.888 l
208.896 94.7163 l
211.148 97.344 l
212.951 100.8 l
213.36 102.247 l
214.043 104.256 l
214.425 107.712 l
214.09 111.168 l
213.36 113.627 l
213.119 114.624 l
211.696 118.08 l
209.435 121.536 l
208.896 122.19 l
206.568 124.992 l
204.432 126.97 l
202.623 128.448 l
199.968 130.339 l
197.107 131.904 l
195.504 132.772 l
191.04 134.542 l
187.661 135.36 l
186.576 135.675 l
182.112 136.457 l
177.648 136.71 l
173.184 136.497 l
168.72 135.789 l
167.17 135.36 l
164.256 134.728 l
159.792 133.117 l
157.516 131.904 l
155.328 130.709 l
152.311 128.448 l
150.864 127.074 l
148.931 124.992 l
146.816 121.536 l
146.4 120.446 l
145.347 118.08 l
144.529 114.624 l
144.325 111.168 l
144.682 107.712 l
145.673 104.256 l
146.4 102.758 l
147.162 100.8 l
149.322 97.344 l
150.864 95.6226 l
152.44 93.888 l
155.328 91.473 l
156.833 90.432 l
159.792 88.5669 l
163.431 86.976 l
164.256 86.5898 l
} bind def
/p1_1 {
newpath
translate
347.28 107.521 m
351.744 107.047 l
356.208 107.188 l
359.421 107.712 l
360.672 107.867 l
365.136 108.875 l
369.6 110.554 l
370.868 111.168 l
374.064 112.763 l
376.912 114.624 l
378.528 115.879 l
381.047 118.08 l
382.992 120.418 l
383.932 121.536 l
386.019 124.992 l
387.218 128.448 l
387.456 129.833 l
387.912 131.904 l
387.997 135.36 l
387.456 138.553 l
387.422 138.816 l
386.427 142.272 l
384.689 145.728 l
382.992 147.997 l
382.13 149.184 l
378.641 152.64 l
378.528 152.735 l
374.064 156.013 l
373.922 156.096 l
369.6 158.496 l
366.784 159.552 l
365.136 160.219 l
360.672 161.473 l
356.208 162.153 l
351.744 162.379 l
347.28 162.189 l
342.816 161.547 l
338.352 160.334 l
336.394 159.552 l
333.888 158.61 l
329.443 156.096 l
329.424 156.084 l
324.969 152.64 l
324.96 152.631 l
321.708 149.184 l
320.496 147.235 l
319.504 145.728 l
317.963 142.272 l
317.163 138.816 l
316.935 135.36 l
317.225 131.904 l
318.082 128.448 l
319.673 124.992 l
320.496 123.765 l
321.825 121.536 l
324.96 118.12 l
324.998 118.08 l
329.161 114.624 l
329.424 114.439 l
333.888 111.75 l
335.198 111.168 l
338.352 109.734 l
342.816 108.36 l
346.438 107.712 l
347.28 107.521 l
} bind def
/p1_2 {
newpath
translate
177.648 161.959 m
182.112 160.976 l
186.576 160.516 l
191.04 160.513 l
195.504 160.989 l
199.968 162.049 l
202.496 163.008 l
204.432 163.711 l
208.896 166.134 l
209.389 166.464 l
213.36 169.611 l
213.699 169.92 l
216.76 173.376 l
217.824 175.181 l
218.852 176.832 l
220.279 180.288 l
221.012 183.744 l
221.196 187.2 l
220.883 190.656 l
220.041 194.112 l
218.545 197.568 l
217.824 198.722 l
216.606 201.024 l
213.862 204.48 l
213.36 204.984 l
210.426 207.936 l
208.896 209.155 l
205.729 211.392 l
204.432 212.207 l
199.968 214.48 l
199.025 214.848 l
195.504 216.291 l
191.04 217.496 l
186.576 218.142 l
183.079 218.304 l
182.112 218.37 l
181.044 218.304 l
177.648 218.161 l
173.184 217.535 l
168.72 216.332 l
165.272 214.848 l
164.256 214.427 l
159.792 211.819 l
159.2 211.392 l
155.328 207.979 l
155.283 207.936 l
152.393 204.48 l
150.864 201.393 l
150.654 201.024 l
149.352 197.568 l
148.778 194.112 l
148.792 190.656 l
149.373 187.2 l
150.596 183.744 l
150.864 183.223 l
152.145 180.288 l
154.482 176.832 l
155.328 175.847 l
157.47 173.376 l
159.792 171.262 l
161.469 169.92 l
164.256 167.903 l
166.802 166.464 l
168.72 165.354 l
173.184 163.451 l
174.698 163.008 l
177.648 161.959 l
} bind def
/p1_3 {
newpath
translate
324.96 276.288 m
329.424 274.731 l
333.888 274.027 l
338.352 273.902 l
342.816 274.283 l
347.28 275.267 l
351.591 277.056 l
351.744 277.114 l
356.208 279.592 l
357.436 280.512 l
360.672 283.514 l
361.117 283.968 l
363.769 287.424 l
365.136 290.44 l
365.375 290.88 l
366.6 294.336 l
367.14 297.792 l
367.121 301.248 l
366.539 304.704 l
365.246 308.16 l
365.136 308.363 l
363.473 311.616 l
360.672 314.689 l
360.275 315.072 l
356.208 317.952 l
355.058 318.528 l
351.744 320.04 l
347.28 321.308 l
342.816 321.96 l
342.269 321.984 l
338.352 322.222 l
335.635 321.984 l
333.888 321.881 l
329.424 321.051 l
324.96 319.33 l
323.51 318.528 l
320.496 316.748 l
318.295 315.072 l
316.032 312.873 l
314.809 311.616 l
312.375 308.16 l
311.568 306.283 l
310.748 304.704 l
309.727 301.248 l
309.423 297.792 l
309.746 294.336 l
310.749 290.88 l
311.568 289.22 l
312.327 287.424 l
314.654 283.968 l
316.032 282.498 l
318.097 280.512 l
320.496 278.691 l
323.501 277.056 l
324.96 276.288 l
} bind def
0.000 0.000 0.500 setrgbcolor
gsave
446.4 345.6 72 43.2 clipbox
0 0 p1_0
stroke
grestore
gsave
446.4 345.6 72 43.2 clipbox
0 0 p1_1
stroke
grestore
gsave
446.4 345.6 72 43.2 clipbox
0 0 p1_2
stroke
grestore
gsave
446.4 345.6 72 43.2 clipbox
0 0 p1_3
stroke
grestore
/p2_0 {
newpath
translate
173.184 89.4851 m
177.648 88.9623 l
182.112 89.0312 l
186.576 89.7099 l
189.024 90.432 l
191.04 91.0071 l
195.504 93.0883 l
196.79 93.888 l
199.968 96.4553 l
200.926 97.344 l
203.443 100.8 l
204.432 103.468 l
204.763 104.256 l
205.264 107.712 l
204.861 111.168 l
204.432 112.359 l
203.72 114.624 l
201.75 118.08 l
199.968 120.148 l
198.699 121.536 l
195.504 124.14 l
194.21 124.992 l
191.04 126.812 l
186.739 128.448 l
186.576 128.511 l
182.112 129.701 l
177.648 130.226 l
173.184 130.177 l
168.72 129.522 l
165.29 128.448 l
164.256 128.145 l
159.792 125.936 l
158.472 124.992 l
155.328 122.044 l
154.873 121.536 l
152.666 118.08 l
151.554 114.624 l
151.2 111.168 l
151.473 107.712 l
152.404 104.256 l
154.247 100.8 l
155.328 99.4699 l
157.089 97.344 l
159.792 95.0658 l
161.603 93.888 l
164.256 92.3305 l
168.72 90.6445 l
169.657 90.432 l
173.184 89.4851 l
} bind def
/p2_1 {
newpath
translate
342.816 114.368 m
347.28 112.937 l
351.744 112.351 l
356.208 112.57 l
360.672 113.609 l
363.245 114.624 l
365.136 115.394 l
369.6 117.993 l
369.728 118.08 l
373.814 121.536 l
374.064 121.839 l
376.626 124.992 l
378.236 128.448 l
378.528 129.715 l
379.135 131.904 l
379.249 135.36 l
378.528 138.776 l
378.521 138.816 l
377.173 142.272 l
374.722 145.728 l
374.064 146.412 l
371.072 149.184 l
369.6 150.258 l
365.199 152.64 l
365.136 152.672 l
360.672 154.372 l
356.208 155.261 l
351.744 155.535 l
347.28 155.261 l
342.816 154.364 l
338.43 152.64 l
338.352 152.61 l
333.888 150.087 l
332.708 149.184 l
329.424 145.892 l
329.276 145.728 l
326.914 142.272 l
325.675 138.816 l
325.225 135.36 l
325.429 131.904 l
326.339 128.448 l
328.208 124.992 l
329.424 123.514 l
331.093 121.536 l
333.888 119.174 l
335.461 118.08 l
338.352 116.324 l
342.229 114.624 l
342.816 114.368 l
} bind def
/p2_2 {
newpath
translate
177.648 169.151 m
182.112 168.181 l
186.576 167.847 l
191.04 168.119 l
195.504 169.093 l
197.636 169.92 l
199.968 170.864 l
203.9 173.376 l
204.432 173.802 l
207.502 176.832 l
208.896 178.965 l
209.743 180.288 l
211.132 183.744 l
211.71 187.2 l
211.613 190.656 l
210.846 194.112 l
209.276 197.568 l
208.896 198.133 l
207.097 201.024 l
204.432 203.826 l
203.775 204.48 l
199.968 207.383 l
199.109 207.936 l
195.504 209.962 l
192.021 211.392 l
191.04 211.785 l
186.576 213.027 l
182.112 213.412 l
177.648 213.01 l
173.184 211.817 l
172.101 211.392 l
168.72 210.046 l
165.137 207.936 l
164.256 207.314 l
161.029 204.48 l
159.792 202.862 l
158.439 201.024 l
156.9 197.568 l
156.237 194.112 l
156.255 190.656 l
156.92 187.2 l
158.335 183.744 l
159.792 181.507 l
160.567 180.288 l
163.719 176.832 l
164.256 176.351 l
168.234 173.376 l
168.72 173.051 l
173.184 170.714 l
175.565 169.92 l
177.648 169.151 l
} bind def
/p2_3 {
newpath
translate
333.888 279.672 m
338.352 279.402 l
342.816 279.999 l
344.453 280.512 l
347.28 281.339 l
351.744 283.744 l
352.055 283.968 l
355.845 287.424 l
356.208 287.937 l
358.225 290.88 l
359.49 294.336 l
359.944 297.792 l
359.714 301.248 l
358.72 304.704 l
356.653 308.16 l
356.208 308.675 l
353.306 311.616 l
351.744 312.754 l
347.28 315.026 l
347.142 315.072 l
342.816 316.491 l
338.352 317.101 l
333.888 316.87 l
329.424 315.562 l
328.456 315.072 l
324.96 313.085 l
323.073 311.616 l
320.496 308.927 l
319.808 308.16 l
317.594 304.704 l
316.549 301.248 l
316.33 297.792 l
316.811 294.336 l
318.087 290.88 l
320.461 287.424 l
320.496 287.386 l
323.937 283.968 l
324.96 283.215 l
329.424 280.893 l
330.886 280.512 l
333.888 279.672 l
} bind def
0.000 0.065 1.000 setrgbcolor
gsave
446.4 345.6 72 43.2 clipbox
0 0 p2_0
stroke
grestore
gsave
446.4 345.6 72 43.2 clipbox
0 0 p2_1
stroke
grestore
gsave
446.4 345.6 72 43.2 clipbox
0 0 p2_2
stroke
grestore
gsave
446.4 345.6 72 43.2 clipbox
0 0 p2_3
stroke
grestore
/p3_0 {
newpath
translate
173.184 93.0622 m
177.648 92.5304 l
182.112 92.7219 l
186.576 93.7105 l
187.047 93.888 l
191.04 95.5594 l
193.753 97.344 l
195.504 99.0626 l
197.067 100.8 l
198.738 104.256 l
199.235 107.712 l
198.792 111.168 l
197.361 114.624 l
195.504 117.134 l
194.754 118.08 l
191.04 121.248 l
190.606 121.536 l
186.576 123.74 l
182.776 124.992 l
182.112 125.207 l
177.648 125.975 l
173.184 125.988 l
168.72 125.197 l
168.154 124.992 l
164.256 123.505 l
161.306 121.536 l
159.792 120.138 l
158.061 118.08 l
156.417 114.624 l
155.818 111.168 l
156.016 107.712 l
156.999 104.256 l
159.13 100.8 l
159.792 100.098 l
162.865 97.344 l
164.256 96.3913 l
168.72 94.319 l
170.356 93.888 l
173.184 93.0622 l
} bind def
/p3_1 {
newpath
translate
347.28 116.826 m
351.744 116.074 l
356.208 116.39 l
360.672 117.8 l
361.254 118.08 l
365.136 120.207 l
366.964 121.536 l
369.6 124.167 l
370.359 124.992 l
372.474 128.448 l
373.458 131.904 l
373.557 135.36 l
372.786 138.816 l
370.917 142.272 l
369.6 143.777 l
367.664 145.728 l
365.136 147.56 l
361.855 149.184 l
360.672 149.72 l
356.208 150.966 l
351.744 151.372 l
347.28 151.039 l
342.816 149.847 l
341.381 149.184 l
338.352 147.705 l
335.709 145.728 l
333.888 143.812 l
332.598 142.272 l
330.841 138.816 l
330.168 135.36 l
330.356 131.904 l
331.479 128.448 l
333.888 125.006 l
333.898 124.992 l
337.669 121.536 l
338.352 121.046 l
342.816 118.532 l
344.016 118.08 l
347.28 116.826 l
} bind def
/p3_2 {
newpath
translate
182.112 172.812 m
186.576 172.574 l
191.04 173.158 l
191.74 173.376 l
195.504 174.591 l
199.24 176.832 l
199.968 177.399 l
202.784 180.288 l
204.432 183.225 l
204.713 183.744 l
205.71 187.2 l
205.781 190.656 l
204.97 194.112 l
204.432 195.202 l
203.357 197.568 l
200.653 201.024 l
199.968 201.666 l
196.593 204.48 l
195.504 205.212 l
191.04 207.737 l
190.57 207.936 l
186.576 209.425 l
182.112 209.963 l
177.648 209.38 l
173.618 207.936 l
173.184 207.762 l
168.72 205.285 l
167.606 204.48 l
164.256 201.157 l
164.14 201.024 l
162.104 197.568 l
161.224 194.112 l
161.227 190.656 l
162.055 187.2 l
163.842 183.744 l
164.256 183.193 l
166.605 180.288 l
168.72 178.414 l
171.033 176.832 l
173.184 175.539 l
177.648 173.792 l
179.68 173.376 l
182.112 172.812 l
} bind def
/p3_3 {
newpath
translate
333.888 283.482 m
338.352 283.118 l
342.816 283.885 l
343.037 283.968 l
347.28 285.684 l
349.808 287.424 l
351.744 289.346 l
353.014 290.88 l
354.636 294.336 l
355.154 297.792 l
354.747 301.248 l
353.287 304.704 l
351.744 306.686 l
350.374 308.16 l
347.28 310.429 l
344.836 311.616 l
342.816 312.465 l
338.352 313.426 l
333.888 313.215 l
329.673 311.616 l
329.424 311.51 l
325.06 308.16 l
324.96 308.066 l
322.161 304.704 l
320.837 301.248 l
320.686 297.792 l
321.471 294.336 l
323.237 290.88 l
324.96 288.782 l
326.283 287.424 l
329.424 285.155 l
332.492 283.968 l
333.888 283.482 l
} bind def
0.000 0.645 1.000 setrgbcolor
gsave
446.4 345.6 72 43.2 clipbox
0 0 p3_0
stroke
grestore
gsave
446.4 345.6 72 43.2 clipbox
0 0 p3_1
stroke
grestore
gsave
446.4 345.6 72 43.2 clipbox
0 0 p3_2
stroke
grestore
gsave
446.4 345.6 72 43.2 clipbox
0 0 p3_3
stroke
grestore
/p4_0 {
newpath
translate
168.72 97.3274 m
173.184 95.9134 l
177.648 95.4078 l
182.112 95.7362 l
186.576 97.0715 l
187.125 97.344 l
191.04 100.014 l
191.892 100.8 l
193.97 104.256 l
194.521 107.712 l
193.898 111.168 l
192.052 114.624 l
191.04 115.779 l
188.619 118.08 l
186.576 119.479 l
182.112 121.487 l
181.903 121.536 l
177.648 122.466 l
173.184 122.51 l
168.72 121.54 l
168.71 121.536 l
164.256 119.108 l
163.095 118.08 l
160.676 114.624 l
159.792 111.517 l
159.7 111.168 l
159.753 107.712 l
159.792 107.591 l
160.775 104.256 l
163.259 100.8 l
164.256 99.9417 l
168.687 97.344 l
168.72 97.3274 l
} bind def
/p4_1 {
newpath
translate
347.28 120.075 m
351.744 119.273 l
356.208 119.708 l
360.672 121.481 l
360.764 121.536 l
365.136 124.826 l
365.313 124.992 l
367.889 128.448 l
369.069 131.904 l
369.174 135.36 l
368.208 138.816 l
365.814 142.272 l
365.136 142.909 l
361.207 145.728 l
360.672 146.027 l
356.208 147.66 l
351.744 148.217 l
347.28 147.87 l
342.816 146.45 l
341.525 145.728 l
338.352 143.529 l
337.041 142.272 l
334.819 138.816 l
333.97 135.36 l
334.154 131.904 l
335.48 128.448 l
338.352 125.082 l
338.448 124.992 l
342.816 121.977 l
343.856 121.536 l
347.28 120.075 l
} bind def
/p4_2 {
newpath
translate
182.112 176.421 m
186.576 176.297 l
189.313 176.832 l
191.04 177.179 l
195.504 179.354 l
196.705 180.288 l
199.641 183.744 l
199.968 184.517 l
201.04 187.2 l
201.272 190.656 l
200.423 194.112 l
199.968 194.943 l
198.506 197.568 l
195.504 200.74 l
195.185 201.024 l
191.04 203.979 l
190.115 204.48 l
186.576 206.129 l
182.112 206.875 l
177.648 206.09 l
174.041 204.48 l
173.184 204.022 l
169.19 201.024 l
168.72 200.506 l
166.55 197.568 l
165.392 194.112 l
165.349 190.656 l
166.322 187.2 l
168.467 183.744 l
168.72 183.462 l
172.2 180.288 l
173.184 179.597 l
177.648 177.47 l
180.413 176.832 l
182.112 176.421 l
} bind def
/p4_3 {
newpath
translate
333.888 286.825 m
338.352 286.302 l
342.816 287.228 l
343.233 287.424 l
347.28 289.863 l
348.369 290.88 l
350.51 294.336 l
351.141 297.792 l
350.532 301.248 l
348.495 304.704 l
347.28 305.912 l
344.044 308.16 l
342.816 308.819 l
338.352 310.101 l
333.888 309.865 l
330.207 308.16 l
329.424 307.787 l
326.008 304.704 l
324.96 303.067 l
323.996 301.248 l
323.927 297.792 l
324.96 295.142 l
325.316 294.336 l
327.751 290.88 l
329.424 289.272 l
332.576 287.424 l
333.888 286.825 l
} bind def
0.250 1.000 0.718 setrgbcolor
gsave
446.4 345.6 72 43.2 clipbox
0 0 p4_0
stroke
grestore
gsave
446.4 345.6 72 43.2 clipbox
0 0 p4_1
stroke
grestore
gsave
446.4 345.6 72 43.2 clipbox
0 0 p4_2
stroke
grestore
gsave
446.4 345.6 72 43.2 clipbox
0 0 p4_3
stroke
grestore
/p5_0 {
newpath
translate
168.72 100.142 m
173.184 98.557 l
177.648 98.0426 l
182.112 98.5924 l
186.576 100.545 l
186.938 100.8 l
189.701 104.256 l
190.339 107.712 l
189.432 111.168 l
186.977 114.624 l
186.576 114.99 l
182.112 117.881 l
181.509 118.08 l
177.648 119.139 l
173.184 119.18 l
169.36 118.08 l
168.72 117.839 l
164.982 114.624 l
164.256 113.336 l
163.369 111.168 l
163.142 107.712 l
164.213 104.256 l
164.256 104.199 l
167.662 100.8 l
168.72 100.142 l
} bind def
/p5_1 {
newpath
translate
347.28 122.927 m
351.744 122.169 l
356.208 122.783 l
360.542 124.992 l
360.672 125.082 l
363.873 128.448 l
365.136 131.383 l
365.355 131.904 l
365.488 135.36 l
365.136 136.335 l
364.242 138.816 l
361.126 142.272 l
360.672 142.604 l
356.208 144.801 l
351.744 145.568 l
347.28 145.201 l
342.816 143.474 l
341.137 142.272 l
338.352 139.059 l
338.177 138.816 l
336.981 135.36 l
337.223 131.904 l
338.352 129.63 l
339.003 128.448 l
342.816 125.029 l
342.884 124.992 l
347.28 122.927 l
} bind def
/p5_2 {
newpath
translate
182.112 179.592 m
186.576 179.577 l
189.169 180.288 l
191.04 180.906 l
194.867 183.744 l
195.504 184.637 l
196.909 187.2 l
197.316 190.656 l
196.379 194.112 l
195.504 195.473 l
193.919 197.568 l
191.04 200.079 l
189.514 201.024 l
186.576 202.646 l
182.112 203.609 l
177.648 202.62 l
174.749 201.024 l
173.184 199.926 l
170.916 197.568 l
169.265 194.112 l
169.122 190.656 l
170.311 187.2 l
173.01 183.744 l
173.184 183.59 l
177.648 180.83 l
179.507 180.288 l
182.112 179.592 l
} bind def
/p5_3 {
newpath
translate
333.888 290.292 m
338.352 289.495 l
342.816 290.687 l
343.12 290.88 l
346.478 294.336 l
347.28 297.249 l
347.401 297.792 l
347.28 298.3 l
346.407 301.248 l
343.241 304.704 l
342.816 305.005 l
338.352 306.682 l
333.888 306.516 l
330.151 304.704 l
329.424 304.275 l
327.118 301.248 l
327.093 297.792 l
328.988 294.336 l
329.424 293.781 l
332.937 290.88 l
333.888 290.292 l
} bind def
0.718 1.000 0.250 setrgbcolor
gsave
446.4 345.6 72 43.2 clipbox
0 0 p5_0
stroke
grestore
gsave
446.4 345.6 72 43.2 clipbox
0 0 p5_1
stroke
grestore
gsave
446.4 345.6 72 43.2 clipbox
0 0 p5_2
stroke
grestore
gsave
446.4 345.6 72 43.2 clipbox
0 0 p5_3
stroke
grestore
/p6_0 {
newpath
translate
177.648 100.666 m
178.443 100.8 l
182.112 101.799 l
185.2 104.256 l
186.14 107.712 l
184.68 111.168 l
182.112 113.684 l
180.255 114.624 l
177.648 115.559 l
173.184 115.531 l
171.052 114.624 l
168.72 112.963 l
167.512 111.168 l
166.867 107.712 l
168.119 104.256 l
168.72 103.679 l
173.184 101.274 l
176.412 100.8 l
177.648 100.666 l
} bind def
/p6_1 {
newpath
translate
351.744 124.812 m
352.692 124.992 l
356.208 125.767 l
359.983 128.448 l
360.672 129.432 l
362.004 131.904 l
362.17 135.36 l
360.672 138.608 l
360.556 138.816 l
356.208 142.113 l
355.702 142.272 l
351.744 143.234 l
347.28 142.817 l
346.025 142.272 l
342.816 140.366 l
341.325 138.816 l
339.879 135.36 l
340.18 131.904 l
342.407 128.448 l
342.816 128.082 l
347.28 125.568 l
350.696 124.992 l
351.744 124.812 l
} bind def
/p6_2 {
newpath
translate
182.112 182.767 m
186.576 182.875 l
188.774 183.744 l
191.04 185.198 l
192.662 187.2 l
193.363 190.656 l
192.202 194.112 l
191.04 195.544 l
188.576 197.568 l
186.576 198.818 l
182.112 199.843 l
177.648 198.647 l
176.126 197.568 l
173.285 194.112 l
173.184 193.304 l
172.94 190.656 l
173.184 190.012 l
174.537 187.2 l
177.648 184.387 l
179.091 183.744 l
182.112 182.767 l
} bind def
/p6_3 {
newpath
translate
338.352 293.32 m
340.74 294.336 l
342.816 297.088 l
343.048 297.792 l
342.816 298.443 l
340.974 301.248 l
338.352 302.709 l
333.888 302.856 l
331.173 301.248 l
330.881 297.792 l
333.888 294.398 l
334.06 294.336 l
338.352 293.32 l
} bind def
1.000 0.727 0.000 setrgbcolor
gsave
446.4 345.6 72 43.2 clipbox
0 0 p6_0
stroke
grestore
gsave
446.4 345.6 72 43.2 clipbox
0 0 p6_1
stroke
grestore
gsave
446.4 345.6 72 43.2 clipbox
0 0 p6_2
stroke
grestore
gsave
446.4 345.6 72 43.2 clipbox
0 0 p6_3
stroke
grestore
/p7_0 {
newpath
translate
173.184 105.998 m
177.648 104.512 l
180.118 107.712 l
177.648 110.545 l
173.184 109.737 l
172.156 107.712 l
173.184 105.998 l
} bind def
/p7_1 {
newpath
translate
347.28 128.162 m
351.744 127.429 l
355.102 128.448 l
356.208 129.025 l
358.511 131.904 l
358.775 135.36 l
356.585 138.816 l
356.208 139.102 l
351.744 140.745 l
347.28 140.223 l
345.037 138.816 l
342.816 135.643 l
342.685 135.36 l
342.816 134.168 l
343.161 131.904 l
346.783 128.448 l
347.28 128.162 l
} bind def
/p7_2 {
newpath
translate
182.112 186.653 m
186.576 187.041 l
186.815 187.2 l
188.44 190.656 l
186.674 194.112 l
186.576 194.192 l
182.112 195.277 l
179.521 194.112 l
177.681 190.656 l
180.923 187.2 l
182.112 186.653 l
} bind def
1.000 0.190 0.000 setrgbcolor
gsave
446.4 345.6 72 43.2 clipbox
0 0 p7_0
stroke
grestore
gsave
446.4 345.6 72 43.2 clipbox
0 0 p7_1
stroke
grestore
gsave
446.4 345.6 72 43.2 clipbox
0 0 p7_2
stroke
grestore
/p8_0 {
newpath
translate
347.28 131.682 m
351.744 130.703 l
353.861 131.904 l
354.604 135.36 l
351.744 137.598 l
347.28 136.493 l
346.414 135.36 l
347.042 131.904 l
347.28 131.682 l
} bind def
0.500 0.000 0.000 setrgbcolor
gsave
446.4 345.6 72 43.2 clipbox
0 0 p8_0
stroke
grestore
0.500 setlinewidth
0.000 setgray
gsave
/o {
gsave
newpath
translate
0 0 m
0 4 l
gsave
0.000 setgray
fill
grestore
stroke
grestore
} bind def
72 43.2 o
grestore
gsave
/o {
gsave
newpath
translate
0 0 m
0 -4 l
gsave
0.000 setgray
fill
grestore
stroke
grestore
} bind def
72 388.8 o
grestore
/BitstreamVeraSans-Roman findfont
12.000 scalefont
setfont
gsave
64.304687 30.278125 translate
0.000000 rotate
0.000000 0.171875 m /minus glyphshow
10.054688 0.171875 m /five glyphshow
grestore
gsave
/o {
gsave
newpath
translate
0 0 m
0 4 l
gsave
0.000 setgray
fill
grestore
stroke
grestore
} bind def
146.4 43.2 o
grestore
gsave
/o {
gsave
newpath
translate
0 0 m
0 -4 l
gsave
0.000 setgray
fill
grestore
stroke
grestore
} bind def
146.4 388.8 o
grestore
gsave
143.376562 30.121875 translate
0.000000 rotate
0.000000 0.171875 m /zero glyphshow
grestore
gsave
/o {
gsave
newpath
translate
0 0 m
0 4 l
gsave
0.000 setgray
fill
grestore
stroke
grestore
} bind def
220.8 43.2 o
grestore
gsave
/o {
gsave
newpath
translate
0 0 m
0 -4 l
gsave
0.000 setgray
fill
grestore
stroke
grestore
} bind def
220.8 388.8 o
grestore
gsave
217.964062 30.278125 translate
0.000000 rotate
0.000000 0.171875 m /five glyphshow
grestore
gsave
/o {
gsave
newpath
translate
0 0 m
0 4 l
gsave
0.000 setgray
fill
grestore
stroke
grestore
} bind def
295.2 43.2 o
grestore
gsave
/o {
gsave
newpath
translate
0 0 m
0 -4 l
gsave
0.000 setgray
fill
grestore
stroke
grestore
} bind def
295.2 388.8 o
grestore
gsave
288.614062 30.121875 translate
0.000000 rotate
0.000000 0.171875 m /one glyphshow
7.634766 0.171875 m /zero glyphshow
grestore
gsave
/o {
gsave
newpath
translate
0 0 m
0 4 l
gsave
0.000 setgray
fill
grestore
stroke
grestore
} bind def
369.6 43.2 o
grestore
gsave
/o {
gsave
newpath
translate
0 0 m
0 -4 l
gsave
0.000 setgray
fill
grestore
stroke
grestore
} bind def
369.6 388.8 o
grestore
gsave
363.139062 30.278125 translate
0.000000 rotate
0.000000 0.171875 m /one glyphshow
7.634766 0.171875 m /five glyphshow
grestore
gsave
/o {
gsave
newpath
translate
0 0 m
0 4 l
gsave
0.000 setgray
fill
grestore
stroke
grestore
} bind def
444 43.2 o
grestore
gsave
/o {
gsave
newpath
translate
0 0 m
0 -4 l
gsave
0.000 setgray
fill
grestore
stroke
grestore
} bind def
444 388.8 o
grestore
gsave
437.195312 30.121875 translate
0.000000 rotate
0.000000 0.171875 m /two glyphshow
7.634766 0.171875 m /zero glyphshow
grestore
gsave
/o {
gsave
newpath
translate
0 0 m
0 4 l
gsave
0.000 setgray
fill
grestore
stroke
grestore
} bind def
518.4 43.2 o
grestore
gsave
/o {
gsave
newpath
translate
0 0 m
0 -4 l
gsave
0.000 setgray
fill
grestore
stroke
grestore
} bind def
518.4 388.8 o
grestore
gsave
511.720312 30.121875 translate
0.000000 rotate
0.000000 0.171875 m /two glyphshow
7.634766 0.171875 m /five glyphshow
grestore
gsave
/o {
gsave
newpath
translate
0 0 m
4 0 l
gsave
0.000 setgray
fill
grestore
stroke
grestore
} bind def
72 43.2 o
grestore
gsave
/o {
gsave
newpath
translate
0 0 m
-4 0 l
gsave
0.000 setgray
fill
grestore
stroke
grestore
} bind def
518.4 43.2 o
grestore
gsave
44.718750 38.660937 translate
0.000000 rotate
0.000000 0.171875 m /minus glyphshow
10.054688 0.171875 m /one glyphshow
17.689453 0.171875 m /zero glyphshow
grestore
gsave
/o {
gsave
newpath
translate
0 0 m
4 0 l
gsave
0.000 setgray
fill
grestore
stroke
grestore
} bind def
72 100.8 o
grestore
gsave
/o {
gsave
newpath
translate
0 0 m
-4 0 l
gsave
0.000 setgray
fill
grestore
stroke
grestore
} bind def
518.4 100.8 o
grestore
gsave
52.609375 96.339062 translate
0.000000 rotate
0.000000 0.171875 m /minus glyphshow
10.054688 0.171875 m /five glyphshow
grestore
gsave
/o {
gsave
newpath
translate
0 0 m
4 0 l
gsave
0.000 setgray
fill
grestore
stroke
grestore
} bind def
72 158.4 o
grestore
gsave
/o {
gsave
newpath
translate
0 0 m
-4 0 l
gsave
0.000 setgray
fill
grestore
stroke
grestore
} bind def
518.4 158.4 o
grestore
gsave
61.953125 153.860937 translate
0.000000 rotate
0.000000 0.171875 m /zero glyphshow
grestore
gsave
/o {
gsave
newpath
translate
0 0 m
4 0 l
gsave
0.000 setgray
fill
grestore
stroke
grestore
} bind def
72 216 o
grestore
gsave
/o {
gsave
newpath
translate
0 0 m
-4 0 l
gsave
0.000 setgray
fill
grestore
stroke
grestore
} bind def
518.4 216 o
grestore
gsave
62.328125 211.539062 translate
0.000000 rotate
0.000000 0.171875 m /five glyphshow
grestore
gsave
/o {
gsave
newpath
translate
0 0 m
4 0 l
gsave
0.000 setgray
fill
grestore
stroke
grestore
} bind def
72 273.6 o
grestore
gsave
/o {
gsave
newpath
translate
0 0 m
-4 0 l
gsave
0.000 setgray
fill
grestore
stroke
grestore
} bind def
518.4 273.6 o
grestore
gsave
54.828125 269.060938 translate
0.000000 rotate
0.000000 0.171875 m /one glyphshow
7.634766 0.171875 m /zero glyphshow
grestore
gsave
/o {
gsave
newpath
translate
0 0 m
4 0 l
gsave
0.000 setgray
fill
grestore
stroke
grestore
} bind def
72 331.2 o
grestore
gsave
/o {
gsave
newpath
translate
0 0 m
-4 0 l
gsave
0.000 setgray
fill
grestore
stroke
grestore
} bind def
518.4 331.2 o
grestore
gsave
55.078125 326.739062 translate
0.000000 rotate
0.000000 0.171875 m /one glyphshow
7.634766 0.171875 m /five glyphshow
grestore
gsave
/o {
gsave
newpath
translate
0 0 m
4 0 l
gsave
0.000 setgray
fill
grestore
stroke
grestore
} bind def
72 388.8 o
grestore
gsave
/o {
gsave
newpath
translate
0 0 m
-4 0 l
gsave
0.000 setgray
fill
grestore
stroke
grestore
} bind def
518.4 388.8 o
grestore
gsave
54.390625 384.260938 translate
0.000000 rotate
0.000000 0.171875 m /two glyphshow
7.634766 0.171875 m /zero glyphshow
grestore
1.000 setlinewidth
2 setlinecap
gsave
72 388.8 m
518.4 388.8 l
stroke
grestore
gsave
518.4 43.2 m
518.4 388.8 l
stroke
grestore
gsave
72 43.2 m
518.4 43.2 l
stroke
grestore
gsave
72 43.2 m
72 388.8 l
stroke
grestore

end
showpage
