%!PS-Adobe-3.0 EPSF-3.0
%%Title: /home/lboyles/research/polya_hclustering/beta42_sample.eps
%%Creator: matplotlib version 1.0.1, http://matplotlib.sourceforge.net/
%%CreationDate: Fri Jan  6 08:03:23 2012
%%Orientation: portrait
%%BoundingBox: 13 175 598 616
%%EndComments
%%BeginProlog
/mpldict 8 dict def
mpldict begin
/m { moveto } bind def
/l { lineto } bind def
/r { rlineto } bind def
/c { curveto } bind def
/cl { closepath } bind def
/box {
m
1 index 0 r
0 exch r
neg 0 r
cl
} bind def
/clipbox {
box
clip
newpath
} bind def
%!PS-Adobe-3.0 Resource-Font
%%Title: Bitstream Vera Sans
%%Copyright: Copyright (c) 2003 by Bitstream, Inc. All Rights Reserved.
%%Creator: Converted from TrueType to type 3 by PPR
25 dict begin
/_d{bind def}bind def
/_m{moveto}_d
/_l{lineto}_d
/_cl{closepath eofill}_d
/_c{curveto}_d
/_sc{7 -1 roll{setcachedevice}{pop pop pop pop pop pop}ifelse}_d
/_e{exec}_d
/FontName /BitstreamVeraSans-Roman def
/PaintType 0 def
/FontMatrix[.001 0 0 .001 0 0]def
/FontBBox[-182 -235 1287 928]def
/FontType 3 def
/Encoding [ /period /zero /one /two /three /four /five /six /seven /eight /nine ] def
/FontInfo 10 dict dup begin
/FamilyName (Bitstream Vera Sans) def
/FullName (Bitstream Vera Sans) def
/Notice (Copyright (c) 2003 by Bitstream, Inc. All Rights Reserved. Bitstream Vera is a trademark of Bitstream, Inc.) def
/Weight (Roman) def
/Version (Release 1.10) def
/ItalicAngle 0.0 def
/isFixedPitch false def
/UnderlinePosition -213 def
/UnderlineThickness 143 def
end readonly def
/CharStrings 11 dict dup begin
/period{318 0 107 0 210 124 _sc
107 124 _m
210 124 _l
210 0 _l
107 0 _l
107 124 _l
_cl}_d
/zero{636 0 66 -13 570 742 _sc
318 664 _m
267 664 229 639 203 589 _c
177 539 165 464 165 364 _c
165 264 177 189 203 139 _c
229 89 267 64 318 64 _c
369 64 407 89 433 139 _c
458 189 471 264 471 364 _c
471 464 458 539 433 589 _c
407 639 369 664 318 664 _c
318 742 _m
399 742 461 709 505 645 _c
548 580 570 486 570 364 _c
570 241 548 147 505 83 _c
461 19 399 -13 318 -13 _c
236 -13 173 19 130 83 _c
87 147 66 241 66 364 _c
66 486 87 580 130 645 _c
173 709 236 742 318 742 _c
_cl}_d
/one{636 0 110 0 544 729 _sc
124 83 _m
285 83 _l
285 639 _l
110 604 _l
110 694 _l
284 729 _l
383 729 _l
383 83 _l
544 83 _l
544 0 _l
124 0 _l
124 83 _l
_cl}_d
/two{{636 0 73 0 536 742 _sc
192 83 _m
536 83 _l
536 0 _l
73 0 _l
73 83 _l
110 121 161 173 226 239 _c
290 304 331 346 348 365 _c
380 400 402 430 414 455 _c
426 479 433 504 433 528 _c
433 566 419 598 392 622 _c
365 646 330 659 286 659 _c
255 659 222 653 188 643 _c
154 632 117 616 78 594 _c
78 694 _l
118 710 155 722 189 730 _c
223 738 255 742 284 742 _c
359 742 419 723 464 685 _c
509 647 532 597 532 534 _c
532 504 526 475 515 449 _c
504 422 484 390 454 354 _c
446 344 420 317 376 272 _c
332 227 271 164 192 83 _c
_cl}_e}_d
/three{{636 0 76 -13 556 742 _sc
406 393 _m
453 383 490 362 516 330 _c
542 298 556 258 556 212 _c
556 140 531 84 482 45 _c
432 6 362 -13 271 -13 _c
240 -13 208 -10 176 -4 _c
144 1 110 10 76 22 _c
76 117 _l
103 101 133 89 166 81 _c
198 73 232 69 268 69 _c
330 69 377 81 409 105 _c
441 129 458 165 458 212 _c
458 254 443 288 413 312 _c
383 336 341 349 287 349 _c
202 349 _l
202 430 _l
291 430 _l
339 430 376 439 402 459 _c
428 478 441 506 441 543 _c
441 580 427 609 401 629 _c
374 649 336 659 287 659 _c
260 659 231 656 200 650 _c
169 644 135 635 98 623 _c
98 711 _l
135 721 170 729 203 734 _c
235 739 266 742 296 742 _c
}_e{370 742 429 725 473 691 _c
517 657 539 611 539 553 _c
539 513 527 479 504 451 _c
481 423 448 403 406 393 _c
_cl}_e}_d
/four{636 0 49 0 580 729 _sc
378 643 _m
129 254 _l
378 254 _l
378 643 _l
352 729 _m
476 729 _l
476 254 _l
580 254 _l
580 172 _l
476 172 _l
476 0 _l
378 0 _l
378 172 _l
49 172 _l
49 267 _l
352 729 _l
_cl}_d
/five{{636 0 77 -13 549 729 _sc
108 729 _m
495 729 _l
495 646 _l
198 646 _l
198 467 _l
212 472 227 476 241 478 _c
255 480 270 482 284 482 _c
365 482 429 459 477 415 _c
525 370 549 310 549 234 _c
549 155 524 94 475 51 _c
426 8 357 -13 269 -13 _c
238 -13 207 -10 175 -6 _c
143 -1 111 6 77 17 _c
77 116 _l
106 100 136 88 168 80 _c
199 72 232 69 267 69 _c
323 69 368 83 401 113 _c
433 143 450 183 450 234 _c
450 284 433 324 401 354 _c
368 384 323 399 267 399 _c
241 399 214 396 188 390 _c
162 384 135 375 108 363 _c
108 729 _l
_cl}_e}_d
/six{{636 0 70 -13 573 742 _sc
330 404 _m
286 404 251 388 225 358 _c
199 328 186 286 186 234 _c
186 181 199 139 225 109 _c
251 79 286 64 330 64 _c
374 64 409 79 435 109 _c
461 139 474 181 474 234 _c
474 286 461 328 435 358 _c
409 388 374 404 330 404 _c
526 713 _m
526 623 _l
501 635 476 644 451 650 _c
425 656 400 659 376 659 _c
310 659 260 637 226 593 _c
192 549 172 482 168 394 _c
187 422 211 444 240 459 _c
269 474 301 482 336 482 _c
409 482 467 459 509 415 _c
551 371 573 310 573 234 _c
573 159 550 99 506 54 _c
462 9 403 -13 330 -13 _c
246 -13 181 19 137 83 _c
92 147 70 241 70 364 _c
70 479 97 571 152 639 _c
206 707 280 742 372 742 _c
}_e{396 742 421 739 447 735 _c
472 730 498 723 526 713 _c
_cl}_e}_d
/seven{636 0 82 0 551 729 _sc
82 729 _m
551 729 _l
551 687 _l
286 0 _l
183 0 _l
432 646 _l
82 646 _l
82 729 _l
_cl}_d
/eight{{636 0 68 -13 568 742 _sc
318 346 _m
271 346 234 333 207 308 _c
180 283 167 249 167 205 _c
167 161 180 126 207 101 _c
234 76 271 64 318 64 _c
364 64 401 76 428 102 _c
455 127 469 161 469 205 _c
469 249 455 283 429 308 _c
402 333 365 346 318 346 _c
219 388 _m
177 398 144 418 120 447 _c
96 476 85 511 85 553 _c
85 611 105 657 147 691 _c
188 725 245 742 318 742 _c
390 742 447 725 489 691 _c
530 657 551 611 551 553 _c
551 511 539 476 515 447 _c
491 418 459 398 417 388 _c
464 377 501 355 528 323 _c
554 291 568 251 568 205 _c
568 134 546 80 503 43 _c
459 5 398 -13 318 -13 _c
237 -13 175 5 132 43 _c
89 80 68 134 68 205 _c
68 251 81 291 108 323 _c
134 355 171 377 219 388 _c
}_e{183 544 _m
183 506 194 476 218 455 _c
242 434 275 424 318 424 _c
360 424 393 434 417 455 _c
441 476 453 506 453 544 _c
453 582 441 611 417 632 _c
393 653 360 664 318 664 _c
275 664 242 653 218 632 _c
194 611 183 582 183 544 _c
_cl}_e}_d
/nine{{636 0 63 -13 566 742 _sc
110 15 _m
110 105 _l
134 93 159 84 185 78 _c
210 72 235 69 260 69 _c
324 69 374 90 408 134 _c
442 178 462 244 468 334 _c
448 306 424 284 396 269 _c
367 254 335 247 300 247 _c
226 247 168 269 126 313 _c
84 357 63 417 63 494 _c
63 568 85 628 129 674 _c
173 719 232 742 306 742 _c
390 742 455 709 499 645 _c
543 580 566 486 566 364 _c
566 248 538 157 484 89 _c
429 21 356 -13 264 -13 _c
239 -13 214 -10 189 -6 _c
163 -2 137 5 110 15 _c
306 324 _m
350 324 385 339 411 369 _c
437 399 450 441 450 494 _c
450 546 437 588 411 618 _c
385 648 350 664 306 664 _c
262 664 227 648 201 618 _c
175 588 162 546 162 494 _c
}_e{162 441 175 399 201 369 _c
227 339 262 324 306 324 _c
_cl}_e}_d
end readonly def

/BuildGlyph
 {exch begin
 CharStrings exch
 2 copy known not{pop /.notdef}if
 true 3 1 roll get exec
 end}_d

/BuildChar {
 1 index /Encoding get exch get
 1 index /BuildGlyph get exec
}_d

FontName currentdict end definefont pop
end
%%EndProlog
mpldict begin
13.5 175.5 translate
585 441 0 0 clipbox
1.000 setlinewidth
1 setlinejoin
2 setlinecap
[] 0 setdash
1.000 setgray
gsave
0 0 m
585 0 l
585 441 l
0 441 l
cl
gsave
fill
grestore
stroke
grestore
gsave
73.125 44.1 m
526.5 44.1 l
526.5 396.9 l
73.125 396.9 l
cl
fill
grestore
/p0_0 {
newpath
translate
75.3919 44.1 m
75.3919 49.3979 l
79.9256 49.3979 l
79.9256 44.1 l
} bind def
/p0_1 {
newpath
translate
77.6587 49.3979 m
77.6587 68.4678 l
84.4594 68.4678 l
84.4594 44.1 l
} bind def
/p0_2 {
newpath
translate
93.5269 44.1 m
93.5269 44.102 l
98.0606 44.102 l
98.0606 44.1 l
} bind def
/p0_3 {
newpath
translate
88.9931 44.1 m
88.9931 44.1163 l
95.7938 44.1163 l
95.7938 44.102 l
} bind def
/p0_4 {
newpath
translate
92.3934 44.1163 m
92.3934 44.1532 l
102.594 44.1532 l
102.594 44.1 l
} bind def
/p0_5 {
newpath
translate
107.128 44.1 m
107.128 44.139 l
111.662 44.139 l
111.662 44.1 l
} bind def
/p0_6 {
newpath
translate
97.4939 44.1532 m
97.4939 44.1707 l
109.395 44.1707 l
109.395 44.139 l
} bind def
/p0_7 {
newpath
translate
116.196 44.1 m
116.196 44.1199 l
120.729 44.1199 l
120.729 44.1 l
} bind def
/p0_8 {
newpath
translate
129.797 44.1 m
129.797 44.1064 l
134.331 44.1064 l
134.331 44.1 l
} bind def
/p0_9 {
newpath
translate
125.263 44.1 m
125.263 44.1263 l
132.064 44.1263 l
132.064 44.1064 l
} bind def
/p0_a {
newpath
translate
118.463 44.1199 m
118.463 44.165 l
128.663 44.165 l
128.663 44.1263 l
} bind def
/p0_b {
newpath
translate
103.444 44.1707 m
103.444 44.3431 l
123.563 44.3431 l
123.563 44.165 l
} bind def
/p0_c {
newpath
translate
143.398 44.1 m
143.398 44.1056 l
147.932 44.1056 l
147.932 44.1 l
} bind def
/p0_d {
newpath
translate
152.466 44.1 m
152.466 44.1088 l
156.999 44.1088 l
156.999 44.1 l
} bind def
/p0_e {
newpath
translate
145.665 44.1056 m
145.665 44.1172 l
154.733 44.1172 l
154.733 44.1088 l
} bind def
/p0_f {
newpath
translate
150.199 44.1172 m
150.199 44.365 l
161.533 44.365 l
161.533 44.1 l
} bind def
/p0_10 {
newpath
translate
138.864 44.1 m
138.864 44.5671 l
155.866 44.5671 l
155.866 44.365 l
} bind def
/p0_11 {
newpath
translate
113.504 44.3431 m
113.504 45.1277 l
147.365 45.1277 l
147.365 44.5671 l
} bind def
/p0_12 {
newpath
translate
166.067 44.1 m
166.067 44.1698 l
170.601 44.1698 l
170.601 44.1 l
} bind def
/p0_13 {
newpath
translate
175.134 44.1 m
175.134 44.1186 l
179.668 44.1186 l
179.668 44.1 l
} bind def
/p0_14 {
newpath
translate
168.334 44.1698 m
168.334 44.3007 l
177.401 44.3007 l
177.401 44.1186 l
} bind def
/p0_15 {
newpath
translate
188.736 44.1 m
188.736 44.173 l
193.269 44.173 l
193.269 44.1 l
} bind def
/p0_16 {
newpath
translate
184.202 44.1 m
184.202 44.3008 l
191.002 44.3008 l
191.002 44.173 l
} bind def
/p0_17 {
newpath
translate
202.337 44.1 m
202.337 44.1156 l
206.871 44.1156 l
206.871 44.1 l
} bind def
/p0_18 {
newpath
translate
197.803 44.1 m
197.803 44.1289 l
204.604 44.1289 l
204.604 44.1156 l
} bind def
/p0_19 {
newpath
translate
187.602 44.3008 m
187.602 44.7604 l
201.203 44.7604 l
201.203 44.1289 l
} bind def
/p0_1a {
newpath
translate
172.868 44.3007 m
172.868 44.9331 l
194.403 44.9331 l
194.403 44.7604 l
} bind def
/p0_1b {
newpath
translate
220.472 44.1 m
220.472 44.1027 l
225.006 44.1027 l
225.006 44.1 l
} bind def
/p0_1c {
newpath
translate
215.938 44.1 m
215.938 44.1052 l
222.739 44.1052 l
222.739 44.1027 l
} bind def
/p0_1d {
newpath
translate
211.404 44.1 m
211.404 44.1088 l
219.338 44.1088 l
219.338 44.1052 l
} bind def
/p0_1e {
newpath
translate
229.539 44.1 m
229.539 44.101 l
234.073 44.101 l
234.073 44.1 l
} bind def
/p0_1f {
newpath
translate
231.806 44.101 m
231.806 44.1033 l
238.607 44.1033 l
238.607 44.1 l
} bind def
/p0_20 {
newpath
translate
215.371 44.1088 m
215.371 44.1171 l
235.207 44.1171 l
235.207 44.1033 l
} bind def
/p0_21 {
newpath
translate
225.289 44.1171 m
225.289 44.3224 l
243.141 44.3224 l
243.141 44.1 l
} bind def
/p0_22 {
newpath
translate
183.635 44.9331 m
183.635 45.758 l
234.215 45.758 l
234.215 44.3224 l
} bind def
/p0_23 {
newpath
translate
130.434 45.1277 m
130.434 50.2659 l
208.925 50.2659 l
208.925 45.758 l
} bind def
/p0_24 {
newpath
translate
81.0591 68.4678 m
81.0591 89.7629 l
169.68 89.7629 l
169.68 50.2659 l
} bind def
0 setlinecap
0.000 0.500 0.000 setrgbcolor
gsave
453.4 352.8 73.12 44.1 clipbox
0 0 p0_0
stroke
grestore
gsave
453.4 352.8 73.12 44.1 clipbox
0 0 p0_1
stroke
grestore
gsave
453.4 352.8 73.12 44.1 clipbox
0 0 p0_2
stroke
grestore
gsave
453.4 352.8 73.12 44.1 clipbox
0 0 p0_3
stroke
grestore
gsave
453.4 352.8 73.12 44.1 clipbox
0 0 p0_4
stroke
grestore
gsave
453.4 352.8 73.12 44.1 clipbox
0 0 p0_5
stroke
grestore
gsave
453.4 352.8 73.12 44.1 clipbox
0 0 p0_6
stroke
grestore
gsave
453.4 352.8 73.12 44.1 clipbox
0 0 p0_7
stroke
grestore
gsave
453.4 352.8 73.12 44.1 clipbox
0 0 p0_8
stroke
grestore
gsave
453.4 352.8 73.12 44.1 clipbox
0 0 p0_9
stroke
grestore
gsave
453.4 352.8 73.12 44.1 clipbox
0 0 p0_a
stroke
grestore
gsave
453.4 352.8 73.12 44.1 clipbox
0 0 p0_b
stroke
grestore
gsave
453.4 352.8 73.12 44.1 clipbox
0 0 p0_c
stroke
grestore
gsave
453.4 352.8 73.12 44.1 clipbox
0 0 p0_d
stroke
grestore
gsave
453.4 352.8 73.12 44.1 clipbox
0 0 p0_e
stroke
grestore
gsave
453.4 352.8 73.12 44.1 clipbox
0 0 p0_f
stroke
grestore
gsave
453.4 352.8 73.12 44.1 clipbox
0 0 p0_10
stroke
grestore
gsave
453.4 352.8 73.12 44.1 clipbox
0 0 p0_11
stroke
grestore
gsave
453.4 352.8 73.12 44.1 clipbox
0 0 p0_12
stroke
grestore
gsave
453.4 352.8 73.12 44.1 clipbox
0 0 p0_13
stroke
grestore
gsave
453.4 352.8 73.12 44.1 clipbox
0 0 p0_14
stroke
grestore
gsave
453.4 352.8 73.12 44.1 clipbox
0 0 p0_15
stroke
grestore
gsave
453.4 352.8 73.12 44.1 clipbox
0 0 p0_16
stroke
grestore
gsave
453.4 352.8 73.12 44.1 clipbox
0 0 p0_17
stroke
grestore
gsave
453.4 352.8 73.12 44.1 clipbox
0 0 p0_18
stroke
grestore
gsave
453.4 352.8 73.12 44.1 clipbox
0 0 p0_19
stroke
grestore
gsave
453.4 352.8 73.12 44.1 clipbox
0 0 p0_1a
stroke
grestore
gsave
453.4 352.8 73.12 44.1 clipbox
0 0 p0_1b
stroke
grestore
gsave
453.4 352.8 73.12 44.1 clipbox
0 0 p0_1c
stroke
grestore
gsave
453.4 352.8 73.12 44.1 clipbox
0 0 p0_1d
stroke
grestore
gsave
453.4 352.8 73.12 44.1 clipbox
0 0 p0_1e
stroke
grestore
gsave
453.4 352.8 73.12 44.1 clipbox
0 0 p0_1f
stroke
grestore
gsave
453.4 352.8 73.12 44.1 clipbox
0 0 p0_20
stroke
grestore
gsave
453.4 352.8 73.12 44.1 clipbox
0 0 p0_21
stroke
grestore
gsave
453.4 352.8 73.12 44.1 clipbox
0 0 p0_22
stroke
grestore
gsave
453.4 352.8 73.12 44.1 clipbox
0 0 p0_23
stroke
grestore
gsave
453.4 352.8 73.12 44.1 clipbox
0 0 p0_24
stroke
grestore
/p1_0 {
newpath
translate
252.208 44.1 m
252.208 44.1029 l
256.742 44.1029 l
256.742 44.1 l
} bind def
/p1_1 {
newpath
translate
254.475 44.1029 m
254.475 44.1068 l
261.276 44.1068 l
261.276 44.1 l
} bind def
/p1_2 {
newpath
translate
257.875 44.1068 m
257.875 44.1201 l
265.809 44.1201 l
265.809 44.1 l
} bind def
/p1_3 {
newpath
translate
261.842 44.1201 m
261.842 44.2226 l
270.343 44.2226 l
270.343 44.1 l
} bind def
/p1_4 {
newpath
translate
274.877 44.1 m
274.877 45.0131 l
279.411 45.0131 l
279.411 44.1 l
} bind def
/p1_5 {
newpath
translate
266.093 44.2226 m
266.093 45.7141 l
277.144 45.7141 l
277.144 45.0131 l
} bind def
/p1_6 {
newpath
translate
247.674 44.1 m
247.674 50.8337 l
271.618 50.8337 l
271.618 45.7141 l
} bind def
/p1_7 {
newpath
translate
259.646 50.8337 m
259.646 75.6874 l
283.944 75.6874 l
283.944 44.1 l
} bind def
/p1_8 {
newpath
translate
288.478 44.1 m
288.478 49.6027 l
293.012 49.6027 l
293.012 44.1 l
} bind def
/p1_9 {
newpath
translate
290.745 49.6027 m
290.745 58.6382 l
297.546 58.6382 l
297.546 44.1 l
} bind def
/p1_a {
newpath
translate
302.079 44.1 m
302.079 44.1502 l
306.613 44.1502 l
306.613 44.1 l
} bind def
/p1_b {
newpath
translate
304.346 44.1502 m
304.346 44.285 l
311.147 44.285 l
311.147 44.1 l
} bind def
/p1_c {
newpath
translate
315.681 44.1 m
315.681 44.2579 l
320.214 44.2579 l
320.214 44.1 l
} bind def
/p1_d {
newpath
translate
307.747 44.285 m
307.747 44.6231 l
317.947 44.6231 l
317.947 44.2579 l
} bind def
/p1_e {
newpath
translate
329.282 44.1 m
329.282 44.1274 l
333.816 44.1274 l
333.816 44.1 l
} bind def
/p1_f {
newpath
translate
324.748 44.1 m
324.748 44.2044 l
331.549 44.2044 l
331.549 44.1274 l
} bind def
/p1_10 {
newpath
translate
328.148 44.2044 m
328.148 44.3275 l
338.349 44.3275 l
338.349 44.1 l
} bind def
/p1_11 {
newpath
translate
333.249 44.3275 m
333.249 44.814 l
342.883 44.814 l
342.883 44.1 l
} bind def
/p1_12 {
newpath
translate
312.847 44.6231 m
312.847 50.368 l
338.066 50.368 l
338.066 44.814 l
} bind def
/p1_13 {
newpath
translate
347.417 44.1 m
347.417 44.1062 l
351.951 44.1062 l
351.951 44.1 l
} bind def
/p1_14 {
newpath
translate
349.684 44.1062 m
349.684 44.1416 l
356.484 44.1416 l
356.484 44.1 l
} bind def
/p1_15 {
newpath
translate
353.084 44.1416 m
353.084 44.1574 l
361.018 44.1574 l
361.018 44.1 l
} bind def
/p1_16 {
newpath
translate
357.051 44.1574 m
357.051 44.2681 l
365.552 44.2681 l
365.552 44.1 l
} bind def
/p1_17 {
newpath
translate
370.086 44.1 m
370.086 44.1086 l
374.619 44.1086 l
374.619 44.1 l
} bind def
/p1_18 {
newpath
translate
372.353 44.1086 m
372.353 44.1988 l
379.153 44.1988 l
379.153 44.1 l
} bind def
/p1_19 {
newpath
translate
361.301 44.2681 m
361.301 44.6702 l
375.753 44.6702 l
375.753 44.1988 l
} bind def
/p1_1a {
newpath
translate
383.687 44.1 m
383.687 44.1209 l
388.221 44.1209 l
388.221 44.1 l
} bind def
/p1_1b {
newpath
translate
397.288 44.1 m
397.288 44.1025 l
401.822 44.1025 l
401.822 44.1 l
} bind def
/p1_1c {
newpath
translate
392.754 44.1 m
392.754 44.1081 l
399.555 44.1081 l
399.555 44.1025 l
} bind def
/p1_1d {
newpath
translate
385.954 44.1209 m
385.954 44.201 l
396.155 44.201 l
396.155 44.1081 l
} bind def
/p1_1e {
newpath
translate
410.889 44.1 m
410.889 44.1024 l
415.423 44.1024 l
415.423 44.1 l
} bind def
/p1_1f {
newpath
translate
413.156 44.1024 m
413.156 44.1077 l
419.957 44.1077 l
419.957 44.1 l
} bind def
/p1_20 {
newpath
translate
406.356 44.1 m
406.356 44.1188 l
416.557 44.1188 l
416.557 44.1077 l
} bind def
/p1_21 {
newpath
translate
411.456 44.1188 m
411.456 44.1488 l
424.491 44.1488 l
424.491 44.1 l
} bind def
/p1_22 {
newpath
translate
429.024 44.1 m
429.024 44.1033 l
433.558 44.1033 l
433.558 44.1 l
} bind def
/p1_23 {
newpath
translate
438.092 44.1 m
438.092 44.1076 l
442.626 44.1076 l
442.626 44.1 l
} bind def
/p1_24 {
newpath
translate
431.291 44.1033 m
431.291 44.1278 l
440.359 44.1278 l
440.359 44.1076 l
} bind def
/p1_25 {
newpath
translate
417.973 44.1488 m
417.973 44.1848 l
435.825 44.1848 l
435.825 44.1278 l
} bind def
/p1_26 {
newpath
translate
391.054 44.201 m
391.054 44.2993 l
426.899 44.2993 l
426.899 44.1848 l
} bind def
/p1_27 {
newpath
translate
368.527 44.6702 m
368.527 45.5628 l
408.977 45.5628 l
408.977 44.2993 l
} bind def
/p1_28 {
newpath
translate
451.693 44.1 m
451.693 44.1182 l
456.227 44.1182 l
456.227 44.1 l
} bind def
/p1_29 {
newpath
translate
447.159 44.1 m
447.159 44.2292 l
453.96 44.2292 l
453.96 44.1182 l
} bind def
/p1_2a {
newpath
translate
460.761 44.1 m
460.761 44.1124 l
465.294 44.1124 l
465.294 44.1 l
} bind def
/p1_2b {
newpath
translate
478.896 44.1 m
478.896 44.1 l
483.429 44.1 l
483.429 44.1 l
} bind def
/p1_2c {
newpath
translate
474.362 44.1 m
474.362 44.1 l
481.163 44.1 l
481.163 44.1 l
} bind def
/p1_2d {
newpath
translate
492.497 44.1 m
492.497 44.1001 l
497.031 44.1001 l
497.031 44.1 l
} bind def
/p1_2e {
newpath
translate
487.963 44.1 m
487.963 44.1002 l
494.764 44.1002 l
494.764 44.1001 l
} bind def
/p1_2f {
newpath
translate
477.762 44.1 m
477.762 44.1018 l
491.363 44.1018 l
491.363 44.1002 l
} bind def
/p1_30 {
newpath
translate
469.828 44.1 m
469.828 44.104 l
484.563 44.104 l
484.563 44.1018 l
} bind def
/p1_31 {
newpath
translate
463.028 44.1124 m
463.028 44.1434 l
477.195 44.1434 l
477.195 44.104 l
} bind def
/p1_32 {
newpath
translate
450.56 44.2292 m
450.56 44.5055 l
470.111 44.5055 l
470.111 44.1434 l
} bind def
/p1_33 {
newpath
translate
506.098 44.1 m
506.098 44.2792 l
510.632 44.2792 l
510.632 44.1 l
} bind def
/p1_34 {
newpath
translate
501.564 44.1 m
501.564 44.5055 l
508.365 44.5055 l
508.365 44.2792 l
} bind def
/p1_35 {
newpath
translate
519.699 44.1 m
519.699 44.154 l
524.233 44.154 l
524.233 44.1 l
} bind def
/p1_36 {
newpath
translate
515.166 44.1 m
515.166 44.4811 l
521.966 44.4811 l
521.966 44.154 l
} bind def
/p1_37 {
newpath
translate
504.965 44.5055 m
504.965 45.1306 l
518.566 45.1306 l
518.566 44.4811 l
} bind def
/p1_38 {
newpath
translate
460.336 44.5055 m
460.336 46.5711 l
511.765 46.5711 l
511.765 45.1306 l
} bind def
/p1_39 {
newpath
translate
388.752 45.5628 m
388.752 50.4775 l
486.05 50.4775 l
486.05 46.5711 l
} bind def
/p1_3a {
newpath
translate
325.457 50.368 m
325.457 61.0866 l
437.401 61.0866 l
437.401 50.4775 l
} bind def
/p1_3b {
newpath
translate
294.145 58.6382 m
294.145 81.9522 l
381.429 81.9522 l
381.429 61.0866 l
} bind def
/p1_3c {
newpath
translate
271.795 75.6874 m
271.795 152.102 l
337.787 152.102 l
337.787 81.9522 l
} bind def
1.000 0.000 0.000 setrgbcolor
gsave
453.4 352.8 73.12 44.1 clipbox
0 0 p1_0
stroke
grestore
gsave
453.4 352.8 73.12 44.1 clipbox
0 0 p1_1
stroke
grestore
gsave
453.4 352.8 73.12 44.1 clipbox
0 0 p1_2
stroke
grestore
gsave
453.4 352.8 73.12 44.1 clipbox
0 0 p1_3
stroke
grestore
gsave
453.4 352.8 73.12 44.1 clipbox
0 0 p1_4
stroke
grestore
gsave
453.4 352.8 73.12 44.1 clipbox
0 0 p1_5
stroke
grestore
gsave
453.4 352.8 73.12 44.1 clipbox
0 0 p1_6
stroke
grestore
gsave
453.4 352.8 73.12 44.1 clipbox
0 0 p1_7
stroke
grestore
gsave
453.4 352.8 73.12 44.1 clipbox
0 0 p1_8
stroke
grestore
gsave
453.4 352.8 73.12 44.1 clipbox
0 0 p1_9
stroke
grestore
gsave
453.4 352.8 73.12 44.1 clipbox
0 0 p1_a
stroke
grestore
gsave
453.4 352.8 73.12 44.1 clipbox
0 0 p1_b
stroke
grestore
gsave
453.4 352.8 73.12 44.1 clipbox
0 0 p1_c
stroke
grestore
gsave
453.4 352.8 73.12 44.1 clipbox
0 0 p1_d
stroke
grestore
gsave
453.4 352.8 73.12 44.1 clipbox
0 0 p1_e
stroke
grestore
gsave
453.4 352.8 73.12 44.1 clipbox
0 0 p1_f
stroke
grestore
gsave
453.4 352.8 73.12 44.1 clipbox
0 0 p1_10
stroke
grestore
gsave
453.4 352.8 73.12 44.1 clipbox
0 0 p1_11
stroke
grestore
gsave
453.4 352.8 73.12 44.1 clipbox
0 0 p1_12
stroke
grestore
gsave
453.4 352.8 73.12 44.1 clipbox
0 0 p1_13
stroke
grestore
gsave
453.4 352.8 73.12 44.1 clipbox
0 0 p1_14
stroke
grestore
gsave
453.4 352.8 73.12 44.1 clipbox
0 0 p1_15
stroke
grestore
gsave
453.4 352.8 73.12 44.1 clipbox
0 0 p1_16
stroke
grestore
gsave
453.4 352.8 73.12 44.1 clipbox
0 0 p1_17
stroke
grestore
gsave
453.4 352.8 73.12 44.1 clipbox
0 0 p1_18
stroke
grestore
gsave
453.4 352.8 73.12 44.1 clipbox
0 0 p1_19
stroke
grestore
gsave
453.4 352.8 73.12 44.1 clipbox
0 0 p1_1a
stroke
grestore
gsave
453.4 352.8 73.12 44.1 clipbox
0 0 p1_1b
stroke
grestore
gsave
453.4 352.8 73.12 44.1 clipbox
0 0 p1_1c
stroke
grestore
gsave
453.4 352.8 73.12 44.1 clipbox
0 0 p1_1d
stroke
grestore
gsave
453.4 352.8 73.12 44.1 clipbox
0 0 p1_1e
stroke
grestore
gsave
453.4 352.8 73.12 44.1 clipbox
0 0 p1_1f
stroke
grestore
gsave
453.4 352.8 73.12 44.1 clipbox
0 0 p1_20
stroke
grestore
gsave
453.4 352.8 73.12 44.1 clipbox
0 0 p1_21
stroke
grestore
gsave
453.4 352.8 73.12 44.1 clipbox
0 0 p1_22
stroke
grestore
gsave
453.4 352.8 73.12 44.1 clipbox
0 0 p1_23
stroke
grestore
gsave
453.4 352.8 73.12 44.1 clipbox
0 0 p1_24
stroke
grestore
gsave
453.4 352.8 73.12 44.1 clipbox
0 0 p1_25
stroke
grestore
gsave
453.4 352.8 73.12 44.1 clipbox
0 0 p1_26
stroke
grestore
gsave
453.4 352.8 73.12 44.1 clipbox
0 0 p1_27
stroke
grestore
gsave
453.4 352.8 73.12 44.1 clipbox
0 0 p1_28
stroke
grestore
gsave
453.4 352.8 73.12 44.1 clipbox
0 0 p1_29
stroke
grestore
gsave
453.4 352.8 73.12 44.1 clipbox
0 0 p1_2a
stroke
grestore
gsave
453.4 352.8 73.12 44.1 clipbox
0 0 p1_2b
stroke
grestore
gsave
453.4 352.8 73.12 44.1 clipbox
0 0 p1_2c
stroke
grestore
gsave
453.4 352.8 73.12 44.1 clipbox
0 0 p1_2d
stroke
grestore
gsave
453.4 352.8 73.12 44.1 clipbox
0 0 p1_2e
stroke
grestore
gsave
453.4 352.8 73.12 44.1 clipbox
0 0 p1_2f
stroke
grestore
gsave
453.4 352.8 73.12 44.1 clipbox
0 0 p1_30
stroke
grestore
gsave
453.4 352.8 73.12 44.1 clipbox
0 0 p1_31
stroke
grestore
gsave
453.4 352.8 73.12 44.1 clipbox
0 0 p1_32
stroke
grestore
gsave
453.4 352.8 73.12 44.1 clipbox
0 0 p1_33
stroke
grestore
gsave
453.4 352.8 73.12 44.1 clipbox
0 0 p1_34
stroke
grestore
gsave
453.4 352.8 73.12 44.1 clipbox
0 0 p1_35
stroke
grestore
gsave
453.4 352.8 73.12 44.1 clipbox
0 0 p1_36
stroke
grestore
gsave
453.4 352.8 73.12 44.1 clipbox
0 0 p1_37
stroke
grestore
gsave
453.4 352.8 73.12 44.1 clipbox
0 0 p1_38
stroke
grestore
gsave
453.4 352.8 73.12 44.1 clipbox
0 0 p1_39
stroke
grestore
gsave
453.4 352.8 73.12 44.1 clipbox
0 0 p1_3a
stroke
grestore
gsave
453.4 352.8 73.12 44.1 clipbox
0 0 p1_3b
stroke
grestore
gsave
453.4 352.8 73.12 44.1 clipbox
0 0 p1_3c
stroke
grestore
/p2_0 {
newpath
translate
125.369 89.7629 m
125.369 380.1 l
304.791 380.1 l
304.791 152.102 l
} bind def
0.000 0.000 1.000 setrgbcolor
gsave
453.4 352.8 73.12 44.1 clipbox
0 0 p2_0
stroke
grestore
0.000 setgray
/BitstreamVeraSans-Roman findfont
5.000 scalefont
setfont
gsave
77.290312 34.475000 translate
90.000000 rotate
0.000000 0.078125 m /five glyphshow
3.181152 0.078125 m /nine glyphshow
grestore
gsave
81.824062 34.318750 translate
90.000000 rotate
0.000000 0.078125 m /four glyphshow
3.181152 0.078125 m /zero glyphshow
grestore
gsave
86.357812 34.506250 translate
90.000000 rotate
0.000000 0.078125 m /six glyphshow
3.181152 0.078125 m /seven glyphshow
grestore
gsave
90.813438 34.568750 translate
90.000000 rotate
0.000000 0.000000 m /seven glyphshow
3.181152 0.000000 m /seven glyphshow
grestore
gsave
95.425313 37.584375 translate
90.000000 rotate
0.000000 0.078125 m /nine glyphshow
grestore
gsave
99.959063 34.443750 translate
90.000000 rotate
0.000000 0.078125 m /two glyphshow
3.181152 0.078125 m /eight glyphshow
grestore
gsave
104.414687 37.928125 translate
90.000000 rotate
0.000000 0.000000 m /one glyphshow
grestore
gsave
109.026563 34.334375 translate
90.000000 rotate
0.000000 0.078125 m /four glyphshow
3.181152 0.078125 m /nine glyphshow
grestore
gsave
113.482188 37.756250 translate
90.000000 rotate
0.000000 0.000000 m /seven glyphshow
grestore
gsave
118.094063 37.584375 translate
90.000000 rotate
0.000000 0.078125 m /zero glyphshow
grestore
gsave
122.549688 34.256250 translate
90.000000 rotate
0.000000 0.000000 m /four glyphshow
3.181152 0.000000 m /four glyphshow
grestore
gsave
127.083438 34.600000 translate
90.000000 rotate
0.000000 0.000000 m /seven glyphshow
3.181152 0.000000 m /one glyphshow
grestore
gsave
131.695312 34.615625 translate
90.000000 rotate
0.000000 0.078125 m /five glyphshow
3.181152 0.078125 m /two glyphshow
grestore
gsave
136.229062 34.443750 translate
90.000000 rotate
0.000000 0.078125 m /two glyphshow
3.181152 0.078125 m /zero glyphshow
grestore
gsave
140.762812 34.412500 translate
90.000000 rotate
0.000000 0.078125 m /eight glyphshow
3.181152 0.078125 m /zero glyphshow
grestore
gsave
145.218437 34.412500 translate
90.000000 rotate
0.000000 0.000000 m /four glyphshow
3.181152 0.000000 m /seven glyphshow
grestore
gsave
149.791250 34.709375 translate
90.000000 rotate
0.000000 0.078125 m /one glyphshow
3.181152 0.078125 m /five glyphshow
grestore
gsave
154.364062 34.506250 translate
90.000000 rotate
0.000000 0.078125 m /six glyphshow
3.181152 0.078125 m /five glyphshow
grestore
gsave
158.819687 37.443750 translate
90.000000 rotate
0.000000 0.000000 m /four glyphshow
grestore
gsave
163.431563 34.350000 translate
90.000000 rotate
0.000000 0.078125 m /six glyphshow
3.181152 0.078125 m /four glyphshow
grestore
gsave
167.965313 34.475000 translate
90.000000 rotate
0.000000 0.078125 m /nine glyphshow
3.181152 0.078125 m /seven glyphshow
grestore
gsave
172.499063 34.428125 translate
90.000000 rotate
0.000000 0.078125 m /eight glyphshow
3.181152 0.078125 m /nine glyphshow
grestore
gsave
176.993750 34.771875 translate
90.000000 rotate
0.000000 0.000000 m /one glyphshow
3.181152 0.000000 m /two glyphshow
grestore
gsave
181.566563 34.615625 translate
90.000000 rotate
0.000000 0.078125 m /one glyphshow
3.181152 0.078125 m /eight glyphshow
grestore
gsave
186.100313 34.443750 translate
90.000000 rotate
0.000000 0.078125 m /nine glyphshow
3.181152 0.078125 m /three glyphshow
grestore
gsave
190.634063 34.412500 translate
90.000000 rotate
0.000000 0.078125 m /eight glyphshow
3.181152 0.078125 m /eight glyphshow
grestore
gsave
195.167813 34.475000 translate
90.000000 rotate
0.000000 0.078125 m /nine glyphshow
3.181152 0.078125 m /five glyphshow
grestore
gsave
199.701563 34.506250 translate
90.000000 rotate
0.000000 0.078125 m /nine glyphshow
3.181152 0.078125 m /one glyphshow
grestore
gsave
204.235313 34.615625 translate
90.000000 rotate
0.000000 0.078125 m /one glyphshow
3.181152 0.078125 m /zero glyphshow
grestore
gsave
208.730000 37.740625 translate
90.000000 rotate
0.000000 0.078125 m /five glyphshow
grestore
gsave
213.302813 34.396875 translate
90.000000 rotate
0.000000 0.078125 m /nine glyphshow
3.181152 0.078125 m /nine glyphshow
grestore
gsave
217.797500 34.568750 translate
90.000000 rotate
0.000000 0.000000 m /two glyphshow
3.181152 0.000000 m /one glyphshow
grestore
gsave
222.370313 34.506250 translate
90.000000 rotate
0.000000 0.078125 m /two glyphshow
3.181152 0.078125 m /three glyphshow
grestore
gsave
226.904063 34.537500 translate
90.000000 rotate
0.000000 0.078125 m /eight glyphshow
3.181152 0.078125 m /one glyphshow
grestore
gsave
231.398750 34.381250 translate
90.000000 rotate
0.000000 0.000000 m /two glyphshow
3.181152 0.000000 m /four glyphshow
grestore
gsave
235.971563 34.678125 translate
90.000000 rotate
0.000000 0.078125 m /one glyphshow
3.181152 0.078125 m /three glyphshow
grestore
gsave
240.505313 34.350000 translate
90.000000 rotate
0.000000 0.078125 m /eight glyphshow
3.181152 0.078125 m /four glyphshow
grestore
gsave
244.960938 34.740625 translate
90.000000 rotate
0.000000 0.000000 m /one glyphshow
3.181152 0.000000 m /one glyphshow
grestore
gsave
249.572812 34.568750 translate
90.000000 rotate
0.000000 0.078125 m /six glyphshow
3.181152 0.078125 m /two glyphshow
grestore
gsave
254.067500 34.584375 translate
90.000000 rotate
0.000000 0.078125 m /five glyphshow
3.181152 0.078125 m /one glyphshow
grestore
gsave
258.601250 34.396875 translate
90.000000 rotate
0.000000 0.078125 m /five glyphshow
3.181152 0.078125 m /four glyphshow
grestore
gsave
263.174062 34.318750 translate
90.000000 rotate
0.000000 0.078125 m /nine glyphshow
3.181152 0.078125 m /four glyphshow
grestore
gsave
267.707813 34.600000 translate
90.000000 rotate
0.000000 0.078125 m /three glyphshow
3.181152 0.078125 m /two glyphshow
grestore
gsave
272.202500 37.787500 translate
90.000000 rotate
0.000000 0.000000 m /two glyphshow
grestore
gsave
276.736250 34.568750 translate
90.000000 rotate
0.000000 0.078125 m /seven glyphshow
3.181152 0.078125 m /five glyphshow
grestore
gsave
281.309062 34.537500 translate
90.000000 rotate
0.000000 0.078125 m /three glyphshow
3.181152 0.078125 m /five glyphshow
grestore
gsave
285.842813 37.568750 translate
90.000000 rotate
0.000000 0.078125 m /six glyphshow
grestore
gsave
290.376562 34.475000 translate
90.000000 rotate
0.000000 0.078125 m /six glyphshow
3.181152 0.078125 m /three glyphshow
grestore
gsave
294.910313 34.537500 translate
90.000000 rotate
0.000000 0.078125 m /seven glyphshow
3.181152 0.078125 m /three glyphshow
grestore
gsave
299.444062 34.537500 translate
90.000000 rotate
0.000000 0.078125 m /three glyphshow
3.181152 0.078125 m /seven glyphshow
grestore
gsave
303.977813 34.443750 translate
90.000000 rotate
0.000000 0.078125 m /seven glyphshow
3.181152 0.078125 m /six glyphshow
grestore
gsave
308.472500 34.412500 translate
90.000000 rotate
0.000000 0.078125 m /four glyphshow
3.181152 0.078125 m /five glyphshow
grestore
gsave
313.045313 34.631250 translate
90.000000 rotate
0.000000 0.078125 m /one glyphshow
3.181152 0.078125 m /nine glyphshow
grestore
gsave
317.579063 34.318750 translate
90.000000 rotate
0.000000 0.078125 m /four glyphshow
3.181152 0.078125 m /eight glyphshow
grestore
gsave
322.112813 34.381250 translate
90.000000 rotate
0.000000 0.078125 m /four glyphshow
3.181152 0.078125 m /three glyphshow
grestore
gsave
326.568438 34.443750 translate
90.000000 rotate
0.000000 0.000000 m /four glyphshow
3.181152 0.000000 m /one glyphshow
grestore
gsave
331.180313 34.475000 translate
90.000000 rotate
0.000000 0.078125 m /seven glyphshow
3.181152 0.078125 m /zero glyphshow
grestore
gsave
335.714063 34.521875 translate
90.000000 rotate
0.000000 0.078125 m /five glyphshow
3.181152 0.078125 m /three glyphshow
grestore
gsave
340.169688 34.709375 translate
90.000000 rotate
0.000000 0.000000 m /one glyphshow
3.181152 0.000000 m /seven glyphshow
grestore
gsave
344.781563 34.381250 translate
90.000000 rotate
0.000000 0.078125 m /six glyphshow
3.181152 0.078125 m /six glyphshow
grestore
gsave
349.276250 34.537500 translate
90.000000 rotate
0.000000 0.000000 m /two glyphshow
3.181152 0.000000 m /seven glyphshow
grestore
gsave
353.849063 34.412500 translate
90.000000 rotate
0.000000 0.078125 m /two glyphshow
3.181152 0.078125 m /six glyphshow
grestore
gsave
358.343750 34.600000 translate
90.000000 rotate
0.000000 0.000000 m /two glyphshow
3.181152 0.000000 m /two glyphshow
grestore
gsave
362.916562 34.459375 translate
90.000000 rotate
0.000000 0.078125 m /five glyphshow
3.181152 0.078125 m /zero glyphshow
grestore
gsave
367.450312 34.412500 translate
90.000000 rotate
0.000000 0.078125 m /six glyphshow
3.181152 0.078125 m /eight glyphshow
grestore
gsave
371.984062 34.506250 translate
90.000000 rotate
0.000000 0.078125 m /eight glyphshow
3.181152 0.078125 m /five glyphshow
grestore
gsave
376.517812 34.412500 translate
90.000000 rotate
0.000000 0.078125 m /three glyphshow
3.181152 0.078125 m /six glyphshow
grestore
gsave
381.051563 34.537500 translate
90.000000 rotate
0.000000 0.078125 m /six glyphshow
3.181152 0.078125 m /one glyphshow
grestore
gsave
385.585313 34.428125 translate
90.000000 rotate
0.000000 0.078125 m /six glyphshow
3.181152 0.078125 m /nine glyphshow
grestore
gsave
390.119063 34.537500 translate
90.000000 rotate
0.000000 0.078125 m /nine glyphshow
3.181152 0.078125 m /two glyphshow
grestore
gsave
394.652813 34.459375 translate
90.000000 rotate
0.000000 0.078125 m /two glyphshow
3.181152 0.078125 m /nine glyphshow
grestore
gsave
399.186563 34.537500 translate
90.000000 rotate
0.000000 0.078125 m /two glyphshow
3.181152 0.078125 m /five glyphshow
grestore
gsave
403.720313 34.412500 translate
90.000000 rotate
0.000000 0.078125 m /six glyphshow
3.181152 0.078125 m /zero glyphshow
grestore
gsave
408.254063 34.428125 translate
90.000000 rotate
0.000000 0.078125 m /five glyphshow
3.181152 0.078125 m /six glyphshow
grestore
gsave
412.748750 34.553125 translate
90.000000 rotate
0.000000 0.078125 m /five glyphshow
3.181152 0.078125 m /seven glyphshow
grestore
gsave
417.321563 37.600000 translate
90.000000 rotate
0.000000 0.078125 m /eight glyphshow
grestore
gsave
421.855313 34.381250 translate
90.000000 rotate
0.000000 0.078125 m /three glyphshow
3.181152 0.078125 m /four glyphshow
grestore
gsave
426.350000 34.475000 translate
90.000000 rotate
0.000000 0.000000 m /four glyphshow
3.181152 0.000000 m /two glyphshow
grestore
gsave
430.922813 34.490625 translate
90.000000 rotate
0.000000 0.078125 m /seven glyphshow
3.181152 0.078125 m /nine glyphshow
grestore
gsave
435.456563 34.568750 translate
90.000000 rotate
0.000000 0.078125 m /eight glyphshow
3.181152 0.078125 m /two glyphshow
grestore
gsave
439.990313 34.287500 translate
90.000000 rotate
0.000000 0.078125 m /four glyphshow
3.181152 0.078125 m /six glyphshow
grestore
gsave
444.524063 34.350000 translate
90.000000 rotate
0.000000 0.078125 m /nine glyphshow
3.181152 0.078125 m /six glyphshow
grestore
gsave
449.057813 34.506250 translate
90.000000 rotate
0.000000 0.078125 m /eight glyphshow
3.181152 0.078125 m /seven glyphshow
grestore
gsave
453.552500 34.631250 translate
90.000000 rotate
0.000000 0.000000 m /seven glyphshow
3.181152 0.000000 m /two glyphshow
grestore
gsave
458.125313 34.381250 translate
90.000000 rotate
0.000000 0.078125 m /nine glyphshow
3.181152 0.078125 m /eight glyphshow
grestore
gsave
462.659063 34.475000 translate
90.000000 rotate
0.000000 0.078125 m /eight glyphshow
3.181152 0.078125 m /three glyphshow
grestore
gsave
467.192813 34.568750 translate
90.000000 rotate
0.000000 0.078125 m /three glyphshow
3.181152 0.078125 m /one glyphshow
grestore
gsave
471.726562 34.584375 translate
90.000000 rotate
0.000000 0.078125 m /one glyphshow
3.181152 0.078125 m /six glyphshow
grestore
gsave
476.260312 34.381250 translate
90.000000 rotate
0.000000 0.078125 m /eight glyphshow
3.181152 0.078125 m /six glyphshow
grestore
gsave
480.794063 37.693750 translate
90.000000 rotate
0.000000 0.078125 m /three glyphshow
grestore
gsave
485.327813 34.459375 translate
90.000000 rotate
0.000000 0.078125 m /five glyphshow
3.181152 0.078125 m /eight glyphshow
grestore
gsave
489.861563 34.506250 translate
90.000000 rotate
0.000000 0.078125 m /three glyphshow
3.181152 0.078125 m /three glyphshow
grestore
gsave
494.395313 34.459375 translate
90.000000 rotate
0.000000 0.078125 m /three glyphshow
3.181152 0.078125 m /nine glyphshow
grestore
gsave
498.850938 34.553125 translate
90.000000 rotate
0.000000 0.000000 m /one glyphshow
3.181152 0.000000 m /four glyphshow
grestore
gsave
503.384688 34.412500 translate
90.000000 rotate
0.000000 0.000000 m /seven glyphshow
3.181152 0.000000 m /four glyphshow
grestore
gsave
507.996563 34.443750 translate
90.000000 rotate
0.000000 0.078125 m /three glyphshow
3.181152 0.078125 m /zero glyphshow
grestore
gsave
512.530313 34.443750 translate
90.000000 rotate
0.000000 0.078125 m /three glyphshow
3.181152 0.078125 m /eight glyphshow
grestore
gsave
517.064063 34.475000 translate
90.000000 rotate
0.000000 0.078125 m /seven glyphshow
3.181152 0.078125 m /eight glyphshow
grestore
gsave
521.558750 34.553125 translate
90.000000 rotate
0.000000 0.078125 m /five glyphshow
3.181152 0.078125 m /five glyphshow
grestore
gsave
526.131562 34.381250 translate
90.000000 rotate
0.000000 0.078125 m /nine glyphshow
3.181152 0.078125 m /zero glyphshow
grestore
0.500 setlinewidth
gsave
/o {
gsave
newpath
translate
0 0 m
4 0 l
stroke
grestore
} bind def
73.125 44.1 o
grestore
gsave
/o {
gsave
newpath
translate
0 0 m
-4 0 l
stroke
grestore
} bind def
526.5 44.1 o
grestore
/BitstreamVeraSans-Roman findfont
12.000 scalefont
setfont
gsave
51.625000 39.560937 translate
0.000000 rotate
0.000000 0.171875 m /zero glyphshow
7.634766 0.171875 m /period glyphshow
11.449219 0.171875 m /zero glyphshow
grestore
gsave
/o {
gsave
newpath
translate
0 0 m
4 0 l
stroke
grestore
} bind def
73.125 111.3 o
grestore
gsave
/o {
gsave
newpath
translate
0 0 m
-4 0 l
stroke
grestore
} bind def
526.5 111.3 o
grestore
gsave
52.031250 106.760938 translate
0.000000 rotate
0.000000 0.171875 m /zero glyphshow
7.634766 0.171875 m /period glyphshow
11.449219 0.171875 m /two glyphshow
grestore
gsave
/o {
gsave
newpath
translate
0 0 m
4 0 l
stroke
grestore
} bind def
73.125 178.5 o
grestore
gsave
/o {
gsave
newpath
translate
0 0 m
-4 0 l
stroke
grestore
} bind def
526.5 178.5 o
grestore
gsave
51.500000 173.960938 translate
0.000000 rotate
0.000000 0.171875 m /zero glyphshow
7.634766 0.171875 m /period glyphshow
11.449219 0.171875 m /four glyphshow
grestore
gsave
/o {
gsave
newpath
translate
0 0 m
4 0 l
stroke
grestore
} bind def
73.125 245.7 o
grestore
gsave
/o {
gsave
newpath
translate
0 0 m
-4 0 l
stroke
grestore
} bind def
526.5 245.7 o
grestore
gsave
51.593750 241.160938 translate
0.000000 rotate
0.000000 0.171875 m /zero glyphshow
7.634766 0.171875 m /period glyphshow
11.449219 0.171875 m /six glyphshow
grestore
gsave
/o {
gsave
newpath
translate
0 0 m
4 0 l
stroke
grestore
} bind def
73.125 312.9 o
grestore
gsave
/o {
gsave
newpath
translate
0 0 m
-4 0 l
stroke
grestore
} bind def
526.5 312.9 o
grestore
gsave
51.656250 308.360938 translate
0.000000 rotate
0.000000 0.171875 m /zero glyphshow
7.634766 0.171875 m /period glyphshow
11.449219 0.171875 m /eight glyphshow
grestore
gsave
/o {
gsave
newpath
translate
0 0 m
4 0 l
stroke
grestore
} bind def
73.125 380.1 o
grestore
gsave
/o {
gsave
newpath
translate
0 0 m
-4 0 l
stroke
grestore
} bind def
526.5 380.1 o
grestore
gsave
52.140625 375.560938 translate
0.000000 rotate
0.000000 0.171875 m /one glyphshow
7.634766 0.171875 m /period glyphshow
11.449219 0.171875 m /zero glyphshow
grestore
1.000 setlinewidth
2 setlinecap
gsave
73.125 396.9 m
526.5 396.9 l
stroke
grestore
gsave
526.5 44.1 m
526.5 396.9 l
stroke
grestore
gsave
73.125 44.1 m
526.5 44.1 l
stroke
grestore
gsave
73.125 44.1 m
73.125 396.9 l
stroke
grestore

end
showpage
