%!PS-Adobe-3.0 EPSF-3.0
%%Title: /home/lboyles/research/polya_hclustering/beta22_uordered3.eps
%%Creator: matplotlib version 1.0.1, http://matplotlib.sourceforge.net/
%%CreationDate: Mon Jan 16 13:29:10 2012
%%Orientation: portrait
%%BoundingBox: 13 175 598 616
%%EndComments
%%BeginProlog
/mpldict 8 dict def
mpldict begin
/m { moveto } bind def
/l { lineto } bind def
/r { rlineto } bind def
/c { curveto } bind def
/cl { closepath } bind def
/box {
m
1 index 0 r
0 exch r
neg 0 r
cl
} bind def
/clipbox {
box
clip
newpath
} bind def
%!PS-Adobe-3.0 Resource-Font
%%Title: Bitstream Vera Sans
%%Copyright: Copyright (c) 2003 by Bitstream, Inc. All Rights Reserved.
%%Creator: Converted from TrueType to type 3 by PPR
25 dict begin
/_d{bind def}bind def
/_m{moveto}_d
/_l{lineto}_d
/_cl{closepath eofill}_d
/_c{curveto}_d
/_sc{7 -1 roll{setcachedevice}{pop pop pop pop pop pop}ifelse}_d
/_e{exec}_d
/FontName /BitstreamVeraSans-Roman def
/PaintType 0 def
/FontMatrix[.001 0 0 .001 0 0]def
/FontBBox[-182 -235 1287 928]def
/FontType 3 def
/Encoding [ /period /zero /one /two /three /four /five /six /seven /eight /nine ] def
/FontInfo 10 dict dup begin
/FamilyName (Bitstream Vera Sans) def
/FullName (Bitstream Vera Sans) def
/Notice (Copyright (c) 2003 by Bitstream, Inc. All Rights Reserved. Bitstream Vera is a trademark of Bitstream, Inc.) def
/Weight (Roman) def
/Version (Release 1.10) def
/ItalicAngle 0.0 def
/isFixedPitch false def
/UnderlinePosition -213 def
/UnderlineThickness 143 def
end readonly def
/CharStrings 11 dict dup begin
/period{318 0 107 0 210 124 _sc
107 124 _m
210 124 _l
210 0 _l
107 0 _l
107 124 _l
_cl}_d
/zero{636 0 66 -13 570 742 _sc
318 664 _m
267 664 229 639 203 589 _c
177 539 165 464 165 364 _c
165 264 177 189 203 139 _c
229 89 267 64 318 64 _c
369 64 407 89 433 139 _c
458 189 471 264 471 364 _c
471 464 458 539 433 589 _c
407 639 369 664 318 664 _c
318 742 _m
399 742 461 709 505 645 _c
548 580 570 486 570 364 _c
570 241 548 147 505 83 _c
461 19 399 -13 318 -13 _c
236 -13 173 19 130 83 _c
87 147 66 241 66 364 _c
66 486 87 580 130 645 _c
173 709 236 742 318 742 _c
_cl}_d
/one{636 0 110 0 544 729 _sc
124 83 _m
285 83 _l
285 639 _l
110 604 _l
110 694 _l
284 729 _l
383 729 _l
383 83 _l
544 83 _l
544 0 _l
124 0 _l
124 83 _l
_cl}_d
/two{{636 0 73 0 536 742 _sc
192 83 _m
536 83 _l
536 0 _l
73 0 _l
73 83 _l
110 121 161 173 226 239 _c
290 304 331 346 348 365 _c
380 400 402 430 414 455 _c
426 479 433 504 433 528 _c
433 566 419 598 392 622 _c
365 646 330 659 286 659 _c
255 659 222 653 188 643 _c
154 632 117 616 78 594 _c
78 694 _l
118 710 155 722 189 730 _c
223 738 255 742 284 742 _c
359 742 419 723 464 685 _c
509 647 532 597 532 534 _c
532 504 526 475 515 449 _c
504 422 484 390 454 354 _c
446 344 420 317 376 272 _c
332 227 271 164 192 83 _c
_cl}_e}_d
/three{{636 0 76 -13 556 742 _sc
406 393 _m
453 383 490 362 516 330 _c
542 298 556 258 556 212 _c
556 140 531 84 482 45 _c
432 6 362 -13 271 -13 _c
240 -13 208 -10 176 -4 _c
144 1 110 10 76 22 _c
76 117 _l
103 101 133 89 166 81 _c
198 73 232 69 268 69 _c
330 69 377 81 409 105 _c
441 129 458 165 458 212 _c
458 254 443 288 413 312 _c
383 336 341 349 287 349 _c
202 349 _l
202 430 _l
291 430 _l
339 430 376 439 402 459 _c
428 478 441 506 441 543 _c
441 580 427 609 401 629 _c
374 649 336 659 287 659 _c
260 659 231 656 200 650 _c
169 644 135 635 98 623 _c
98 711 _l
135 721 170 729 203 734 _c
235 739 266 742 296 742 _c
}_e{370 742 429 725 473 691 _c
517 657 539 611 539 553 _c
539 513 527 479 504 451 _c
481 423 448 403 406 393 _c
_cl}_e}_d
/four{636 0 49 0 580 729 _sc
378 643 _m
129 254 _l
378 254 _l
378 643 _l
352 729 _m
476 729 _l
476 254 _l
580 254 _l
580 172 _l
476 172 _l
476 0 _l
378 0 _l
378 172 _l
49 172 _l
49 267 _l
352 729 _l
_cl}_d
/five{{636 0 77 -13 549 729 _sc
108 729 _m
495 729 _l
495 646 _l
198 646 _l
198 467 _l
212 472 227 476 241 478 _c
255 480 270 482 284 482 _c
365 482 429 459 477 415 _c
525 370 549 310 549 234 _c
549 155 524 94 475 51 _c
426 8 357 -13 269 -13 _c
238 -13 207 -10 175 -6 _c
143 -1 111 6 77 17 _c
77 116 _l
106 100 136 88 168 80 _c
199 72 232 69 267 69 _c
323 69 368 83 401 113 _c
433 143 450 183 450 234 _c
450 284 433 324 401 354 _c
368 384 323 399 267 399 _c
241 399 214 396 188 390 _c
162 384 135 375 108 363 _c
108 729 _l
_cl}_e}_d
/six{{636 0 70 -13 573 742 _sc
330 404 _m
286 404 251 388 225 358 _c
199 328 186 286 186 234 _c
186 181 199 139 225 109 _c
251 79 286 64 330 64 _c
374 64 409 79 435 109 _c
461 139 474 181 474 234 _c
474 286 461 328 435 358 _c
409 388 374 404 330 404 _c
526 713 _m
526 623 _l
501 635 476 644 451 650 _c
425 656 400 659 376 659 _c
310 659 260 637 226 593 _c
192 549 172 482 168 394 _c
187 422 211 444 240 459 _c
269 474 301 482 336 482 _c
409 482 467 459 509 415 _c
551 371 573 310 573 234 _c
573 159 550 99 506 54 _c
462 9 403 -13 330 -13 _c
246 -13 181 19 137 83 _c
92 147 70 241 70 364 _c
70 479 97 571 152 639 _c
206 707 280 742 372 742 _c
}_e{396 742 421 739 447 735 _c
472 730 498 723 526 713 _c
_cl}_e}_d
/seven{636 0 82 0 551 729 _sc
82 729 _m
551 729 _l
551 687 _l
286 0 _l
183 0 _l
432 646 _l
82 646 _l
82 729 _l
_cl}_d
/eight{{636 0 68 -13 568 742 _sc
318 346 _m
271 346 234 333 207 308 _c
180 283 167 249 167 205 _c
167 161 180 126 207 101 _c
234 76 271 64 318 64 _c
364 64 401 76 428 102 _c
455 127 469 161 469 205 _c
469 249 455 283 429 308 _c
402 333 365 346 318 346 _c
219 388 _m
177 398 144 418 120 447 _c
96 476 85 511 85 553 _c
85 611 105 657 147 691 _c
188 725 245 742 318 742 _c
390 742 447 725 489 691 _c
530 657 551 611 551 553 _c
551 511 539 476 515 447 _c
491 418 459 398 417 388 _c
464 377 501 355 528 323 _c
554 291 568 251 568 205 _c
568 134 546 80 503 43 _c
459 5 398 -13 318 -13 _c
237 -13 175 5 132 43 _c
89 80 68 134 68 205 _c
68 251 81 291 108 323 _c
134 355 171 377 219 388 _c
}_e{183 544 _m
183 506 194 476 218 455 _c
242 434 275 424 318 424 _c
360 424 393 434 417 455 _c
441 476 453 506 453 544 _c
453 582 441 611 417 632 _c
393 653 360 664 318 664 _c
275 664 242 653 218 632 _c
194 611 183 582 183 544 _c
_cl}_e}_d
/nine{{636 0 63 -13 566 742 _sc
110 15 _m
110 105 _l
134 93 159 84 185 78 _c
210 72 235 69 260 69 _c
324 69 374 90 408 134 _c
442 178 462 244 468 334 _c
448 306 424 284 396 269 _c
367 254 335 247 300 247 _c
226 247 168 269 126 313 _c
84 357 63 417 63 494 _c
63 568 85 628 129 674 _c
173 719 232 742 306 742 _c
390 742 455 709 499 645 _c
543 580 566 486 566 364 _c
566 248 538 157 484 89 _c
429 21 356 -13 264 -13 _c
239 -13 214 -10 189 -6 _c
163 -2 137 5 110 15 _c
306 324 _m
350 324 385 339 411 369 _c
437 399 450 441 450 494 _c
450 546 437 588 411 618 _c
385 648 350 664 306 664 _c
262 664 227 648 201 618 _c
175 588 162 546 162 494 _c
}_e{162 441 175 399 201 369 _c
227 339 262 324 306 324 _c
_cl}_e}_d
end readonly def

/BuildGlyph
 {exch begin
 CharStrings exch
 2 copy known not{pop /.notdef}if
 true 3 1 roll get exec
 end}_d

/BuildChar {
 1 index /Encoding get exch get
 1 index /BuildGlyph get exec
}_d

FontName currentdict end definefont pop
end
%%EndProlog
mpldict begin
13.5 175.5 translate
585 441 0 0 clipbox
1.000 setlinewidth
1 setlinejoin
2 setlinecap
[] 0 setdash
1.000 setgray
gsave
0 0 m
585 0 l
585 441 l
0 441 l
cl
gsave
fill
grestore
stroke
grestore
gsave
73.125 44.1 m
526.5 44.1 l
526.5 396.9 l
73.125 396.9 l
cl
fill
grestore
/p0_0 {
newpath
translate
84.4594 44.1 m
84.4594 44.1 l
88.9931 44.1 l
88.9931 44.1 l
} bind def
/p0_1 {
newpath
translate
86.7262 44.1 m
86.7262 44.1 l
93.5269 44.1 l
93.5269 44.1 l
} bind def
/p0_2 {
newpath
translate
79.9256 44.1 m
79.9256 44.1 l
90.1266 44.1 l
90.1266 44.1 l
} bind def
/p0_3 {
newpath
translate
85.0261 44.1 m
85.0261 44.1 l
98.0606 44.1 l
98.0606 44.1 l
} bind def
/p0_4 {
newpath
translate
91.5434 44.1 m
91.5434 44.1 l
102.594 44.1 l
102.594 44.1 l
} bind def
/p0_5 {
newpath
translate
97.0689 44.1 m
97.0689 44.1 l
107.128 44.1 l
107.128 44.1 l
} bind def
/p0_6 {
newpath
translate
111.662 44.1 m
111.662 44.1 l
116.196 44.1 l
116.196 44.1 l
} bind def
/p0_7 {
newpath
translate
102.098 44.1 m
102.098 44.1 l
113.929 44.1 l
113.929 44.1 l
} bind def
/p0_8 {
newpath
translate
108.014 44.1 m
108.014 44.1 l
120.729 44.1 l
120.729 44.1 l
} bind def
/p0_9 {
newpath
translate
125.263 44.1 m
125.263 44.1 l
129.797 44.1 l
129.797 44.1 l
} bind def
/p0_a {
newpath
translate
127.53 44.1 m
127.53 44.1 l
134.331 44.1 l
134.331 44.1 l
} bind def
/p0_b {
newpath
translate
130.93 44.1 m
130.93 44.1 l
138.864 44.1 l
138.864 44.1 l
} bind def
/p0_c {
newpath
translate
114.371 44.1 m
114.371 44.1001 l
134.897 44.1001 l
134.897 44.1 l
} bind def
/p0_d {
newpath
translate
147.932 44.1 m
147.932 44.1 l
152.466 44.1 l
152.466 44.1 l
} bind def
/p0_e {
newpath
translate
150.199 44.1 m
150.199 44.1 l
156.999 44.1 l
156.999 44.1 l
} bind def
/p0_f {
newpath
translate
143.398 44.1 m
143.398 44.1001 l
153.599 44.1001 l
153.599 44.1 l
} bind def
/p0_10 {
newpath
translate
124.634 44.1001 m
124.634 44.1001 l
148.499 44.1001 l
148.499 44.1001 l
} bind def
/p0_11 {
newpath
translate
166.067 44.1 m
166.067 44.1 l
170.601 44.1 l
170.601 44.1 l
} bind def
/p0_12 {
newpath
translate
168.334 44.1 m
168.334 44.1 l
175.134 44.1 l
175.134 44.1 l
} bind def
/p0_13 {
newpath
translate
161.533 44.1 m
161.533 44.1 l
171.734 44.1 l
171.734 44.1 l
} bind def
/p0_14 {
newpath
translate
136.567 44.1001 m
136.567 44.1002 l
166.634 44.1002 l
166.634 44.1 l
} bind def
/p0_15 {
newpath
translate
151.6 44.1002 m
151.6 44.1002 l
179.668 44.1002 l
179.668 44.1 l
} bind def
/p0_16 {
newpath
translate
75.3919 44.1 m
75.3919 44.1003 l
165.634 44.1003 l
165.634 44.1002 l
} bind def
/p0_17 {
newpath
translate
120.513 44.1003 m
120.513 44.1004 l
184.202 44.1004 l
184.202 44.1 l
} bind def
/p0_18 {
newpath
translate
152.357 44.1004 m
152.357 44.1006 l
188.736 44.1006 l
188.736 44.1 l
} bind def
/p0_19 {
newpath
translate
170.547 44.1006 m
170.547 44.1055 l
193.269 44.1055 l
193.269 44.1 l
} bind def
/p0_1a {
newpath
translate
181.908 44.1055 m
181.908 44.1087 l
197.803 44.1087 l
197.803 44.1 l
} bind def
/p0_1b {
newpath
translate
189.856 44.1087 m
189.856 44.1246 l
202.337 44.1246 l
202.337 44.1 l
} bind def
/p0_1c {
newpath
translate
196.096 44.1246 m
196.096 44.1315 l
206.871 44.1315 l
206.871 44.1 l
} bind def
/p0_1d {
newpath
translate
201.483 44.1315 m
201.483 44.2173 l
211.404 44.2173 l
211.404 44.1 l
} bind def
/p0_1e {
newpath
translate
206.444 44.2173 m
206.444 44.2421 l
215.938 44.2421 l
215.938 44.1 l
} bind def
/p0_1f {
newpath
translate
220.472 44.1 m
220.472 44.1002 l
225.006 44.1002 l
225.006 44.1 l
} bind def
/p0_20 {
newpath
translate
222.739 44.1002 m
222.739 44.1008 l
229.539 44.1008 l
229.539 44.1 l
} bind def
/p0_21 {
newpath
translate
226.139 44.1008 m
226.139 44.1025 l
234.073 44.1025 l
234.073 44.1 l
} bind def
/p0_22 {
newpath
translate
230.106 44.1025 m
230.106 44.1038 l
238.607 44.1038 l
238.607 44.1 l
} bind def
/p0_23 {
newpath
translate
243.141 44.1 m
243.141 44.1015 l
247.674 44.1015 l
247.674 44.1 l
} bind def
/p0_24 {
newpath
translate
245.407 44.1015 m
245.407 44.1034 l
252.208 44.1034 l
252.208 44.1 l
} bind def
/p0_25 {
newpath
translate
234.356 44.1038 m
234.356 44.1044 l
248.808 44.1044 l
248.808 44.1034 l
} bind def
/p0_26 {
newpath
translate
256.742 44.1 m
256.742 44.1042 l
261.276 44.1042 l
261.276 44.1 l
} bind def
/p0_27 {
newpath
translate
241.582 44.1044 m
241.582 44.1121 l
259.009 44.1121 l
259.009 44.1042 l
} bind def
/p0_28 {
newpath
translate
265.809 44.1 m
265.809 44.1001 l
270.343 44.1001 l
270.343 44.1 l
} bind def
/p0_29 {
newpath
translate
274.877 44.1 m
274.877 44.1 l
279.411 44.1 l
279.411 44.1 l
} bind def
/p0_2a {
newpath
translate
277.144 44.1 m
277.144 44.1 l
283.944 44.1 l
283.944 44.1 l
} bind def
/p0_2b {
newpath
translate
268.076 44.1001 m
268.076 44.1001 l
280.544 44.1001 l
280.544 44.1 l
} bind def
/p0_2c {
newpath
translate
274.31 44.1001 m
274.31 44.1007 l
288.478 44.1007 l
288.478 44.1 l
} bind def
/p0_2d {
newpath
translate
281.394 44.1007 m
281.394 44.1096 l
293.012 44.1096 l
293.012 44.1 l
} bind def
/p0_2e {
newpath
translate
250.295 44.1121 m
250.295 44.1247 l
287.203 44.1247 l
287.203 44.1096 l
} bind def
/p0_2f {
newpath
translate
268.749 44.1247 m
268.749 44.1506 l
297.546 44.1506 l
297.546 44.1 l
} bind def
/p0_30 {
newpath
translate
302.079 44.1 m
302.079 44.403 l
306.613 44.403 l
306.613 44.1 l
} bind def
/p0_31 {
newpath
translate
283.147 44.1506 m
283.147 44.6311 l
304.346 44.6311 l
304.346 44.403 l
} bind def
/p0_32 {
newpath
translate
293.747 44.6311 m
293.747 44.9758 l
311.147 44.9758 l
311.147 44.1 l
} bind def
/p0_33 {
newpath
translate
211.191 44.2421 m
211.191 46.2837 l
302.447 46.2837 l
302.447 44.9758 l
} bind def
/p0_34 {
newpath
translate
315.681 44.1 m
315.681 44.1017 l
320.214 44.1017 l
320.214 44.1 l
} bind def
/p0_35 {
newpath
translate
317.947 44.1017 m
317.947 44.1022 l
324.748 44.1022 l
324.748 44.1 l
} bind def
/p0_36 {
newpath
translate
321.348 44.1022 m
321.348 44.1101 l
329.282 44.1101 l
329.282 44.1 l
} bind def
/p0_37 {
newpath
translate
325.315 44.1101 m
325.315 44.1365 l
333.816 44.1365 l
333.816 44.1 l
} bind def
/p0_38 {
newpath
translate
329.565 44.1365 m
329.565 44.1446 l
338.349 44.1446 l
338.349 44.1 l
} bind def
/p0_39 {
newpath
translate
342.883 44.1 m
342.883 44.1004 l
347.417 44.1004 l
347.417 44.1 l
} bind def
/p0_3a {
newpath
translate
351.951 44.1 m
351.951 44.1006 l
356.484 44.1006 l
356.484 44.1 l
} bind def
/p0_3b {
newpath
translate
345.15 44.1004 m
345.15 44.1008 l
354.218 44.1008 l
354.218 44.1006 l
} bind def
/p0_3c {
newpath
translate
349.684 44.1008 m
349.684 44.1033 l
361.018 44.1033 l
361.018 44.1 l
} bind def
/p0_3d {
newpath
translate
355.351 44.1033 m
355.351 44.1043 l
365.552 44.1043 l
365.552 44.1 l
} bind def
/p0_3e {
newpath
translate
360.451 44.1043 m
360.451 44.1074 l
370.086 44.1074 l
370.086 44.1 l
} bind def
/p0_3f {
newpath
translate
374.619 44.1 m
374.619 44.1064 l
379.153 44.1064 l
379.153 44.1 l
} bind def
/p0_40 {
newpath
translate
365.269 44.1074 m
365.269 44.1176 l
376.886 44.1176 l
376.886 44.1064 l
} bind def
/p0_41 {
newpath
translate
371.077 44.1176 m
371.077 44.1253 l
383.687 44.1253 l
383.687 44.1 l
} bind def
/p0_42 {
newpath
translate
392.754 44.1 m
392.754 44.1 l
397.288 44.1 l
397.288 44.1 l
} bind def
/p0_43 {
newpath
translate
388.221 44.1 m
388.221 44.1 l
395.021 44.1 l
395.021 44.1 l
} bind def
/p0_44 {
newpath
translate
391.621 44.1 m
391.621 44.1001 l
401.822 44.1001 l
401.822 44.1 l
} bind def
/p0_45 {
newpath
translate
396.721 44.1001 m
396.721 44.1003 l
406.356 44.1003 l
406.356 44.1 l
} bind def
/p0_46 {
newpath
translate
401.539 44.1003 m
401.539 44.1005 l
410.889 44.1005 l
410.889 44.1 l
} bind def
/p0_47 {
newpath
translate
406.214 44.1005 m
406.214 44.1025 l
415.423 44.1025 l
415.423 44.1 l
} bind def
/p0_48 {
newpath
translate
419.957 44.1 m
419.957 44.1015 l
424.491 44.1015 l
424.491 44.1 l
} bind def
/p0_49 {
newpath
translate
410.819 44.1025 m
410.819 44.1029 l
422.224 44.1029 l
422.224 44.1015 l
} bind def
/p0_4a {
newpath
translate
416.521 44.1029 m
416.521 44.1197 l
429.024 44.1197 l
429.024 44.1 l
} bind def
/p0_4b {
newpath
translate
377.382 44.1253 m
377.382 44.1257 l
422.773 44.1257 l
422.773 44.1197 l
} bind def
/p0_4c {
newpath
translate
333.957 44.1446 m
333.957 44.2078 l
400.077 44.2078 l
400.077 44.1257 l
} bind def
/p0_4d {
newpath
translate
367.017 44.2078 m
367.017 44.2433 l
433.558 44.2433 l
433.558 44.1 l
} bind def
/p0_4e {
newpath
translate
400.288 44.2433 m
400.288 44.3271 l
438.092 44.3271 l
438.092 44.1 l
} bind def
/p0_4f {
newpath
translate
419.19 44.3271 m
419.19 44.4876 l
442.626 44.4876 l
442.626 44.1 l
} bind def
/p0_50 {
newpath
translate
447.159 44.1 m
447.159 44.4383 l
451.693 44.4383 l
451.693 44.1 l
} bind def
/p0_51 {
newpath
translate
449.426 44.4383 m
449.426 44.7403 l
456.227 44.7403 l
456.227 44.1 l
} bind def
/p0_52 {
newpath
translate
452.827 44.7403 m
452.827 44.8399 l
460.761 44.8399 l
460.761 44.1 l
} bind def
/p0_53 {
newpath
translate
430.908 44.4876 m
430.908 44.9687 l
456.794 44.9687 l
456.794 44.8399 l
} bind def
/p0_54 {
newpath
translate
256.819 46.2837 m
256.819 46.3358 l
443.851 46.3358 l
443.851 44.9687 l
} bind def
/p0_55 {
newpath
translate
469.828 44.1 m
469.828 45.031 l
474.362 45.031 l
474.362 44.1 l
} bind def
/p0_56 {
newpath
translate
465.294 44.1 m
465.294 45.6504 l
472.095 45.6504 l
472.095 45.031 l
} bind def
/p0_57 {
newpath
translate
350.335 46.3358 m
350.335 48.7082 l
468.695 48.7082 l
468.695 45.6504 l
} bind def
/p0_58 {
newpath
translate
409.515 48.7082 m
409.515 49.3875 l
478.896 49.3875 l
478.896 44.1 l
} bind def
/p0_59 {
newpath
translate
444.205 49.3875 m
444.205 53.3701 l
483.429 53.3701 l
483.429 44.1 l
} bind def
/p0_5a {
newpath
translate
463.817 53.3701 m
463.817 59.3842 l
487.963 59.3842 l
487.963 44.1 l
} bind def
/p0_5b {
newpath
translate
475.89 59.3842 m
475.89 74.184 l
492.497 74.184 l
492.497 44.1 l
} bind def
/p0_5c {
newpath
translate
484.194 74.184 m
484.194 80.7458 l
497.031 80.7458 l
497.031 44.1 l
} bind def
/p0_5d {
newpath
translate
490.612 80.7458 m
490.612 136.065 l
501.564 136.065 l
501.564 44.1 l
} bind def
/p0_5e {
newpath
translate
506.098 44.1 m
506.098 63.238 l
510.632 63.238 l
510.632 44.1 l
} bind def
/p0_5f {
newpath
translate
508.365 63.238 m
508.365 117.9 l
515.166 117.9 l
515.166 44.1 l
} bind def
/p0_60 {
newpath
translate
496.088 136.065 m
496.088 177.118 l
511.765 177.118 l
511.765 117.9 l
} bind def
/p0_61 {
newpath
translate
503.927 177.118 m
503.927 222.624 l
519.699 222.624 l
519.699 44.1 l
} bind def
0 setlinecap
0.000 0.500 0.000 setrgbcolor
gsave
453.4 352.8 73.12 44.1 clipbox
0 0 p0_0
stroke
grestore
gsave
453.4 352.8 73.12 44.1 clipbox
0 0 p0_1
stroke
grestore
gsave
453.4 352.8 73.12 44.1 clipbox
0 0 p0_2
stroke
grestore
gsave
453.4 352.8 73.12 44.1 clipbox
0 0 p0_3
stroke
grestore
gsave
453.4 352.8 73.12 44.1 clipbox
0 0 p0_4
stroke
grestore
gsave
453.4 352.8 73.12 44.1 clipbox
0 0 p0_5
stroke
grestore
gsave
453.4 352.8 73.12 44.1 clipbox
0 0 p0_6
stroke
grestore
gsave
453.4 352.8 73.12 44.1 clipbox
0 0 p0_7
stroke
grestore
gsave
453.4 352.8 73.12 44.1 clipbox
0 0 p0_8
stroke
grestore
gsave
453.4 352.8 73.12 44.1 clipbox
0 0 p0_9
stroke
grestore
gsave
453.4 352.8 73.12 44.1 clipbox
0 0 p0_a
stroke
grestore
gsave
453.4 352.8 73.12 44.1 clipbox
0 0 p0_b
stroke
grestore
gsave
453.4 352.8 73.12 44.1 clipbox
0 0 p0_c
stroke
grestore
gsave
453.4 352.8 73.12 44.1 clipbox
0 0 p0_d
stroke
grestore
gsave
453.4 352.8 73.12 44.1 clipbox
0 0 p0_e
stroke
grestore
gsave
453.4 352.8 73.12 44.1 clipbox
0 0 p0_f
stroke
grestore
gsave
453.4 352.8 73.12 44.1 clipbox
0 0 p0_10
stroke
grestore
gsave
453.4 352.8 73.12 44.1 clipbox
0 0 p0_11
stroke
grestore
gsave
453.4 352.8 73.12 44.1 clipbox
0 0 p0_12
stroke
grestore
gsave
453.4 352.8 73.12 44.1 clipbox
0 0 p0_13
stroke
grestore
gsave
453.4 352.8 73.12 44.1 clipbox
0 0 p0_14
stroke
grestore
gsave
453.4 352.8 73.12 44.1 clipbox
0 0 p0_15
stroke
grestore
gsave
453.4 352.8 73.12 44.1 clipbox
0 0 p0_16
stroke
grestore
gsave
453.4 352.8 73.12 44.1 clipbox
0 0 p0_17
stroke
grestore
gsave
453.4 352.8 73.12 44.1 clipbox
0 0 p0_18
stroke
grestore
gsave
453.4 352.8 73.12 44.1 clipbox
0 0 p0_19
stroke
grestore
gsave
453.4 352.8 73.12 44.1 clipbox
0 0 p0_1a
stroke
grestore
gsave
453.4 352.8 73.12 44.1 clipbox
0 0 p0_1b
stroke
grestore
gsave
453.4 352.8 73.12 44.1 clipbox
0 0 p0_1c
stroke
grestore
gsave
453.4 352.8 73.12 44.1 clipbox
0 0 p0_1d
stroke
grestore
gsave
453.4 352.8 73.12 44.1 clipbox
0 0 p0_1e
stroke
grestore
gsave
453.4 352.8 73.12 44.1 clipbox
0 0 p0_1f
stroke
grestore
gsave
453.4 352.8 73.12 44.1 clipbox
0 0 p0_20
stroke
grestore
gsave
453.4 352.8 73.12 44.1 clipbox
0 0 p0_21
stroke
grestore
gsave
453.4 352.8 73.12 44.1 clipbox
0 0 p0_22
stroke
grestore
gsave
453.4 352.8 73.12 44.1 clipbox
0 0 p0_23
stroke
grestore
gsave
453.4 352.8 73.12 44.1 clipbox
0 0 p0_24
stroke
grestore
gsave
453.4 352.8 73.12 44.1 clipbox
0 0 p0_25
stroke
grestore
gsave
453.4 352.8 73.12 44.1 clipbox
0 0 p0_26
stroke
grestore
gsave
453.4 352.8 73.12 44.1 clipbox
0 0 p0_27
stroke
grestore
gsave
453.4 352.8 73.12 44.1 clipbox
0 0 p0_28
stroke
grestore
gsave
453.4 352.8 73.12 44.1 clipbox
0 0 p0_29
stroke
grestore
gsave
453.4 352.8 73.12 44.1 clipbox
0 0 p0_2a
stroke
grestore
gsave
453.4 352.8 73.12 44.1 clipbox
0 0 p0_2b
stroke
grestore
gsave
453.4 352.8 73.12 44.1 clipbox
0 0 p0_2c
stroke
grestore
gsave
453.4 352.8 73.12 44.1 clipbox
0 0 p0_2d
stroke
grestore
gsave
453.4 352.8 73.12 44.1 clipbox
0 0 p0_2e
stroke
grestore
gsave
453.4 352.8 73.12 44.1 clipbox
0 0 p0_2f
stroke
grestore
gsave
453.4 352.8 73.12 44.1 clipbox
0 0 p0_30
stroke
grestore
gsave
453.4 352.8 73.12 44.1 clipbox
0 0 p0_31
stroke
grestore
gsave
453.4 352.8 73.12 44.1 clipbox
0 0 p0_32
stroke
grestore
gsave
453.4 352.8 73.12 44.1 clipbox
0 0 p0_33
stroke
grestore
gsave
453.4 352.8 73.12 44.1 clipbox
0 0 p0_34
stroke
grestore
gsave
453.4 352.8 73.12 44.1 clipbox
0 0 p0_35
stroke
grestore
gsave
453.4 352.8 73.12 44.1 clipbox
0 0 p0_36
stroke
grestore
gsave
453.4 352.8 73.12 44.1 clipbox
0 0 p0_37
stroke
grestore
gsave
453.4 352.8 73.12 44.1 clipbox
0 0 p0_38
stroke
grestore
gsave
453.4 352.8 73.12 44.1 clipbox
0 0 p0_39
stroke
grestore
gsave
453.4 352.8 73.12 44.1 clipbox
0 0 p0_3a
stroke
grestore
gsave
453.4 352.8 73.12 44.1 clipbox
0 0 p0_3b
stroke
grestore
gsave
453.4 352.8 73.12 44.1 clipbox
0 0 p0_3c
stroke
grestore
gsave
453.4 352.8 73.12 44.1 clipbox
0 0 p0_3d
stroke
grestore
gsave
453.4 352.8 73.12 44.1 clipbox
0 0 p0_3e
stroke
grestore
gsave
453.4 352.8 73.12 44.1 clipbox
0 0 p0_3f
stroke
grestore
gsave
453.4 352.8 73.12 44.1 clipbox
0 0 p0_40
stroke
grestore
gsave
453.4 352.8 73.12 44.1 clipbox
0 0 p0_41
stroke
grestore
gsave
453.4 352.8 73.12 44.1 clipbox
0 0 p0_42
stroke
grestore
gsave
453.4 352.8 73.12 44.1 clipbox
0 0 p0_43
stroke
grestore
gsave
453.4 352.8 73.12 44.1 clipbox
0 0 p0_44
stroke
grestore
gsave
453.4 352.8 73.12 44.1 clipbox
0 0 p0_45
stroke
grestore
gsave
453.4 352.8 73.12 44.1 clipbox
0 0 p0_46
stroke
grestore
gsave
453.4 352.8 73.12 44.1 clipbox
0 0 p0_47
stroke
grestore
gsave
453.4 352.8 73.12 44.1 clipbox
0 0 p0_48
stroke
grestore
gsave
453.4 352.8 73.12 44.1 clipbox
0 0 p0_49
stroke
grestore
gsave
453.4 352.8 73.12 44.1 clipbox
0 0 p0_4a
stroke
grestore
gsave
453.4 352.8 73.12 44.1 clipbox
0 0 p0_4b
stroke
grestore
gsave
453.4 352.8 73.12 44.1 clipbox
0 0 p0_4c
stroke
grestore
gsave
453.4 352.8 73.12 44.1 clipbox
0 0 p0_4d
stroke
grestore
gsave
453.4 352.8 73.12 44.1 clipbox
0 0 p0_4e
stroke
grestore
gsave
453.4 352.8 73.12 44.1 clipbox
0 0 p0_4f
stroke
grestore
gsave
453.4 352.8 73.12 44.1 clipbox
0 0 p0_50
stroke
grestore
gsave
453.4 352.8 73.12 44.1 clipbox
0 0 p0_51
stroke
grestore
gsave
453.4 352.8 73.12 44.1 clipbox
0 0 p0_52
stroke
grestore
gsave
453.4 352.8 73.12 44.1 clipbox
0 0 p0_53
stroke
grestore
gsave
453.4 352.8 73.12 44.1 clipbox
0 0 p0_54
stroke
grestore
gsave
453.4 352.8 73.12 44.1 clipbox
0 0 p0_55
stroke
grestore
gsave
453.4 352.8 73.12 44.1 clipbox
0 0 p0_56
stroke
grestore
gsave
453.4 352.8 73.12 44.1 clipbox
0 0 p0_57
stroke
grestore
gsave
453.4 352.8 73.12 44.1 clipbox
0 0 p0_58
stroke
grestore
gsave
453.4 352.8 73.12 44.1 clipbox
0 0 p0_59
stroke
grestore
gsave
453.4 352.8 73.12 44.1 clipbox
0 0 p0_5a
stroke
grestore
gsave
453.4 352.8 73.12 44.1 clipbox
0 0 p0_5b
stroke
grestore
gsave
453.4 352.8 73.12 44.1 clipbox
0 0 p0_5c
stroke
grestore
gsave
453.4 352.8 73.12 44.1 clipbox
0 0 p0_5d
stroke
grestore
gsave
453.4 352.8 73.12 44.1 clipbox
0 0 p0_5e
stroke
grestore
gsave
453.4 352.8 73.12 44.1 clipbox
0 0 p0_5f
stroke
grestore
gsave
453.4 352.8 73.12 44.1 clipbox
0 0 p0_60
stroke
grestore
gsave
453.4 352.8 73.12 44.1 clipbox
0 0 p0_61
stroke
grestore
/p1_0 {
newpath
translate
511.813 222.624 m
511.813 380.1 l
524.233 380.1 l
524.233 44.1 l
} bind def
0.000 0.000 1.000 setrgbcolor
gsave
453.4 352.8 73.12 44.1 clipbox
0 0 p1_0
stroke
grestore
0.000 setgray
/BitstreamVeraSans-Roman findfont
5.000 scalefont
setfont
gsave
77.290312 37.584375 translate
90.000000 rotate
0.000000 0.078125 m /zero glyphshow
grestore
gsave
81.745937 37.928125 translate
90.000000 rotate
0.000000 0.000000 m /one glyphshow
grestore
gsave
86.318750 37.787500 translate
90.000000 rotate
0.000000 0.000000 m /two glyphshow
grestore
gsave
90.891563 37.693750 translate
90.000000 rotate
0.000000 0.078125 m /three glyphshow
grestore
gsave
95.347188 37.443750 translate
90.000000 rotate
0.000000 0.000000 m /four glyphshow
grestore
gsave
99.920000 37.740625 translate
90.000000 rotate
0.000000 0.078125 m /five glyphshow
grestore
gsave
104.492812 37.568750 translate
90.000000 rotate
0.000000 0.078125 m /six glyphshow
grestore
gsave
108.948438 37.756250 translate
90.000000 rotate
0.000000 0.000000 m /seven glyphshow
grestore
gsave
113.560313 37.600000 translate
90.000000 rotate
0.000000 0.078125 m /eight glyphshow
grestore
gsave
118.094063 37.584375 translate
90.000000 rotate
0.000000 0.078125 m /nine glyphshow
grestore
gsave
122.627813 34.615625 translate
90.000000 rotate
0.000000 0.078125 m /one glyphshow
3.181152 0.078125 m /zero glyphshow
grestore
gsave
127.083438 34.740625 translate
90.000000 rotate
0.000000 0.000000 m /one glyphshow
3.181152 0.000000 m /one glyphshow
grestore
gsave
131.656250 34.771875 translate
90.000000 rotate
0.000000 0.000000 m /one glyphshow
3.181152 0.000000 m /two glyphshow
grestore
gsave
136.229062 34.678125 translate
90.000000 rotate
0.000000 0.078125 m /one glyphshow
3.181152 0.078125 m /three glyphshow
grestore
gsave
140.684687 34.553125 translate
90.000000 rotate
0.000000 0.000000 m /one glyphshow
3.181152 0.000000 m /four glyphshow
grestore
gsave
145.257500 34.709375 translate
90.000000 rotate
0.000000 0.078125 m /one glyphshow
3.181152 0.078125 m /five glyphshow
grestore
gsave
149.830312 34.584375 translate
90.000000 rotate
0.000000 0.078125 m /one glyphshow
3.181152 0.078125 m /six glyphshow
grestore
gsave
154.285937 34.709375 translate
90.000000 rotate
0.000000 0.000000 m /one glyphshow
3.181152 0.000000 m /seven glyphshow
grestore
gsave
158.897812 34.615625 translate
90.000000 rotate
0.000000 0.078125 m /one glyphshow
3.181152 0.078125 m /eight glyphshow
grestore
gsave
163.431563 34.631250 translate
90.000000 rotate
0.000000 0.078125 m /one glyphshow
3.181152 0.078125 m /nine glyphshow
grestore
gsave
167.965313 34.443750 translate
90.000000 rotate
0.000000 0.078125 m /two glyphshow
3.181152 0.078125 m /zero glyphshow
grestore
gsave
172.460000 34.568750 translate
90.000000 rotate
0.000000 0.000000 m /two glyphshow
3.181152 0.000000 m /one glyphshow
grestore
gsave
176.993750 34.600000 translate
90.000000 rotate
0.000000 0.000000 m /two glyphshow
3.181152 0.000000 m /two glyphshow
grestore
gsave
181.566563 34.506250 translate
90.000000 rotate
0.000000 0.078125 m /two glyphshow
3.181152 0.078125 m /three glyphshow
grestore
gsave
186.061250 34.381250 translate
90.000000 rotate
0.000000 0.000000 m /two glyphshow
3.181152 0.000000 m /four glyphshow
grestore
gsave
190.634063 34.537500 translate
90.000000 rotate
0.000000 0.078125 m /two glyphshow
3.181152 0.078125 m /five glyphshow
grestore
gsave
195.167813 34.412500 translate
90.000000 rotate
0.000000 0.078125 m /two glyphshow
3.181152 0.078125 m /six glyphshow
grestore
gsave
199.662500 34.537500 translate
90.000000 rotate
0.000000 0.000000 m /two glyphshow
3.181152 0.000000 m /seven glyphshow
grestore
gsave
204.235313 34.443750 translate
90.000000 rotate
0.000000 0.078125 m /two glyphshow
3.181152 0.078125 m /eight glyphshow
grestore
gsave
208.769063 34.459375 translate
90.000000 rotate
0.000000 0.078125 m /two glyphshow
3.181152 0.078125 m /nine glyphshow
grestore
gsave
213.302813 34.443750 translate
90.000000 rotate
0.000000 0.078125 m /three glyphshow
3.181152 0.078125 m /zero glyphshow
grestore
gsave
217.836563 34.568750 translate
90.000000 rotate
0.000000 0.078125 m /three glyphshow
3.181152 0.078125 m /one glyphshow
grestore
gsave
222.370313 34.600000 translate
90.000000 rotate
0.000000 0.078125 m /three glyphshow
3.181152 0.078125 m /two glyphshow
grestore
gsave
226.904063 34.506250 translate
90.000000 rotate
0.000000 0.078125 m /three glyphshow
3.181152 0.078125 m /three glyphshow
grestore
gsave
231.437813 34.381250 translate
90.000000 rotate
0.000000 0.078125 m /three glyphshow
3.181152 0.078125 m /four glyphshow
grestore
gsave
235.971563 34.537500 translate
90.000000 rotate
0.000000 0.078125 m /three glyphshow
3.181152 0.078125 m /five glyphshow
grestore
gsave
240.505313 34.412500 translate
90.000000 rotate
0.000000 0.078125 m /three glyphshow
3.181152 0.078125 m /six glyphshow
grestore
gsave
245.039062 34.537500 translate
90.000000 rotate
0.000000 0.078125 m /three glyphshow
3.181152 0.078125 m /seven glyphshow
grestore
gsave
249.572812 34.443750 translate
90.000000 rotate
0.000000 0.078125 m /three glyphshow
3.181152 0.078125 m /eight glyphshow
grestore
gsave
254.106563 34.459375 translate
90.000000 rotate
0.000000 0.078125 m /three glyphshow
3.181152 0.078125 m /nine glyphshow
grestore
gsave
258.640313 34.318750 translate
90.000000 rotate
0.000000 0.078125 m /four glyphshow
3.181152 0.078125 m /zero glyphshow
grestore
gsave
263.095937 34.443750 translate
90.000000 rotate
0.000000 0.000000 m /four glyphshow
3.181152 0.000000 m /one glyphshow
grestore
gsave
267.668750 34.475000 translate
90.000000 rotate
0.000000 0.000000 m /four glyphshow
3.181152 0.000000 m /two glyphshow
grestore
gsave
272.241562 34.381250 translate
90.000000 rotate
0.000000 0.078125 m /four glyphshow
3.181152 0.078125 m /three glyphshow
grestore
gsave
276.697188 34.256250 translate
90.000000 rotate
0.000000 0.000000 m /four glyphshow
3.181152 0.000000 m /four glyphshow
grestore
gsave
281.270000 34.412500 translate
90.000000 rotate
0.000000 0.078125 m /four glyphshow
3.181152 0.078125 m /five glyphshow
grestore
gsave
285.842813 34.287500 translate
90.000000 rotate
0.000000 0.078125 m /four glyphshow
3.181152 0.078125 m /six glyphshow
grestore
gsave
290.298437 34.412500 translate
90.000000 rotate
0.000000 0.000000 m /four glyphshow
3.181152 0.000000 m /seven glyphshow
grestore
gsave
294.910313 34.318750 translate
90.000000 rotate
0.000000 0.078125 m /four glyphshow
3.181152 0.078125 m /eight glyphshow
grestore
gsave
299.444062 34.334375 translate
90.000000 rotate
0.000000 0.078125 m /four glyphshow
3.181152 0.078125 m /nine glyphshow
grestore
gsave
303.977813 34.459375 translate
90.000000 rotate
0.000000 0.078125 m /five glyphshow
3.181152 0.078125 m /zero glyphshow
grestore
gsave
308.472500 34.584375 translate
90.000000 rotate
0.000000 0.078125 m /five glyphshow
3.181152 0.078125 m /one glyphshow
grestore
gsave
313.045313 34.615625 translate
90.000000 rotate
0.000000 0.078125 m /five glyphshow
3.181152 0.078125 m /two glyphshow
grestore
gsave
317.579063 34.521875 translate
90.000000 rotate
0.000000 0.078125 m /five glyphshow
3.181152 0.078125 m /three glyphshow
grestore
gsave
322.073750 34.396875 translate
90.000000 rotate
0.000000 0.078125 m /five glyphshow
3.181152 0.078125 m /four glyphshow
grestore
gsave
326.607500 34.553125 translate
90.000000 rotate
0.000000 0.078125 m /five glyphshow
3.181152 0.078125 m /five glyphshow
grestore
gsave
331.180313 34.428125 translate
90.000000 rotate
0.000000 0.078125 m /five glyphshow
3.181152 0.078125 m /six glyphshow
grestore
gsave
335.675000 34.553125 translate
90.000000 rotate
0.000000 0.078125 m /five glyphshow
3.181152 0.078125 m /seven glyphshow
grestore
gsave
340.247813 34.459375 translate
90.000000 rotate
0.000000 0.078125 m /five glyphshow
3.181152 0.078125 m /eight glyphshow
grestore
gsave
344.781563 34.475000 translate
90.000000 rotate
0.000000 0.078125 m /five glyphshow
3.181152 0.078125 m /nine glyphshow
grestore
gsave
349.315313 34.412500 translate
90.000000 rotate
0.000000 0.078125 m /six glyphshow
3.181152 0.078125 m /zero glyphshow
grestore
gsave
353.849063 34.537500 translate
90.000000 rotate
0.000000 0.078125 m /six glyphshow
3.181152 0.078125 m /one glyphshow
grestore
gsave
358.382812 34.568750 translate
90.000000 rotate
0.000000 0.078125 m /six glyphshow
3.181152 0.078125 m /two glyphshow
grestore
gsave
362.916562 34.475000 translate
90.000000 rotate
0.000000 0.078125 m /six glyphshow
3.181152 0.078125 m /three glyphshow
grestore
gsave
367.450312 34.350000 translate
90.000000 rotate
0.000000 0.078125 m /six glyphshow
3.181152 0.078125 m /four glyphshow
grestore
gsave
371.984062 34.506250 translate
90.000000 rotate
0.000000 0.078125 m /six glyphshow
3.181152 0.078125 m /five glyphshow
grestore
gsave
376.517812 34.381250 translate
90.000000 rotate
0.000000 0.078125 m /six glyphshow
3.181152 0.078125 m /six glyphshow
grestore
gsave
381.051563 34.506250 translate
90.000000 rotate
0.000000 0.078125 m /six glyphshow
3.181152 0.078125 m /seven glyphshow
grestore
gsave
385.585313 34.412500 translate
90.000000 rotate
0.000000 0.078125 m /six glyphshow
3.181152 0.078125 m /eight glyphshow
grestore
gsave
390.119063 34.428125 translate
90.000000 rotate
0.000000 0.078125 m /six glyphshow
3.181152 0.078125 m /nine glyphshow
grestore
gsave
394.652813 34.475000 translate
90.000000 rotate
0.000000 0.078125 m /seven glyphshow
3.181152 0.078125 m /zero glyphshow
grestore
gsave
399.108438 34.600000 translate
90.000000 rotate
0.000000 0.000000 m /seven glyphshow
3.181152 0.000000 m /one glyphshow
grestore
gsave
403.681250 34.631250 translate
90.000000 rotate
0.000000 0.000000 m /seven glyphshow
3.181152 0.000000 m /two glyphshow
grestore
gsave
408.254063 34.537500 translate
90.000000 rotate
0.000000 0.078125 m /seven glyphshow
3.181152 0.078125 m /three glyphshow
grestore
gsave
412.709688 34.412500 translate
90.000000 rotate
0.000000 0.000000 m /seven glyphshow
3.181152 0.000000 m /four glyphshow
grestore
gsave
417.282500 34.568750 translate
90.000000 rotate
0.000000 0.078125 m /seven glyphshow
3.181152 0.078125 m /five glyphshow
grestore
gsave
421.855313 34.443750 translate
90.000000 rotate
0.000000 0.078125 m /seven glyphshow
3.181152 0.078125 m /six glyphshow
grestore
gsave
426.310938 34.568750 translate
90.000000 rotate
0.000000 0.000000 m /seven glyphshow
3.181152 0.000000 m /seven glyphshow
grestore
gsave
430.922813 34.475000 translate
90.000000 rotate
0.000000 0.078125 m /seven glyphshow
3.181152 0.078125 m /eight glyphshow
grestore
gsave
435.456563 34.490625 translate
90.000000 rotate
0.000000 0.078125 m /seven glyphshow
3.181152 0.078125 m /nine glyphshow
grestore
gsave
439.990313 34.412500 translate
90.000000 rotate
0.000000 0.078125 m /eight glyphshow
3.181152 0.078125 m /zero glyphshow
grestore
gsave
444.524063 34.537500 translate
90.000000 rotate
0.000000 0.078125 m /eight glyphshow
3.181152 0.078125 m /one glyphshow
grestore
gsave
449.057813 34.568750 translate
90.000000 rotate
0.000000 0.078125 m /eight glyphshow
3.181152 0.078125 m /two glyphshow
grestore
gsave
453.591563 34.475000 translate
90.000000 rotate
0.000000 0.078125 m /eight glyphshow
3.181152 0.078125 m /three glyphshow
grestore
gsave
458.125313 34.350000 translate
90.000000 rotate
0.000000 0.078125 m /eight glyphshow
3.181152 0.078125 m /four glyphshow
grestore
gsave
462.659063 34.506250 translate
90.000000 rotate
0.000000 0.078125 m /eight glyphshow
3.181152 0.078125 m /five glyphshow
grestore
gsave
467.192813 34.381250 translate
90.000000 rotate
0.000000 0.078125 m /eight glyphshow
3.181152 0.078125 m /six glyphshow
grestore
gsave
471.726562 34.506250 translate
90.000000 rotate
0.000000 0.078125 m /eight glyphshow
3.181152 0.078125 m /seven glyphshow
grestore
gsave
476.260312 34.412500 translate
90.000000 rotate
0.000000 0.078125 m /eight glyphshow
3.181152 0.078125 m /eight glyphshow
grestore
gsave
480.794063 34.428125 translate
90.000000 rotate
0.000000 0.078125 m /eight glyphshow
3.181152 0.078125 m /nine glyphshow
grestore
gsave
485.327813 34.381250 translate
90.000000 rotate
0.000000 0.078125 m /nine glyphshow
3.181152 0.078125 m /zero glyphshow
grestore
gsave
489.861563 34.506250 translate
90.000000 rotate
0.000000 0.078125 m /nine glyphshow
3.181152 0.078125 m /one glyphshow
grestore
gsave
494.395313 34.537500 translate
90.000000 rotate
0.000000 0.078125 m /nine glyphshow
3.181152 0.078125 m /two glyphshow
grestore
gsave
498.929063 34.443750 translate
90.000000 rotate
0.000000 0.078125 m /nine glyphshow
3.181152 0.078125 m /three glyphshow
grestore
gsave
503.462813 34.318750 translate
90.000000 rotate
0.000000 0.078125 m /nine glyphshow
3.181152 0.078125 m /four glyphshow
grestore
gsave
507.996563 34.475000 translate
90.000000 rotate
0.000000 0.078125 m /nine glyphshow
3.181152 0.078125 m /five glyphshow
grestore
gsave
512.530313 34.350000 translate
90.000000 rotate
0.000000 0.078125 m /nine glyphshow
3.181152 0.078125 m /six glyphshow
grestore
gsave
517.064063 34.475000 translate
90.000000 rotate
0.000000 0.078125 m /nine glyphshow
3.181152 0.078125 m /seven glyphshow
grestore
gsave
521.597813 34.381250 translate
90.000000 rotate
0.000000 0.078125 m /nine glyphshow
3.181152 0.078125 m /eight glyphshow
grestore
gsave
526.131562 34.396875 translate
90.000000 rotate
0.000000 0.078125 m /nine glyphshow
3.181152 0.078125 m /nine glyphshow
grestore
0.500 setlinewidth
gsave
/o {
gsave
newpath
translate
0 0 m
4 0 l
stroke
grestore
} bind def
73.125 44.1 o
grestore
gsave
/o {
gsave
newpath
translate
0 0 m
-4 0 l
stroke
grestore
} bind def
526.5 44.1 o
grestore
/BitstreamVeraSans-Roman findfont
12.000 scalefont
setfont
gsave
51.625000 39.560937 translate
0.000000 rotate
0.000000 0.171875 m /zero glyphshow
7.634766 0.171875 m /period glyphshow
11.449219 0.171875 m /zero glyphshow
grestore
gsave
/o {
gsave
newpath
translate
0 0 m
4 0 l
stroke
grestore
} bind def
73.125 111.3 o
grestore
gsave
/o {
gsave
newpath
translate
0 0 m
-4 0 l
stroke
grestore
} bind def
526.5 111.3 o
grestore
gsave
52.031250 106.760938 translate
0.000000 rotate
0.000000 0.171875 m /zero glyphshow
7.634766 0.171875 m /period glyphshow
11.449219 0.171875 m /two glyphshow
grestore
gsave
/o {
gsave
newpath
translate
0 0 m
4 0 l
stroke
grestore
} bind def
73.125 178.5 o
grestore
gsave
/o {
gsave
newpath
translate
0 0 m
-4 0 l
stroke
grestore
} bind def
526.5 178.5 o
grestore
gsave
51.500000 173.960938 translate
0.000000 rotate
0.000000 0.171875 m /zero glyphshow
7.634766 0.171875 m /period glyphshow
11.449219 0.171875 m /four glyphshow
grestore
gsave
/o {
gsave
newpath
translate
0 0 m
4 0 l
stroke
grestore
} bind def
73.125 245.7 o
grestore
gsave
/o {
gsave
newpath
translate
0 0 m
-4 0 l
stroke
grestore
} bind def
526.5 245.7 o
grestore
gsave
51.593750 241.160938 translate
0.000000 rotate
0.000000 0.171875 m /zero glyphshow
7.634766 0.171875 m /period glyphshow
11.449219 0.171875 m /six glyphshow
grestore
gsave
/o {
gsave
newpath
translate
0 0 m
4 0 l
stroke
grestore
} bind def
73.125 312.9 o
grestore
gsave
/o {
gsave
newpath
translate
0 0 m
-4 0 l
stroke
grestore
} bind def
526.5 312.9 o
grestore
gsave
51.656250 308.360938 translate
0.000000 rotate
0.000000 0.171875 m /zero glyphshow
7.634766 0.171875 m /period glyphshow
11.449219 0.171875 m /eight glyphshow
grestore
gsave
/o {
gsave
newpath
translate
0 0 m
4 0 l
stroke
grestore
} bind def
73.125 380.1 o
grestore
gsave
/o {
gsave
newpath
translate
0 0 m
-4 0 l
stroke
grestore
} bind def
526.5 380.1 o
grestore
gsave
52.140625 375.560938 translate
0.000000 rotate
0.000000 0.171875 m /one glyphshow
7.634766 0.171875 m /period glyphshow
11.449219 0.171875 m /zero glyphshow
grestore
1.000 setlinewidth
2 setlinecap
gsave
73.125 396.9 m
526.5 396.9 l
stroke
grestore
gsave
526.5 44.1 m
526.5 396.9 l
stroke
grestore
gsave
73.125 44.1 m
526.5 44.1 l
stroke
grestore
gsave
73.125 44.1 m
73.125 396.9 l
stroke
grestore

end
showpage
