%!PS-Adobe-3.0 EPSF-3.0
%%Title: /home/lboyles/research/polya_hclustering/beta22_sample.eps
%%Creator: matplotlib version 1.0.1, http://matplotlib.sourceforge.net/
%%CreationDate: Fri Jan  6 08:02:55 2012
%%Orientation: portrait
%%BoundingBox: 13 175 598 616
%%EndComments
%%BeginProlog
/mpldict 8 dict def
mpldict begin
/m { moveto } bind def
/l { lineto } bind def
/r { rlineto } bind def
/c { curveto } bind def
/cl { closepath } bind def
/box {
m
1 index 0 r
0 exch r
neg 0 r
cl
} bind def
/clipbox {
box
clip
newpath
} bind def
%!PS-Adobe-3.0 Resource-Font
%%Title: Bitstream Vera Sans
%%Copyright: Copyright (c) 2003 by Bitstream, Inc. All Rights Reserved.
%%Creator: Converted from TrueType to type 3 by PPR
25 dict begin
/_d{bind def}bind def
/_m{moveto}_d
/_l{lineto}_d
/_cl{closepath eofill}_d
/_c{curveto}_d
/_sc{7 -1 roll{setcachedevice}{pop pop pop pop pop pop}ifelse}_d
/_e{exec}_d
/FontName /BitstreamVeraSans-Roman def
/PaintType 0 def
/FontMatrix[.001 0 0 .001 0 0]def
/FontBBox[-182 -235 1287 928]def
/FontType 3 def
/Encoding [ /period /zero /one /two /three /four /five /six /seven /eight /nine ] def
/FontInfo 10 dict dup begin
/FamilyName (Bitstream Vera Sans) def
/FullName (Bitstream Vera Sans) def
/Notice (Copyright (c) 2003 by Bitstream, Inc. All Rights Reserved. Bitstream Vera is a trademark of Bitstream, Inc.) def
/Weight (Roman) def
/Version (Release 1.10) def
/ItalicAngle 0.0 def
/isFixedPitch false def
/UnderlinePosition -213 def
/UnderlineThickness 143 def
end readonly def
/CharStrings 11 dict dup begin
/period{318 0 107 0 210 124 _sc
107 124 _m
210 124 _l
210 0 _l
107 0 _l
107 124 _l
_cl}_d
/zero{636 0 66 -13 570 742 _sc
318 664 _m
267 664 229 639 203 589 _c
177 539 165 464 165 364 _c
165 264 177 189 203 139 _c
229 89 267 64 318 64 _c
369 64 407 89 433 139 _c
458 189 471 264 471 364 _c
471 464 458 539 433 589 _c
407 639 369 664 318 664 _c
318 742 _m
399 742 461 709 505 645 _c
548 580 570 486 570 364 _c
570 241 548 147 505 83 _c
461 19 399 -13 318 -13 _c
236 -13 173 19 130 83 _c
87 147 66 241 66 364 _c
66 486 87 580 130 645 _c
173 709 236 742 318 742 _c
_cl}_d
/one{636 0 110 0 544 729 _sc
124 83 _m
285 83 _l
285 639 _l
110 604 _l
110 694 _l
284 729 _l
383 729 _l
383 83 _l
544 83 _l
544 0 _l
124 0 _l
124 83 _l
_cl}_d
/two{{636 0 73 0 536 742 _sc
192 83 _m
536 83 _l
536 0 _l
73 0 _l
73 83 _l
110 121 161 173 226 239 _c
290 304 331 346 348 365 _c
380 400 402 430 414 455 _c
426 479 433 504 433 528 _c
433 566 419 598 392 622 _c
365 646 330 659 286 659 _c
255 659 222 653 188 643 _c
154 632 117 616 78 594 _c
78 694 _l
118 710 155 722 189 730 _c
223 738 255 742 284 742 _c
359 742 419 723 464 685 _c
509 647 532 597 532 534 _c
532 504 526 475 515 449 _c
504 422 484 390 454 354 _c
446 344 420 317 376 272 _c
332 227 271 164 192 83 _c
_cl}_e}_d
/three{{636 0 76 -13 556 742 _sc
406 393 _m
453 383 490 362 516 330 _c
542 298 556 258 556 212 _c
556 140 531 84 482 45 _c
432 6 362 -13 271 -13 _c
240 -13 208 -10 176 -4 _c
144 1 110 10 76 22 _c
76 117 _l
103 101 133 89 166 81 _c
198 73 232 69 268 69 _c
330 69 377 81 409 105 _c
441 129 458 165 458 212 _c
458 254 443 288 413 312 _c
383 336 341 349 287 349 _c
202 349 _l
202 430 _l
291 430 _l
339 430 376 439 402 459 _c
428 478 441 506 441 543 _c
441 580 427 609 401 629 _c
374 649 336 659 287 659 _c
260 659 231 656 200 650 _c
169 644 135 635 98 623 _c
98 711 _l
135 721 170 729 203 734 _c
235 739 266 742 296 742 _c
}_e{370 742 429 725 473 691 _c
517 657 539 611 539 553 _c
539 513 527 479 504 451 _c
481 423 448 403 406 393 _c
_cl}_e}_d
/four{636 0 49 0 580 729 _sc
378 643 _m
129 254 _l
378 254 _l
378 643 _l
352 729 _m
476 729 _l
476 254 _l
580 254 _l
580 172 _l
476 172 _l
476 0 _l
378 0 _l
378 172 _l
49 172 _l
49 267 _l
352 729 _l
_cl}_d
/five{{636 0 77 -13 549 729 _sc
108 729 _m
495 729 _l
495 646 _l
198 646 _l
198 467 _l
212 472 227 476 241 478 _c
255 480 270 482 284 482 _c
365 482 429 459 477 415 _c
525 370 549 310 549 234 _c
549 155 524 94 475 51 _c
426 8 357 -13 269 -13 _c
238 -13 207 -10 175 -6 _c
143 -1 111 6 77 17 _c
77 116 _l
106 100 136 88 168 80 _c
199 72 232 69 267 69 _c
323 69 368 83 401 113 _c
433 143 450 183 450 234 _c
450 284 433 324 401 354 _c
368 384 323 399 267 399 _c
241 399 214 396 188 390 _c
162 384 135 375 108 363 _c
108 729 _l
_cl}_e}_d
/six{{636 0 70 -13 573 742 _sc
330 404 _m
286 404 251 388 225 358 _c
199 328 186 286 186 234 _c
186 181 199 139 225 109 _c
251 79 286 64 330 64 _c
374 64 409 79 435 109 _c
461 139 474 181 474 234 _c
474 286 461 328 435 358 _c
409 388 374 404 330 404 _c
526 713 _m
526 623 _l
501 635 476 644 451 650 _c
425 656 400 659 376 659 _c
310 659 260 637 226 593 _c
192 549 172 482 168 394 _c
187 422 211 444 240 459 _c
269 474 301 482 336 482 _c
409 482 467 459 509 415 _c
551 371 573 310 573 234 _c
573 159 550 99 506 54 _c
462 9 403 -13 330 -13 _c
246 -13 181 19 137 83 _c
92 147 70 241 70 364 _c
70 479 97 571 152 639 _c
206 707 280 742 372 742 _c
}_e{396 742 421 739 447 735 _c
472 730 498 723 526 713 _c
_cl}_e}_d
/seven{636 0 82 0 551 729 _sc
82 729 _m
551 729 _l
551 687 _l
286 0 _l
183 0 _l
432 646 _l
82 646 _l
82 729 _l
_cl}_d
/eight{{636 0 68 -13 568 742 _sc
318 346 _m
271 346 234 333 207 308 _c
180 283 167 249 167 205 _c
167 161 180 126 207 101 _c
234 76 271 64 318 64 _c
364 64 401 76 428 102 _c
455 127 469 161 469 205 _c
469 249 455 283 429 308 _c
402 333 365 346 318 346 _c
219 388 _m
177 398 144 418 120 447 _c
96 476 85 511 85 553 _c
85 611 105 657 147 691 _c
188 725 245 742 318 742 _c
390 742 447 725 489 691 _c
530 657 551 611 551 553 _c
551 511 539 476 515 447 _c
491 418 459 398 417 388 _c
464 377 501 355 528 323 _c
554 291 568 251 568 205 _c
568 134 546 80 503 43 _c
459 5 398 -13 318 -13 _c
237 -13 175 5 132 43 _c
89 80 68 134 68 205 _c
68 251 81 291 108 323 _c
134 355 171 377 219 388 _c
}_e{183 544 _m
183 506 194 476 218 455 _c
242 434 275 424 318 424 _c
360 424 393 434 417 455 _c
441 476 453 506 453 544 _c
453 582 441 611 417 632 _c
393 653 360 664 318 664 _c
275 664 242 653 218 632 _c
194 611 183 582 183 544 _c
_cl}_e}_d
/nine{{636 0 63 -13 566 742 _sc
110 15 _m
110 105 _l
134 93 159 84 185 78 _c
210 72 235 69 260 69 _c
324 69 374 90 408 134 _c
442 178 462 244 468 334 _c
448 306 424 284 396 269 _c
367 254 335 247 300 247 _c
226 247 168 269 126 313 _c
84 357 63 417 63 494 _c
63 568 85 628 129 674 _c
173 719 232 742 306 742 _c
390 742 455 709 499 645 _c
543 580 566 486 566 364 _c
566 248 538 157 484 89 _c
429 21 356 -13 264 -13 _c
239 -13 214 -10 189 -6 _c
163 -2 137 5 110 15 _c
306 324 _m
350 324 385 339 411 369 _c
437 399 450 441 450 494 _c
450 546 437 588 411 618 _c
385 648 350 664 306 664 _c
262 664 227 648 201 618 _c
175 588 162 546 162 494 _c
}_e{162 441 175 399 201 369 _c
227 339 262 324 306 324 _c
_cl}_e}_d
end readonly def

/BuildGlyph
 {exch begin
 CharStrings exch
 2 copy known not{pop /.notdef}if
 true 3 1 roll get exec
 end}_d

/BuildChar {
 1 index /Encoding get exch get
 1 index /BuildGlyph get exec
}_d

FontName currentdict end definefont pop
end
%%EndProlog
mpldict begin
13.5 175.5 translate
585 441 0 0 clipbox
1.000 setlinewidth
1 setlinejoin
2 setlinecap
[] 0 setdash
1.000 setgray
gsave
0 0 m
585 0 l
585 441 l
0 441 l
cl
gsave
fill
grestore
stroke
grestore
gsave
73.125 44.1 m
526.5 44.1 l
526.5 396.9 l
73.125 396.9 l
cl
fill
grestore
/p0_0 {
newpath
translate
79.9256 44.1 m
79.9256 49.562 l
84.4594 49.562 l
84.4594 44.1 l
} bind def
/p0_1 {
newpath
translate
75.3919 44.1 m
75.3919 51.1131 l
82.1925 51.1131 l
82.1925 49.562 l
} bind def
/p0_2 {
newpath
translate
88.9931 44.1 m
88.9931 49.2979 l
93.5269 49.2979 l
93.5269 44.1 l
} bind def
/p0_3 {
newpath
translate
98.0606 44.1 m
98.0606 45.8341 l
102.594 45.8341 l
102.594 44.1 l
} bind def
/p0_4 {
newpath
translate
100.328 45.8341 m
100.328 51.443 l
107.128 51.443 l
107.128 44.1 l
} bind def
/p0_5 {
newpath
translate
91.26 49.2979 m
91.26 54.7067 l
103.728 54.7067 l
103.728 51.443 l
} bind def
/p0_6 {
newpath
translate
78.7922 51.1131 m
78.7922 60.551 l
97.4939 60.551 l
97.4939 54.7067 l
} bind def
/p0_7 {
newpath
translate
88.143 60.551 m
88.143 66.3746 l
111.662 66.3746 l
111.662 44.1 l
} bind def
/p0_8 {
newpath
translate
116.196 44.1 m
116.196 44.5679 l
120.729 44.5679 l
120.729 44.1 l
} bind def
/p0_9 {
newpath
translate
125.263 44.1 m
125.263 44.4908 l
129.797 44.4908 l
129.797 44.1 l
} bind def
/p0_a {
newpath
translate
118.463 44.5679 m
118.463 44.9289 l
127.53 44.9289 l
127.53 44.4908 l
} bind def
/p0_b {
newpath
translate
138.864 44.1 m
138.864 44.1178 l
143.398 44.1178 l
143.398 44.1 l
} bind def
/p0_c {
newpath
translate
141.131 44.1178 m
141.131 44.2695 l
147.932 44.2695 l
147.932 44.1 l
} bind def
/p0_d {
newpath
translate
134.331 44.1 m
134.331 44.3904 l
144.532 44.3904 l
144.532 44.2695 l
} bind def
/p0_e {
newpath
translate
139.431 44.3904 m
139.431 45.0006 l
152.466 45.0006 l
152.466 44.1 l
} bind def
/p0_f {
newpath
translate
156.999 44.1 m
156.999 44.4467 l
161.533 44.4467 l
161.533 44.1 l
} bind def
/p0_10 {
newpath
translate
159.266 44.4467 m
159.266 44.658 l
166.067 44.658 l
166.067 44.1 l
} bind def
/p0_11 {
newpath
translate
145.948 45.0006 m
145.948 45.1806 l
162.667 45.1806 l
162.667 44.658 l
} bind def
/p0_12 {
newpath
translate
122.996 44.9289 m
122.996 46.0503 l
154.307 46.0503 l
154.307 45.1806 l
} bind def
/p0_13 {
newpath
translate
170.601 44.1 m
170.601 44.3977 l
175.134 44.3977 l
175.134 44.1 l
} bind def
/p0_14 {
newpath
translate
138.652 46.0503 m
138.652 46.5377 l
172.868 46.5377 l
172.868 44.3977 l
} bind def
/p0_15 {
newpath
translate
184.202 44.1 m
184.202 44.7891 l
188.736 44.7891 l
188.736 44.1 l
} bind def
/p0_16 {
newpath
translate
179.668 44.1 m
179.668 46.129 l
186.469 46.129 l
186.469 44.7891 l
} bind def
/p0_17 {
newpath
translate
197.803 44.1 m
197.803 46.6247 l
202.337 46.6247 l
202.337 44.1 l
} bind def
/p0_18 {
newpath
translate
193.269 44.1 m
193.269 46.8342 l
200.07 46.8342 l
200.07 46.6247 l
} bind def
/p0_19 {
newpath
translate
183.068 46.129 m
183.068 49.5518 l
196.67 49.5518 l
196.67 46.8342 l
} bind def
/p0_1a {
newpath
translate
155.76 46.5377 m
155.76 51.0454 l
189.869 51.0454 l
189.869 49.5518 l
} bind def
/p0_1b {
newpath
translate
206.871 44.1 m
206.871 53.1361 l
211.404 53.1361 l
211.404 44.1 l
} bind def
/p0_1c {
newpath
translate
209.138 53.1361 m
209.138 54.5018 l
215.938 54.5018 l
215.938 44.1 l
} bind def
/p0_1d {
newpath
translate
172.814 51.0454 m
172.814 64.1028 l
212.538 64.1028 l
212.538 54.5018 l
} bind def
/p0_1e {
newpath
translate
220.472 44.1 m
220.472 46.6717 l
225.006 46.6717 l
225.006 44.1 l
} bind def
/p0_1f {
newpath
translate
238.607 44.1 m
238.607 44.8776 l
243.141 44.8776 l
243.141 44.1 l
} bind def
/p0_20 {
newpath
translate
247.674 44.1 m
247.674 44.3206 l
252.208 44.3206 l
252.208 44.1 l
} bind def
/p0_21 {
newpath
translate
249.941 44.3206 m
249.941 44.5361 l
256.742 44.5361 l
256.742 44.1 l
} bind def
/p0_22 {
newpath
translate
240.874 44.8776 m
240.874 45.2989 l
253.342 45.2989 l
253.342 44.5361 l
} bind def
/p0_23 {
newpath
translate
234.073 44.1 m
234.073 46.4093 l
247.108 46.4093 l
247.108 45.2989 l
} bind def
/p0_24 {
newpath
translate
229.539 44.1 m
229.539 51.5366 l
240.59 51.5366 l
240.59 46.4093 l
} bind def
/p0_25 {
newpath
translate
222.739 46.6717 m
222.739 54.6535 l
235.065 54.6535 l
235.065 51.5366 l
} bind def
/p0_26 {
newpath
translate
192.676 64.1028 m
192.676 72.5219 l
228.902 72.5219 l
228.902 54.6535 l
} bind def
/p0_27 {
newpath
translate
99.9025 66.3746 m
99.9025 86.478 l
210.789 86.478 l
210.789 72.5219 l
} bind def
/p0_28 {
newpath
translate
261.276 44.1 m
261.276 91.7705 l
265.809 91.7705 l
265.809 44.1 l
} bind def
/p0_29 {
newpath
translate
274.877 44.1 m
274.877 44.5346 l
279.411 44.5346 l
279.411 44.1 l
} bind def
/p0_2a {
newpath
translate
270.343 44.1 m
270.343 45.5052 l
277.144 45.5052 l
277.144 44.5346 l
} bind def
/p0_2b {
newpath
translate
283.944 44.1 m
283.944 47.6507 l
288.478 47.6507 l
288.478 44.1 l
} bind def
/p0_2c {
newpath
translate
293.012 44.1 m
293.012 48.2697 l
297.546 48.2697 l
297.546 44.1 l
} bind def
/p0_2d {
newpath
translate
286.211 47.6507 m
286.211 49.733 l
295.279 49.733 l
295.279 48.2697 l
} bind def
/p0_2e {
newpath
translate
273.743 45.5052 m
273.743 56.8082 l
290.745 56.8082 l
290.745 49.733 l
} bind def
/p0_2f {
newpath
translate
302.079 44.1 m
302.079 59.28 l
306.613 59.28 l
306.613 44.1 l
} bind def
/p0_30 {
newpath
translate
304.346 59.28 m
304.346 60.7341 l
311.147 60.7341 l
311.147 44.1 l
} bind def
/p0_31 {
newpath
translate
282.244 56.8082 m
282.244 72.7899 l
307.747 72.7899 l
307.747 60.7341 l
} bind def
/p0_32 {
newpath
translate
263.543 91.7705 m
263.543 159.625 l
294.995 159.625 l
294.995 72.7899 l
} bind def
/p0_33 {
newpath
translate
155.346 86.478 m
155.346 259.255 l
279.269 259.255 l
279.269 159.625 l
} bind def
0 setlinecap
0.000 0.500 0.000 setrgbcolor
gsave
453.4 352.8 73.12 44.1 clipbox
0 0 p0_0
stroke
grestore
gsave
453.4 352.8 73.12 44.1 clipbox
0 0 p0_1
stroke
grestore
gsave
453.4 352.8 73.12 44.1 clipbox
0 0 p0_2
stroke
grestore
gsave
453.4 352.8 73.12 44.1 clipbox
0 0 p0_3
stroke
grestore
gsave
453.4 352.8 73.12 44.1 clipbox
0 0 p0_4
stroke
grestore
gsave
453.4 352.8 73.12 44.1 clipbox
0 0 p0_5
stroke
grestore
gsave
453.4 352.8 73.12 44.1 clipbox
0 0 p0_6
stroke
grestore
gsave
453.4 352.8 73.12 44.1 clipbox
0 0 p0_7
stroke
grestore
gsave
453.4 352.8 73.12 44.1 clipbox
0 0 p0_8
stroke
grestore
gsave
453.4 352.8 73.12 44.1 clipbox
0 0 p0_9
stroke
grestore
gsave
453.4 352.8 73.12 44.1 clipbox
0 0 p0_a
stroke
grestore
gsave
453.4 352.8 73.12 44.1 clipbox
0 0 p0_b
stroke
grestore
gsave
453.4 352.8 73.12 44.1 clipbox
0 0 p0_c
stroke
grestore
gsave
453.4 352.8 73.12 44.1 clipbox
0 0 p0_d
stroke
grestore
gsave
453.4 352.8 73.12 44.1 clipbox
0 0 p0_e
stroke
grestore
gsave
453.4 352.8 73.12 44.1 clipbox
0 0 p0_f
stroke
grestore
gsave
453.4 352.8 73.12 44.1 clipbox
0 0 p0_10
stroke
grestore
gsave
453.4 352.8 73.12 44.1 clipbox
0 0 p0_11
stroke
grestore
gsave
453.4 352.8 73.12 44.1 clipbox
0 0 p0_12
stroke
grestore
gsave
453.4 352.8 73.12 44.1 clipbox
0 0 p0_13
stroke
grestore
gsave
453.4 352.8 73.12 44.1 clipbox
0 0 p0_14
stroke
grestore
gsave
453.4 352.8 73.12 44.1 clipbox
0 0 p0_15
stroke
grestore
gsave
453.4 352.8 73.12 44.1 clipbox
0 0 p0_16
stroke
grestore
gsave
453.4 352.8 73.12 44.1 clipbox
0 0 p0_17
stroke
grestore
gsave
453.4 352.8 73.12 44.1 clipbox
0 0 p0_18
stroke
grestore
gsave
453.4 352.8 73.12 44.1 clipbox
0 0 p0_19
stroke
grestore
gsave
453.4 352.8 73.12 44.1 clipbox
0 0 p0_1a
stroke
grestore
gsave
453.4 352.8 73.12 44.1 clipbox
0 0 p0_1b
stroke
grestore
gsave
453.4 352.8 73.12 44.1 clipbox
0 0 p0_1c
stroke
grestore
gsave
453.4 352.8 73.12 44.1 clipbox
0 0 p0_1d
stroke
grestore
gsave
453.4 352.8 73.12 44.1 clipbox
0 0 p0_1e
stroke
grestore
gsave
453.4 352.8 73.12 44.1 clipbox
0 0 p0_1f
stroke
grestore
gsave
453.4 352.8 73.12 44.1 clipbox
0 0 p0_20
stroke
grestore
gsave
453.4 352.8 73.12 44.1 clipbox
0 0 p0_21
stroke
grestore
gsave
453.4 352.8 73.12 44.1 clipbox
0 0 p0_22
stroke
grestore
gsave
453.4 352.8 73.12 44.1 clipbox
0 0 p0_23
stroke
grestore
gsave
453.4 352.8 73.12 44.1 clipbox
0 0 p0_24
stroke
grestore
gsave
453.4 352.8 73.12 44.1 clipbox
0 0 p0_25
stroke
grestore
gsave
453.4 352.8 73.12 44.1 clipbox
0 0 p0_26
stroke
grestore
gsave
453.4 352.8 73.12 44.1 clipbox
0 0 p0_27
stroke
grestore
gsave
453.4 352.8 73.12 44.1 clipbox
0 0 p0_28
stroke
grestore
gsave
453.4 352.8 73.12 44.1 clipbox
0 0 p0_29
stroke
grestore
gsave
453.4 352.8 73.12 44.1 clipbox
0 0 p0_2a
stroke
grestore
gsave
453.4 352.8 73.12 44.1 clipbox
0 0 p0_2b
stroke
grestore
gsave
453.4 352.8 73.12 44.1 clipbox
0 0 p0_2c
stroke
grestore
gsave
453.4 352.8 73.12 44.1 clipbox
0 0 p0_2d
stroke
grestore
gsave
453.4 352.8 73.12 44.1 clipbox
0 0 p0_2e
stroke
grestore
gsave
453.4 352.8 73.12 44.1 clipbox
0 0 p0_2f
stroke
grestore
gsave
453.4 352.8 73.12 44.1 clipbox
0 0 p0_30
stroke
grestore
gsave
453.4 352.8 73.12 44.1 clipbox
0 0 p0_31
stroke
grestore
gsave
453.4 352.8 73.12 44.1 clipbox
0 0 p0_32
stroke
grestore
gsave
453.4 352.8 73.12 44.1 clipbox
0 0 p0_33
stroke
grestore
/p1_0 {
newpath
translate
320.214 44.1 m
320.214 47.4098 l
324.748 47.4098 l
324.748 44.1 l
} bind def
/p1_1 {
newpath
translate
315.681 44.1 m
315.681 53.7349 l
322.481 53.7349 l
322.481 47.4098 l
} bind def
/p1_2 {
newpath
translate
333.816 44.1 m
333.816 46.3055 l
338.349 46.3055 l
338.349 44.1 l
} bind def
/p1_3 {
newpath
translate
329.282 44.1 m
329.282 53.4744 l
336.083 53.4744 l
336.083 46.3055 l
} bind def
/p1_4 {
newpath
translate
347.417 44.1 m
347.417 46.3995 l
351.951 46.3995 l
351.951 44.1 l
} bind def
/p1_5 {
newpath
translate
342.883 44.1 m
342.883 46.778 l
349.684 46.778 l
349.684 46.3995 l
} bind def
/p1_6 {
newpath
translate
332.682 53.4744 m
332.682 57.5382 l
346.283 57.5382 l
346.283 46.778 l
} bind def
/p1_7 {
newpath
translate
319.081 53.7349 m
319.081 71.4109 l
339.483 71.4109 l
339.483 57.5382 l
} bind def
/p1_8 {
newpath
translate
356.484 44.1 m
356.484 47.4517 l
361.018 47.4517 l
361.018 44.1 l
} bind def
/p1_9 {
newpath
translate
370.086 44.1 m
370.086 44.5949 l
374.619 44.5949 l
374.619 44.1 l
} bind def
/p1_a {
newpath
translate
365.552 44.1 m
365.552 47.6372 l
372.353 47.6372 l
372.353 44.5949 l
} bind def
/p1_b {
newpath
translate
358.751 47.4517 m
358.751 51.4744 l
368.952 51.4744 l
368.952 47.6372 l
} bind def
/p1_c {
newpath
translate
383.687 44.1 m
383.687 44.5516 l
388.221 44.5516 l
388.221 44.1 l
} bind def
/p1_d {
newpath
translate
379.153 44.1 m
379.153 45.0904 l
385.954 45.0904 l
385.954 44.5516 l
} bind def
/p1_e {
newpath
translate
397.288 44.1 m
397.288 47.711 l
401.822 47.711 l
401.822 44.1 l
} bind def
/p1_f {
newpath
translate
392.754 44.1 m
392.754 53.8211 l
399.555 53.8211 l
399.555 47.711 l
} bind def
/p1_10 {
newpath
translate
382.553 45.0904 m
382.553 54.8112 l
396.155 54.8112 l
396.155 53.8211 l
} bind def
/p1_11 {
newpath
translate
410.889 44.1 m
410.889 44.2614 l
415.423 44.2614 l
415.423 44.1 l
} bind def
/p1_12 {
newpath
translate
413.156 44.2614 m
413.156 44.4596 l
419.957 44.4596 l
419.957 44.1 l
} bind def
/p1_13 {
newpath
translate
406.356 44.1 m
406.356 44.6146 l
416.557 44.6146 l
416.557 44.4596 l
} bind def
/p1_14 {
newpath
translate
411.456 44.6146 m
411.456 46.693 l
424.491 46.693 l
424.491 44.1 l
} bind def
/p1_15 {
newpath
translate
389.354 54.8112 m
389.354 58.3474 l
417.973 58.3474 l
417.973 46.693 l
} bind def
/p1_16 {
newpath
translate
363.852 51.4744 m
363.852 61.3584 l
403.664 61.3584 l
403.664 58.3474 l
} bind def
/p1_17 {
newpath
translate
429.024 44.1 m
429.024 51.5342 l
433.558 51.5342 l
433.558 44.1 l
} bind def
/p1_18 {
newpath
translate
431.291 51.5342 m
431.291 54.6924 l
438.092 54.6924 l
438.092 44.1 l
} bind def
/p1_19 {
newpath
translate
442.626 44.1 m
442.626 46.356 l
447.159 46.356 l
447.159 44.1 l
} bind def
/p1_1a {
newpath
translate
444.893 46.356 m
444.893 51.7783 l
451.693 51.7783 l
451.693 44.1 l
} bind def
/p1_1b {
newpath
translate
448.293 51.7783 m
448.293 60.4141 l
456.227 60.4141 l
456.227 44.1 l
} bind def
/p1_1c {
newpath
translate
434.692 54.6924 m
434.692 68.4841 l
452.26 68.4841 l
452.26 60.4141 l
} bind def
/p1_1d {
newpath
translate
383.758 61.3584 m
383.758 80.0858 l
443.476 80.0858 l
443.476 68.4841 l
} bind def
/p1_1e {
newpath
translate
329.282 71.4109 m
329.282 92.3816 l
413.617 92.3816 l
413.617 80.0858 l
} bind def
/p1_1f {
newpath
translate
465.294 44.1 m
465.294 52.1609 l
469.828 52.1609 l
469.828 44.1 l
} bind def
/p1_20 {
newpath
translate
460.761 44.1 m
460.761 66.1401 l
467.561 66.1401 l
467.561 52.1609 l
} bind def
/p1_21 {
newpath
translate
474.362 44.1 m
474.362 59.0833 l
478.896 59.0833 l
478.896 44.1 l
} bind def
/p1_22 {
newpath
translate
476.629 59.0833 m
476.629 73.5971 l
483.429 73.5971 l
483.429 44.1 l
} bind def
/p1_23 {
newpath
translate
464.161 66.1401 m
464.161 102.222 l
480.029 102.222 l
480.029 73.5971 l
} bind def
/p1_24 {
newpath
translate
371.449 92.3816 m
371.449 134.105 l
472.095 134.105 l
472.095 102.222 l
} bind def
/p1_25 {
newpath
translate
487.963 44.1 m
487.963 47.2472 l
492.497 47.2472 l
492.497 44.1 l
} bind def
/p1_26 {
newpath
translate
490.23 47.2472 m
490.23 49.8424 l
497.031 49.8424 l
497.031 44.1 l
} bind def
/p1_27 {
newpath
translate
506.098 44.1 m
506.098 45.4898 l
510.632 45.4898 l
510.632 44.1 l
} bind def
/p1_28 {
newpath
translate
501.564 44.1 m
501.564 48.2671 l
508.365 48.2671 l
508.365 45.4898 l
} bind def
/p1_29 {
newpath
translate
504.965 48.2671 m
504.965 52.2187 l
515.166 52.2187 l
515.166 44.1 l
} bind def
/p1_2a {
newpath
translate
493.63 49.8424 m
493.63 59.3503 l
510.065 59.3503 l
510.065 52.2187 l
} bind def
/p1_2b {
newpath
translate
519.699 44.1 m
519.699 61.7925 l
524.233 61.7925 l
524.233 44.1 l
} bind def
/p1_2c {
newpath
translate
501.848 59.3503 m
501.848 87.262 l
521.966 87.262 l
521.966 61.7925 l
} bind def
/p1_2d {
newpath
translate
421.772 134.105 m
421.772 211.643 l
511.907 211.643 l
511.907 87.262 l
} bind def
1.000 0.000 0.000 setrgbcolor
gsave
453.4 352.8 73.12 44.1 clipbox
0 0 p1_0
stroke
grestore
gsave
453.4 352.8 73.12 44.1 clipbox
0 0 p1_1
stroke
grestore
gsave
453.4 352.8 73.12 44.1 clipbox
0 0 p1_2
stroke
grestore
gsave
453.4 352.8 73.12 44.1 clipbox
0 0 p1_3
stroke
grestore
gsave
453.4 352.8 73.12 44.1 clipbox
0 0 p1_4
stroke
grestore
gsave
453.4 352.8 73.12 44.1 clipbox
0 0 p1_5
stroke
grestore
gsave
453.4 352.8 73.12 44.1 clipbox
0 0 p1_6
stroke
grestore
gsave
453.4 352.8 73.12 44.1 clipbox
0 0 p1_7
stroke
grestore
gsave
453.4 352.8 73.12 44.1 clipbox
0 0 p1_8
stroke
grestore
gsave
453.4 352.8 73.12 44.1 clipbox
0 0 p1_9
stroke
grestore
gsave
453.4 352.8 73.12 44.1 clipbox
0 0 p1_a
stroke
grestore
gsave
453.4 352.8 73.12 44.1 clipbox
0 0 p1_b
stroke
grestore
gsave
453.4 352.8 73.12 44.1 clipbox
0 0 p1_c
stroke
grestore
gsave
453.4 352.8 73.12 44.1 clipbox
0 0 p1_d
stroke
grestore
gsave
453.4 352.8 73.12 44.1 clipbox
0 0 p1_e
stroke
grestore
gsave
453.4 352.8 73.12 44.1 clipbox
0 0 p1_f
stroke
grestore
gsave
453.4 352.8 73.12 44.1 clipbox
0 0 p1_10
stroke
grestore
gsave
453.4 352.8 73.12 44.1 clipbox
0 0 p1_11
stroke
grestore
gsave
453.4 352.8 73.12 44.1 clipbox
0 0 p1_12
stroke
grestore
gsave
453.4 352.8 73.12 44.1 clipbox
0 0 p1_13
stroke
grestore
gsave
453.4 352.8 73.12 44.1 clipbox
0 0 p1_14
stroke
grestore
gsave
453.4 352.8 73.12 44.1 clipbox
0 0 p1_15
stroke
grestore
gsave
453.4 352.8 73.12 44.1 clipbox
0 0 p1_16
stroke
grestore
gsave
453.4 352.8 73.12 44.1 clipbox
0 0 p1_17
stroke
grestore
gsave
453.4 352.8 73.12 44.1 clipbox
0 0 p1_18
stroke
grestore
gsave
453.4 352.8 73.12 44.1 clipbox
0 0 p1_19
stroke
grestore
gsave
453.4 352.8 73.12 44.1 clipbox
0 0 p1_1a
stroke
grestore
gsave
453.4 352.8 73.12 44.1 clipbox
0 0 p1_1b
stroke
grestore
gsave
453.4 352.8 73.12 44.1 clipbox
0 0 p1_1c
stroke
grestore
gsave
453.4 352.8 73.12 44.1 clipbox
0 0 p1_1d
stroke
grestore
gsave
453.4 352.8 73.12 44.1 clipbox
0 0 p1_1e
stroke
grestore
gsave
453.4 352.8 73.12 44.1 clipbox
0 0 p1_1f
stroke
grestore
gsave
453.4 352.8 73.12 44.1 clipbox
0 0 p1_20
stroke
grestore
gsave
453.4 352.8 73.12 44.1 clipbox
0 0 p1_21
stroke
grestore
gsave
453.4 352.8 73.12 44.1 clipbox
0 0 p1_22
stroke
grestore
gsave
453.4 352.8 73.12 44.1 clipbox
0 0 p1_23
stroke
grestore
gsave
453.4 352.8 73.12 44.1 clipbox
0 0 p1_24
stroke
grestore
gsave
453.4 352.8 73.12 44.1 clipbox
0 0 p1_25
stroke
grestore
gsave
453.4 352.8 73.12 44.1 clipbox
0 0 p1_26
stroke
grestore
gsave
453.4 352.8 73.12 44.1 clipbox
0 0 p1_27
stroke
grestore
gsave
453.4 352.8 73.12 44.1 clipbox
0 0 p1_28
stroke
grestore
gsave
453.4 352.8 73.12 44.1 clipbox
0 0 p1_29
stroke
grestore
gsave
453.4 352.8 73.12 44.1 clipbox
0 0 p1_2a
stroke
grestore
gsave
453.4 352.8 73.12 44.1 clipbox
0 0 p1_2b
stroke
grestore
gsave
453.4 352.8 73.12 44.1 clipbox
0 0 p1_2c
stroke
grestore
gsave
453.4 352.8 73.12 44.1 clipbox
0 0 p1_2d
stroke
grestore
/p2_0 {
newpath
translate
217.307 259.255 m
217.307 380.1 l
466.84 380.1 l
466.84 211.643 l
} bind def
0.000 0.000 1.000 setrgbcolor
gsave
453.4 352.8 73.12 44.1 clipbox
0 0 p2_0
stroke
grestore
0.000 setgray
/BitstreamVeraSans-Roman findfont
5.000 scalefont
setfont
gsave
77.212187 34.412500 translate
90.000000 rotate
0.000000 0.000000 m /seven glyphshow
3.181152 0.000000 m /four glyphshow
grestore
gsave
81.824062 34.318750 translate
90.000000 rotate
0.000000 0.078125 m /four glyphshow
3.181152 0.078125 m /zero glyphshow
grestore
gsave
86.318750 37.787500 translate
90.000000 rotate
0.000000 0.000000 m /two glyphshow
grestore
gsave
90.813438 34.256250 translate
90.000000 rotate
0.000000 0.000000 m /four glyphshow
3.181152 0.000000 m /four glyphshow
grestore
gsave
95.425313 34.506250 translate
90.000000 rotate
0.000000 0.078125 m /eight glyphshow
3.181152 0.078125 m /five glyphshow
grestore
gsave
99.959063 34.381250 translate
90.000000 rotate
0.000000 0.078125 m /eight glyphshow
3.181152 0.078125 m /six glyphshow
grestore
gsave
104.492812 37.600000 translate
90.000000 rotate
0.000000 0.078125 m /eight glyphshow
grestore
gsave
109.026563 34.568750 translate
90.000000 rotate
0.000000 0.078125 m /eight glyphshow
3.181152 0.078125 m /two glyphshow
grestore
gsave
113.560313 34.443750 translate
90.000000 rotate
0.000000 0.078125 m /two glyphshow
3.181152 0.078125 m /zero glyphshow
grestore
gsave
118.094063 34.506250 translate
90.000000 rotate
0.000000 0.078125 m /three glyphshow
3.181152 0.078125 m /three glyphshow
grestore
gsave
122.627813 34.412500 translate
90.000000 rotate
0.000000 0.078125 m /three glyphshow
3.181152 0.078125 m /six glyphshow
grestore
gsave
127.161563 34.443750 translate
90.000000 rotate
0.000000 0.078125 m /three glyphshow
3.181152 0.078125 m /zero glyphshow
grestore
gsave
131.695312 34.350000 translate
90.000000 rotate
0.000000 0.078125 m /eight glyphshow
3.181152 0.078125 m /four glyphshow
grestore
gsave
136.229062 37.693750 translate
90.000000 rotate
0.000000 0.078125 m /three glyphshow
grestore
gsave
140.762812 34.412500 translate
90.000000 rotate
0.000000 0.078125 m /eight glyphshow
3.181152 0.078125 m /eight glyphshow
grestore
gsave
145.296562 34.521875 translate
90.000000 rotate
0.000000 0.078125 m /five glyphshow
3.181152 0.078125 m /three glyphshow
grestore
gsave
149.830312 34.475000 translate
90.000000 rotate
0.000000 0.078125 m /nine glyphshow
3.181152 0.078125 m /seven glyphshow
grestore
gsave
154.325000 34.475000 translate
90.000000 rotate
0.000000 0.000000 m /four glyphshow
3.181152 0.000000 m /two glyphshow
grestore
gsave
158.897812 34.350000 translate
90.000000 rotate
0.000000 0.078125 m /six glyphshow
3.181152 0.078125 m /four glyphshow
grestore
gsave
163.353438 37.756250 translate
90.000000 rotate
0.000000 0.000000 m /seven glyphshow
grestore
gsave
167.965313 34.475000 translate
90.000000 rotate
0.000000 0.078125 m /nine glyphshow
3.181152 0.078125 m /five glyphshow
grestore
gsave
172.460000 34.381250 translate
90.000000 rotate
0.000000 0.000000 m /two glyphshow
3.181152 0.000000 m /four glyphshow
grestore
gsave
177.032813 34.428125 translate
90.000000 rotate
0.000000 0.078125 m /six glyphshow
3.181152 0.078125 m /nine glyphshow
grestore
gsave
181.566563 37.584375 translate
90.000000 rotate
0.000000 0.078125 m /zero glyphshow
grestore
gsave
186.100313 34.381250 translate
90.000000 rotate
0.000000 0.078125 m /nine glyphshow
3.181152 0.078125 m /eight glyphshow
grestore
gsave
190.634063 34.475000 translate
90.000000 rotate
0.000000 0.078125 m /five glyphshow
3.181152 0.078125 m /nine glyphshow
grestore
gsave
195.167813 34.350000 translate
90.000000 rotate
0.000000 0.078125 m /nine glyphshow
3.181152 0.078125 m /six glyphshow
grestore
gsave
199.701563 34.381250 translate
90.000000 rotate
0.000000 0.078125 m /four glyphshow
3.181152 0.078125 m /three glyphshow
grestore
gsave
204.235313 34.475000 translate
90.000000 rotate
0.000000 0.078125 m /six glyphshow
3.181152 0.078125 m /three glyphshow
grestore
gsave
208.769063 34.584375 translate
90.000000 rotate
0.000000 0.078125 m /one glyphshow
3.181152 0.078125 m /six glyphshow
grestore
gsave
213.302813 34.412500 translate
90.000000 rotate
0.000000 0.078125 m /six glyphshow
3.181152 0.078125 m /zero glyphshow
grestore
gsave
217.836563 34.459375 translate
90.000000 rotate
0.000000 0.078125 m /five glyphshow
3.181152 0.078125 m /zero glyphshow
grestore
gsave
222.370313 34.537500 translate
90.000000 rotate
0.000000 0.078125 m /nine glyphshow
3.181152 0.078125 m /two glyphshow
grestore
gsave
226.904063 37.584375 translate
90.000000 rotate
0.000000 0.078125 m /nine glyphshow
grestore
gsave
231.398750 34.584375 translate
90.000000 rotate
0.000000 0.078125 m /five glyphshow
3.181152 0.078125 m /one glyphshow
grestore
gsave
235.971563 34.443750 translate
90.000000 rotate
0.000000 0.078125 m /nine glyphshow
3.181152 0.078125 m /three glyphshow
grestore
gsave
240.505313 34.381250 translate
90.000000 rotate
0.000000 0.078125 m /six glyphshow
3.181152 0.078125 m /six glyphshow
grestore
gsave
245.000000 34.553125 translate
90.000000 rotate
0.000000 0.078125 m /five glyphshow
3.181152 0.078125 m /seven glyphshow
grestore
gsave
249.533750 34.631250 translate
90.000000 rotate
0.000000 0.000000 m /seven glyphshow
3.181152 0.000000 m /two glyphshow
grestore
gsave
254.106563 34.475000 translate
90.000000 rotate
0.000000 0.078125 m /seven glyphshow
3.181152 0.078125 m /zero glyphshow
grestore
gsave
258.640313 34.506250 translate
90.000000 rotate
0.000000 0.078125 m /six glyphshow
3.181152 0.078125 m /seven glyphshow
grestore
gsave
263.095937 34.443750 translate
90.000000 rotate
0.000000 0.000000 m /four glyphshow
3.181152 0.000000 m /one glyphshow
grestore
gsave
267.668750 34.771875 translate
90.000000 rotate
0.000000 0.000000 m /one glyphshow
3.181152 0.000000 m /two glyphshow
grestore
gsave
272.241562 34.412500 translate
90.000000 rotate
0.000000 0.078125 m /six glyphshow
3.181152 0.078125 m /eight glyphshow
grestore
gsave
276.775313 34.537500 translate
90.000000 rotate
0.000000 0.078125 m /seven glyphshow
3.181152 0.078125 m /three glyphshow
grestore
gsave
281.230937 34.412500 translate
90.000000 rotate
0.000000 0.000000 m /four glyphshow
3.181152 0.000000 m /seven glyphshow
grestore
gsave
285.803750 34.537500 translate
90.000000 rotate
0.000000 0.000000 m /two glyphshow
3.181152 0.000000 m /seven glyphshow
grestore
gsave
290.298437 37.928125 translate
90.000000 rotate
0.000000 0.000000 m /one glyphshow
grestore
gsave
294.832188 34.600000 translate
90.000000 rotate
0.000000 0.000000 m /seven glyphshow
3.181152 0.000000 m /one glyphshow
grestore
gsave
299.444062 34.318750 translate
90.000000 rotate
0.000000 0.078125 m /four glyphshow
3.181152 0.078125 m /eight glyphshow
grestore
gsave
303.977813 34.412500 translate
90.000000 rotate
0.000000 0.078125 m /eight glyphshow
3.181152 0.078125 m /zero glyphshow
grestore
gsave
308.511563 34.678125 translate
90.000000 rotate
0.000000 0.078125 m /one glyphshow
3.181152 0.078125 m /three glyphshow
grestore
gsave
313.045313 34.381250 translate
90.000000 rotate
0.000000 0.078125 m /three glyphshow
3.181152 0.078125 m /four glyphshow
grestore
gsave
317.579063 34.537500 translate
90.000000 rotate
0.000000 0.078125 m /six glyphshow
3.181152 0.078125 m /one glyphshow
grestore
gsave
322.112813 34.615625 translate
90.000000 rotate
0.000000 0.078125 m /one glyphshow
3.181152 0.078125 m /zero glyphshow
grestore
gsave
326.607500 34.600000 translate
90.000000 rotate
0.000000 0.000000 m /two glyphshow
3.181152 0.000000 m /two glyphshow
grestore
gsave
331.180313 34.287500 translate
90.000000 rotate
0.000000 0.078125 m /four glyphshow
3.181152 0.078125 m /six glyphshow
grestore
gsave
335.714063 34.506250 translate
90.000000 rotate
0.000000 0.078125 m /six glyphshow
3.181152 0.078125 m /five glyphshow
grestore
gsave
340.247813 34.506250 translate
90.000000 rotate
0.000000 0.078125 m /eight glyphshow
3.181152 0.078125 m /seven glyphshow
grestore
gsave
344.781563 34.600000 translate
90.000000 rotate
0.000000 0.078125 m /three glyphshow
3.181152 0.078125 m /two glyphshow
grestore
gsave
349.315313 34.459375 translate
90.000000 rotate
0.000000 0.078125 m /five glyphshow
3.181152 0.078125 m /eight glyphshow
grestore
gsave
353.849063 37.568750 translate
90.000000 rotate
0.000000 0.078125 m /six glyphshow
grestore
gsave
358.343750 34.709375 translate
90.000000 rotate
0.000000 0.078125 m /one glyphshow
3.181152 0.078125 m /five glyphshow
grestore
gsave
362.916562 34.506250 translate
90.000000 rotate
0.000000 0.078125 m /two glyphshow
3.181152 0.078125 m /three glyphshow
grestore
gsave
367.372187 34.740625 translate
90.000000 rotate
0.000000 0.000000 m /one glyphshow
3.181152 0.000000 m /one glyphshow
grestore
gsave
371.984062 34.396875 translate
90.000000 rotate
0.000000 0.078125 m /nine glyphshow
3.181152 0.078125 m /nine glyphshow
grestore
gsave
376.517812 34.537500 translate
90.000000 rotate
0.000000 0.078125 m /two glyphshow
3.181152 0.078125 m /five glyphshow
grestore
gsave
380.973438 34.568750 translate
90.000000 rotate
0.000000 0.000000 m /seven glyphshow
3.181152 0.000000 m /seven glyphshow
grestore
gsave
385.585313 34.615625 translate
90.000000 rotate
0.000000 0.078125 m /one glyphshow
3.181152 0.078125 m /eight glyphshow
grestore
gsave
390.080000 37.740625 translate
90.000000 rotate
0.000000 0.078125 m /five glyphshow
grestore
gsave
394.574688 34.553125 translate
90.000000 rotate
0.000000 0.000000 m /one glyphshow
3.181152 0.000000 m /four glyphshow
grestore
gsave
399.186563 34.459375 translate
90.000000 rotate
0.000000 0.078125 m /three glyphshow
3.181152 0.078125 m /nine glyphshow
grestore
gsave
403.681250 34.568750 translate
90.000000 rotate
0.000000 0.000000 m /two glyphshow
3.181152 0.000000 m /one glyphshow
grestore
gsave
408.175938 34.709375 translate
90.000000 rotate
0.000000 0.000000 m /one glyphshow
3.181152 0.000000 m /seven glyphshow
grestore
gsave
412.787813 34.318750 translate
90.000000 rotate
0.000000 0.078125 m /nine glyphshow
3.181152 0.078125 m /four glyphshow
grestore
gsave
417.321563 34.475000 translate
90.000000 rotate
0.000000 0.078125 m /eight glyphshow
3.181152 0.078125 m /three glyphshow
grestore
gsave
421.855313 34.568750 translate
90.000000 rotate
0.000000 0.078125 m /three glyphshow
3.181152 0.078125 m /one glyphshow
grestore
gsave
426.389063 34.615625 translate
90.000000 rotate
0.000000 0.078125 m /five glyphshow
3.181152 0.078125 m /two glyphshow
grestore
gsave
430.922813 34.537500 translate
90.000000 rotate
0.000000 0.078125 m /three glyphshow
3.181152 0.078125 m /seven glyphshow
grestore
gsave
435.456563 34.506250 translate
90.000000 rotate
0.000000 0.078125 m /nine glyphshow
3.181152 0.078125 m /one glyphshow
grestore
gsave
439.990313 34.443750 translate
90.000000 rotate
0.000000 0.078125 m /three glyphshow
3.181152 0.078125 m /eight glyphshow
grestore
gsave
444.524063 34.490625 translate
90.000000 rotate
0.000000 0.078125 m /seven glyphshow
3.181152 0.078125 m /nine glyphshow
grestore
gsave
449.057813 34.631250 translate
90.000000 rotate
0.000000 0.078125 m /one glyphshow
3.181152 0.078125 m /nine glyphshow
grestore
gsave
453.591563 34.412500 translate
90.000000 rotate
0.000000 0.078125 m /two glyphshow
3.181152 0.078125 m /six glyphshow
grestore
gsave
458.125313 34.568750 translate
90.000000 rotate
0.000000 0.078125 m /six glyphshow
3.181152 0.078125 m /two glyphshow
grestore
gsave
462.580938 37.443750 translate
90.000000 rotate
0.000000 0.000000 m /four glyphshow
grestore
gsave
467.192813 34.334375 translate
90.000000 rotate
0.000000 0.078125 m /four glyphshow
3.181152 0.078125 m /nine glyphshow
grestore
gsave
471.726562 34.381250 translate
90.000000 rotate
0.000000 0.078125 m /nine glyphshow
3.181152 0.078125 m /zero glyphshow
grestore
gsave
476.260312 34.459375 translate
90.000000 rotate
0.000000 0.078125 m /two glyphshow
3.181152 0.078125 m /nine glyphshow
grestore
gsave
480.794063 34.428125 translate
90.000000 rotate
0.000000 0.078125 m /eight glyphshow
3.181152 0.078125 m /nine glyphshow
grestore
gsave
485.327813 34.475000 translate
90.000000 rotate
0.000000 0.078125 m /seven glyphshow
3.181152 0.078125 m /eight glyphshow
grestore
gsave
489.861563 34.428125 translate
90.000000 rotate
0.000000 0.078125 m /five glyphshow
3.181152 0.078125 m /six glyphshow
grestore
gsave
494.395313 34.443750 translate
90.000000 rotate
0.000000 0.078125 m /two glyphshow
3.181152 0.078125 m /eight glyphshow
grestore
gsave
498.890000 34.412500 translate
90.000000 rotate
0.000000 0.078125 m /four glyphshow
3.181152 0.078125 m /five glyphshow
grestore
gsave
503.462813 34.443750 translate
90.000000 rotate
0.000000 0.078125 m /seven glyphshow
3.181152 0.078125 m /six glyphshow
grestore
gsave
507.957500 34.396875 translate
90.000000 rotate
0.000000 0.078125 m /five glyphshow
3.181152 0.078125 m /four glyphshow
grestore
gsave
512.530313 34.537500 translate
90.000000 rotate
0.000000 0.078125 m /eight glyphshow
3.181152 0.078125 m /one glyphshow
grestore
gsave
517.064063 34.537500 translate
90.000000 rotate
0.000000 0.078125 m /three glyphshow
3.181152 0.078125 m /five glyphshow
grestore
gsave
521.558750 34.553125 translate
90.000000 rotate
0.000000 0.078125 m /five glyphshow
3.181152 0.078125 m /five glyphshow
grestore
gsave
526.092500 34.568750 translate
90.000000 rotate
0.000000 0.078125 m /seven glyphshow
3.181152 0.078125 m /five glyphshow
grestore
0.500 setlinewidth
gsave
/o {
gsave
newpath
translate
0 0 m
4 0 l
stroke
grestore
} bind def
73.125 44.1 o
grestore
gsave
/o {
gsave
newpath
translate
0 0 m
-4 0 l
stroke
grestore
} bind def
526.5 44.1 o
grestore
/BitstreamVeraSans-Roman findfont
12.000 scalefont
setfont
gsave
51.625000 39.560937 translate
0.000000 rotate
0.000000 0.171875 m /zero glyphshow
7.634766 0.171875 m /period glyphshow
11.449219 0.171875 m /zero glyphshow
grestore
gsave
/o {
gsave
newpath
translate
0 0 m
4 0 l
stroke
grestore
} bind def
73.125 111.3 o
grestore
gsave
/o {
gsave
newpath
translate
0 0 m
-4 0 l
stroke
grestore
} bind def
526.5 111.3 o
grestore
gsave
52.031250 106.760938 translate
0.000000 rotate
0.000000 0.171875 m /zero glyphshow
7.634766 0.171875 m /period glyphshow
11.449219 0.171875 m /two glyphshow
grestore
gsave
/o {
gsave
newpath
translate
0 0 m
4 0 l
stroke
grestore
} bind def
73.125 178.5 o
grestore
gsave
/o {
gsave
newpath
translate
0 0 m
-4 0 l
stroke
grestore
} bind def
526.5 178.5 o
grestore
gsave
51.500000 173.960938 translate
0.000000 rotate
0.000000 0.171875 m /zero glyphshow
7.634766 0.171875 m /period glyphshow
11.449219 0.171875 m /four glyphshow
grestore
gsave
/o {
gsave
newpath
translate
0 0 m
4 0 l
stroke
grestore
} bind def
73.125 245.7 o
grestore
gsave
/o {
gsave
newpath
translate
0 0 m
-4 0 l
stroke
grestore
} bind def
526.5 245.7 o
grestore
gsave
51.593750 241.160938 translate
0.000000 rotate
0.000000 0.171875 m /zero glyphshow
7.634766 0.171875 m /period glyphshow
11.449219 0.171875 m /six glyphshow
grestore
gsave
/o {
gsave
newpath
translate
0 0 m
4 0 l
stroke
grestore
} bind def
73.125 312.9 o
grestore
gsave
/o {
gsave
newpath
translate
0 0 m
-4 0 l
stroke
grestore
} bind def
526.5 312.9 o
grestore
gsave
51.656250 308.360938 translate
0.000000 rotate
0.000000 0.171875 m /zero glyphshow
7.634766 0.171875 m /period glyphshow
11.449219 0.171875 m /eight glyphshow
grestore
gsave
/o {
gsave
newpath
translate
0 0 m
4 0 l
stroke
grestore
} bind def
73.125 380.1 o
grestore
gsave
/o {
gsave
newpath
translate
0 0 m
-4 0 l
stroke
grestore
} bind def
526.5 380.1 o
grestore
gsave
52.140625 375.560938 translate
0.000000 rotate
0.000000 0.171875 m /one glyphshow
7.634766 0.171875 m /period glyphshow
11.449219 0.171875 m /zero glyphshow
grestore
1.000 setlinewidth
2 setlinecap
gsave
73.125 396.9 m
526.5 396.9 l
stroke
grestore
gsave
526.5 44.1 m
526.5 396.9 l
stroke
grestore
gsave
73.125 44.1 m
526.5 44.1 l
stroke
grestore
gsave
73.125 44.1 m
73.125 396.9 l
stroke
grestore

end
showpage
