%!PS-Adobe-3.0 EPSF-3.0
%%Title: /home/lboyles/research/polya_hclustering/beta11_sample.eps
%%Creator: matplotlib version 1.0.1, http://matplotlib.sourceforge.net/
%%CreationDate: Fri Jan  6 07:57:33 2012
%%Orientation: portrait
%%BoundingBox: 13 175 598 616
%%EndComments
%%BeginProlog
/mpldict 8 dict def
mpldict begin
/m { moveto } bind def
/l { lineto } bind def
/r { rlineto } bind def
/c { curveto } bind def
/cl { closepath } bind def
/box {
m
1 index 0 r
0 exch r
neg 0 r
cl
} bind def
/clipbox {
box
clip
newpath
} bind def
%!PS-Adobe-3.0 Resource-Font
%%Title: Bitstream Vera Sans
%%Copyright: Copyright (c) 2003 by Bitstream, Inc. All Rights Reserved.
%%Creator: Converted from TrueType to type 3 by PPR
25 dict begin
/_d{bind def}bind def
/_m{moveto}_d
/_l{lineto}_d
/_cl{closepath eofill}_d
/_c{curveto}_d
/_sc{7 -1 roll{setcachedevice}{pop pop pop pop pop pop}ifelse}_d
/_e{exec}_d
/FontName /BitstreamVeraSans-Roman def
/PaintType 0 def
/FontMatrix[.001 0 0 .001 0 0]def
/FontBBox[-182 -235 1287 928]def
/FontType 3 def
/Encoding [ /period /zero /one /two /three /four /five /six /seven /eight /nine ] def
/FontInfo 10 dict dup begin
/FamilyName (Bitstream Vera Sans) def
/FullName (Bitstream Vera Sans) def
/Notice (Copyright (c) 2003 by Bitstream, Inc. All Rights Reserved. Bitstream Vera is a trademark of Bitstream, Inc.) def
/Weight (Roman) def
/Version (Release 1.10) def
/ItalicAngle 0.0 def
/isFixedPitch false def
/UnderlinePosition -213 def
/UnderlineThickness 143 def
end readonly def
/CharStrings 11 dict dup begin
/period{318 0 107 0 210 124 _sc
107 124 _m
210 124 _l
210 0 _l
107 0 _l
107 124 _l
_cl}_d
/zero{636 0 66 -13 570 742 _sc
318 664 _m
267 664 229 639 203 589 _c
177 539 165 464 165 364 _c
165 264 177 189 203 139 _c
229 89 267 64 318 64 _c
369 64 407 89 433 139 _c
458 189 471 264 471 364 _c
471 464 458 539 433 589 _c
407 639 369 664 318 664 _c
318 742 _m
399 742 461 709 505 645 _c
548 580 570 486 570 364 _c
570 241 548 147 505 83 _c
461 19 399 -13 318 -13 _c
236 -13 173 19 130 83 _c
87 147 66 241 66 364 _c
66 486 87 580 130 645 _c
173 709 236 742 318 742 _c
_cl}_d
/one{636 0 110 0 544 729 _sc
124 83 _m
285 83 _l
285 639 _l
110 604 _l
110 694 _l
284 729 _l
383 729 _l
383 83 _l
544 83 _l
544 0 _l
124 0 _l
124 83 _l
_cl}_d
/two{{636 0 73 0 536 742 _sc
192 83 _m
536 83 _l
536 0 _l
73 0 _l
73 83 _l
110 121 161 173 226 239 _c
290 304 331 346 348 365 _c
380 400 402 430 414 455 _c
426 479 433 504 433 528 _c
433 566 419 598 392 622 _c
365 646 330 659 286 659 _c
255 659 222 653 188 643 _c
154 632 117 616 78 594 _c
78 694 _l
118 710 155 722 189 730 _c
223 738 255 742 284 742 _c
359 742 419 723 464 685 _c
509 647 532 597 532 534 _c
532 504 526 475 515 449 _c
504 422 484 390 454 354 _c
446 344 420 317 376 272 _c
332 227 271 164 192 83 _c
_cl}_e}_d
/three{{636 0 76 -13 556 742 _sc
406 393 _m
453 383 490 362 516 330 _c
542 298 556 258 556 212 _c
556 140 531 84 482 45 _c
432 6 362 -13 271 -13 _c
240 -13 208 -10 176 -4 _c
144 1 110 10 76 22 _c
76 117 _l
103 101 133 89 166 81 _c
198 73 232 69 268 69 _c
330 69 377 81 409 105 _c
441 129 458 165 458 212 _c
458 254 443 288 413 312 _c
383 336 341 349 287 349 _c
202 349 _l
202 430 _l
291 430 _l
339 430 376 439 402 459 _c
428 478 441 506 441 543 _c
441 580 427 609 401 629 _c
374 649 336 659 287 659 _c
260 659 231 656 200 650 _c
169 644 135 635 98 623 _c
98 711 _l
135 721 170 729 203 734 _c
235 739 266 742 296 742 _c
}_e{370 742 429 725 473 691 _c
517 657 539 611 539 553 _c
539 513 527 479 504 451 _c
481 423 448 403 406 393 _c
_cl}_e}_d
/four{636 0 49 0 580 729 _sc
378 643 _m
129 254 _l
378 254 _l
378 643 _l
352 729 _m
476 729 _l
476 254 _l
580 254 _l
580 172 _l
476 172 _l
476 0 _l
378 0 _l
378 172 _l
49 172 _l
49 267 _l
352 729 _l
_cl}_d
/five{{636 0 77 -13 549 729 _sc
108 729 _m
495 729 _l
495 646 _l
198 646 _l
198 467 _l
212 472 227 476 241 478 _c
255 480 270 482 284 482 _c
365 482 429 459 477 415 _c
525 370 549 310 549 234 _c
549 155 524 94 475 51 _c
426 8 357 -13 269 -13 _c
238 -13 207 -10 175 -6 _c
143 -1 111 6 77 17 _c
77 116 _l
106 100 136 88 168 80 _c
199 72 232 69 267 69 _c
323 69 368 83 401 113 _c
433 143 450 183 450 234 _c
450 284 433 324 401 354 _c
368 384 323 399 267 399 _c
241 399 214 396 188 390 _c
162 384 135 375 108 363 _c
108 729 _l
_cl}_e}_d
/six{{636 0 70 -13 573 742 _sc
330 404 _m
286 404 251 388 225 358 _c
199 328 186 286 186 234 _c
186 181 199 139 225 109 _c
251 79 286 64 330 64 _c
374 64 409 79 435 109 _c
461 139 474 181 474 234 _c
474 286 461 328 435 358 _c
409 388 374 404 330 404 _c
526 713 _m
526 623 _l
501 635 476 644 451 650 _c
425 656 400 659 376 659 _c
310 659 260 637 226 593 _c
192 549 172 482 168 394 _c
187 422 211 444 240 459 _c
269 474 301 482 336 482 _c
409 482 467 459 509 415 _c
551 371 573 310 573 234 _c
573 159 550 99 506 54 _c
462 9 403 -13 330 -13 _c
246 -13 181 19 137 83 _c
92 147 70 241 70 364 _c
70 479 97 571 152 639 _c
206 707 280 742 372 742 _c
}_e{396 742 421 739 447 735 _c
472 730 498 723 526 713 _c
_cl}_e}_d
/seven{636 0 82 0 551 729 _sc
82 729 _m
551 729 _l
551 687 _l
286 0 _l
183 0 _l
432 646 _l
82 646 _l
82 729 _l
_cl}_d
/eight{{636 0 68 -13 568 742 _sc
318 346 _m
271 346 234 333 207 308 _c
180 283 167 249 167 205 _c
167 161 180 126 207 101 _c
234 76 271 64 318 64 _c
364 64 401 76 428 102 _c
455 127 469 161 469 205 _c
469 249 455 283 429 308 _c
402 333 365 346 318 346 _c
219 388 _m
177 398 144 418 120 447 _c
96 476 85 511 85 553 _c
85 611 105 657 147 691 _c
188 725 245 742 318 742 _c
390 742 447 725 489 691 _c
530 657 551 611 551 553 _c
551 511 539 476 515 447 _c
491 418 459 398 417 388 _c
464 377 501 355 528 323 _c
554 291 568 251 568 205 _c
568 134 546 80 503 43 _c
459 5 398 -13 318 -13 _c
237 -13 175 5 132 43 _c
89 80 68 134 68 205 _c
68 251 81 291 108 323 _c
134 355 171 377 219 388 _c
}_e{183 544 _m
183 506 194 476 218 455 _c
242 434 275 424 318 424 _c
360 424 393 434 417 455 _c
441 476 453 506 453 544 _c
453 582 441 611 417 632 _c
393 653 360 664 318 664 _c
275 664 242 653 218 632 _c
194 611 183 582 183 544 _c
_cl}_e}_d
/nine{{636 0 63 -13 566 742 _sc
110 15 _m
110 105 _l
134 93 159 84 185 78 _c
210 72 235 69 260 69 _c
324 69 374 90 408 134 _c
442 178 462 244 468 334 _c
448 306 424 284 396 269 _c
367 254 335 247 300 247 _c
226 247 168 269 126 313 _c
84 357 63 417 63 494 _c
63 568 85 628 129 674 _c
173 719 232 742 306 742 _c
390 742 455 709 499 645 _c
543 580 566 486 566 364 _c
566 248 538 157 484 89 _c
429 21 356 -13 264 -13 _c
239 -13 214 -10 189 -6 _c
163 -2 137 5 110 15 _c
306 324 _m
350 324 385 339 411 369 _c
437 399 450 441 450 494 _c
450 546 437 588 411 618 _c
385 648 350 664 306 664 _c
262 664 227 648 201 618 _c
175 588 162 546 162 494 _c
}_e{162 441 175 399 201 369 _c
227 339 262 324 306 324 _c
_cl}_e}_d
end readonly def

/BuildGlyph
 {exch begin
 CharStrings exch
 2 copy known not{pop /.notdef}if
 true 3 1 roll get exec
 end}_d

/BuildChar {
 1 index /Encoding get exch get
 1 index /BuildGlyph get exec
}_d

FontName currentdict end definefont pop
end
%%EndProlog
mpldict begin
13.5 175.5 translate
585 441 0 0 clipbox
1.000 setlinewidth
1 setlinejoin
2 setlinecap
[] 0 setdash
1.000 setgray
gsave
0 0 m
585 0 l
585 441 l
0 441 l
cl
gsave
fill
grestore
stroke
grestore
gsave
73.125 44.1 m
526.5 44.1 l
526.5 396.9 l
73.125 396.9 l
cl
fill
grestore
/p0_0 {
newpath
translate
88.9931 44.1 m
88.9931 59.7652 l
93.5269 59.7652 l
93.5269 44.1 l
} bind def
/p0_1 {
newpath
translate
84.4594 44.1 m
84.4594 84.2335 l
91.26 84.2335 l
91.26 59.7652 l
} bind def
/p0_2 {
newpath
translate
79.9256 44.1 m
79.9256 158.561 l
87.8597 158.561 l
87.8597 84.2335 l
} bind def
/p0_3 {
newpath
translate
75.3919 44.1 m
75.3919 189.5 l
83.8927 189.5 l
83.8927 158.561 l
} bind def
0 setlinecap
0.000 0.500 0.000 setrgbcolor
gsave
453.4 352.8 73.12 44.1 clipbox
0 0 p0_0
stroke
grestore
gsave
453.4 352.8 73.12 44.1 clipbox
0 0 p0_1
stroke
grestore
gsave
453.4 352.8 73.12 44.1 clipbox
0 0 p0_2
stroke
grestore
gsave
453.4 352.8 73.12 44.1 clipbox
0 0 p0_3
stroke
grestore
/p1_0 {
newpath
translate
102.594 44.1 m
102.594 52.6725 l
107.128 52.6725 l
107.128 44.1 l
} bind def
/p1_1 {
newpath
translate
104.861 52.6725 m
104.861 53.9396 l
111.662 53.9396 l
111.662 44.1 l
} bind def
/p1_2 {
newpath
translate
98.0606 44.1 m
98.0606 57.7283 l
108.262 57.7283 l
108.262 53.9396 l
} bind def
/p1_3 {
newpath
translate
116.196 44.1 m
116.196 51.1309 l
120.729 51.1309 l
120.729 44.1 l
} bind def
/p1_4 {
newpath
translate
125.263 44.1 m
125.263 66.7582 l
129.797 66.7582 l
129.797 44.1 l
} bind def
/p1_5 {
newpath
translate
118.463 51.1309 m
118.463 90.6633 l
127.53 90.6633 l
127.53 66.7582 l
} bind def
/p1_6 {
newpath
translate
103.161 57.7283 m
103.161 91.012 l
122.996 91.012 l
122.996 90.6633 l
} bind def
/p1_7 {
newpath
translate
138.864 44.1 m
138.864 53.2535 l
143.398 53.2535 l
143.398 44.1 l
} bind def
/p1_8 {
newpath
translate
134.331 44.1 m
134.331 59.2782 l
141.131 59.2782 l
141.131 53.2535 l
} bind def
/p1_9 {
newpath
translate
147.932 44.1 m
147.932 46.7381 l
152.466 46.7381 l
152.466 44.1 l
} bind def
/p1_a {
newpath
translate
156.999 44.1 m
156.999 46.4058 l
161.533 46.4058 l
161.533 44.1 l
} bind def
/p1_b {
newpath
translate
159.266 46.4058 m
159.266 49.9948 l
166.067 49.9948 l
166.067 44.1 l
} bind def
/p1_c {
newpath
translate
150.199 46.7381 m
150.199 50.4993 l
162.667 50.4993 l
162.667 49.9948 l
} bind def
/p1_d {
newpath
translate
156.433 50.4993 m
156.433 53.1309 l
170.601 53.1309 l
170.601 44.1 l
} bind def
/p1_e {
newpath
translate
179.668 44.1 m
179.668 48.8266 l
184.202 48.8266 l
184.202 44.1 l
} bind def
/p1_f {
newpath
translate
175.134 44.1 m
175.134 57.338 l
181.935 57.338 l
181.935 48.8266 l
} bind def
/p1_10 {
newpath
translate
163.517 53.1309 m
163.517 59.0718 l
178.535 59.0718 l
178.535 57.338 l
} bind def
/p1_11 {
newpath
translate
137.731 59.2782 m
137.731 66.2105 l
171.026 66.2105 l
171.026 59.0718 l
} bind def
/p1_12 {
newpath
translate
193.269 44.1 m
193.269 48.963 l
197.803 48.963 l
197.803 44.1 l
} bind def
/p1_13 {
newpath
translate
202.337 44.1 m
202.337 44.3741 l
206.871 44.3741 l
206.871 44.1 l
} bind def
/p1_14 {
newpath
translate
204.604 44.3741 m
204.604 45.7175 l
211.404 45.7175 l
211.404 44.1 l
} bind def
/p1_15 {
newpath
translate
195.536 48.963 m
195.536 49.4255 l
208.004 49.4255 l
208.004 45.7175 l
} bind def
/p1_16 {
newpath
translate
188.736 44.1 m
188.736 51.7842 l
201.77 51.7842 l
201.77 49.4255 l
} bind def
/p1_17 {
newpath
translate
154.378 66.2105 m
154.378 77.8241 l
195.253 77.8241 l
195.253 51.7842 l
} bind def
/p1_18 {
newpath
translate
113.079 91.012 m
113.079 124.674 l
174.816 124.674 l
174.816 77.8241 l
} bind def
/p1_19 {
newpath
translate
215.938 44.1 m
215.938 152.474 l
220.472 152.474 l
220.472 44.1 l
} bind def
/p1_1a {
newpath
translate
143.947 124.674 m
143.947 204.09 l
218.205 204.09 l
218.205 152.474 l
} bind def
1.000 0.000 0.000 setrgbcolor
gsave
453.4 352.8 73.12 44.1 clipbox
0 0 p1_0
stroke
grestore
gsave
453.4 352.8 73.12 44.1 clipbox
0 0 p1_1
stroke
grestore
gsave
453.4 352.8 73.12 44.1 clipbox
0 0 p1_2
stroke
grestore
gsave
453.4 352.8 73.12 44.1 clipbox
0 0 p1_3
stroke
grestore
gsave
453.4 352.8 73.12 44.1 clipbox
0 0 p1_4
stroke
grestore
gsave
453.4 352.8 73.12 44.1 clipbox
0 0 p1_5
stroke
grestore
gsave
453.4 352.8 73.12 44.1 clipbox
0 0 p1_6
stroke
grestore
gsave
453.4 352.8 73.12 44.1 clipbox
0 0 p1_7
stroke
grestore
gsave
453.4 352.8 73.12 44.1 clipbox
0 0 p1_8
stroke
grestore
gsave
453.4 352.8 73.12 44.1 clipbox
0 0 p1_9
stroke
grestore
gsave
453.4 352.8 73.12 44.1 clipbox
0 0 p1_a
stroke
grestore
gsave
453.4 352.8 73.12 44.1 clipbox
0 0 p1_b
stroke
grestore
gsave
453.4 352.8 73.12 44.1 clipbox
0 0 p1_c
stroke
grestore
gsave
453.4 352.8 73.12 44.1 clipbox
0 0 p1_d
stroke
grestore
gsave
453.4 352.8 73.12 44.1 clipbox
0 0 p1_e
stroke
grestore
gsave
453.4 352.8 73.12 44.1 clipbox
0 0 p1_f
stroke
grestore
gsave
453.4 352.8 73.12 44.1 clipbox
0 0 p1_10
stroke
grestore
gsave
453.4 352.8 73.12 44.1 clipbox
0 0 p1_11
stroke
grestore
gsave
453.4 352.8 73.12 44.1 clipbox
0 0 p1_12
stroke
grestore
gsave
453.4 352.8 73.12 44.1 clipbox
0 0 p1_13
stroke
grestore
gsave
453.4 352.8 73.12 44.1 clipbox
0 0 p1_14
stroke
grestore
gsave
453.4 352.8 73.12 44.1 clipbox
0 0 p1_15
stroke
grestore
gsave
453.4 352.8 73.12 44.1 clipbox
0 0 p1_16
stroke
grestore
gsave
453.4 352.8 73.12 44.1 clipbox
0 0 p1_17
stroke
grestore
gsave
453.4 352.8 73.12 44.1 clipbox
0 0 p1_18
stroke
grestore
gsave
453.4 352.8 73.12 44.1 clipbox
0 0 p1_19
stroke
grestore
gsave
453.4 352.8 73.12 44.1 clipbox
0 0 p1_1a
stroke
grestore
/p2_0 {
newpath
translate
225.006 44.1 m
225.006 66.0656 l
229.539 66.0656 l
229.539 44.1 l
} bind def
/p2_1 {
newpath
translate
234.073 44.1 m
234.073 49.2727 l
238.607 49.2727 l
238.607 44.1 l
} bind def
/p2_2 {
newpath
translate
227.273 66.0656 m
227.273 75.1795 l
236.34 75.1795 l
236.34 49.2727 l
} bind def
/p2_3 {
newpath
translate
243.141 44.1 m
243.141 45.7364 l
247.674 45.7364 l
247.674 44.1 l
} bind def
/p2_4 {
newpath
translate
245.407 45.7364 m
245.407 48.3986 l
252.208 48.3986 l
252.208 44.1 l
} bind def
/p2_5 {
newpath
translate
256.742 44.1 m
256.742 47.314 l
261.276 47.314 l
261.276 44.1 l
} bind def
/p2_6 {
newpath
translate
248.808 48.3986 m
248.808 54.5036 l
259.009 54.5036 l
259.009 47.314 l
} bind def
/p2_7 {
newpath
translate
253.908 54.5036 m
253.908 62.2488 l
265.809 62.2488 l
265.809 44.1 l
} bind def
/p2_8 {
newpath
translate
259.859 62.2488 m
259.859 76.6455 l
270.343 76.6455 l
270.343 44.1 l
} bind def
/p2_9 {
newpath
translate
231.806 75.1795 m
231.806 146.17 l
265.101 146.17 l
265.101 76.6455 l
} bind def
0.000 0.750 0.750 setrgbcolor
gsave
453.4 352.8 73.12 44.1 clipbox
0 0 p2_0
stroke
grestore
gsave
453.4 352.8 73.12 44.1 clipbox
0 0 p2_1
stroke
grestore
gsave
453.4 352.8 73.12 44.1 clipbox
0 0 p2_2
stroke
grestore
gsave
453.4 352.8 73.12 44.1 clipbox
0 0 p2_3
stroke
grestore
gsave
453.4 352.8 73.12 44.1 clipbox
0 0 p2_4
stroke
grestore
gsave
453.4 352.8 73.12 44.1 clipbox
0 0 p2_5
stroke
grestore
gsave
453.4 352.8 73.12 44.1 clipbox
0 0 p2_6
stroke
grestore
gsave
453.4 352.8 73.12 44.1 clipbox
0 0 p2_7
stroke
grestore
gsave
453.4 352.8 73.12 44.1 clipbox
0 0 p2_8
stroke
grestore
gsave
453.4 352.8 73.12 44.1 clipbox
0 0 p2_9
stroke
grestore
/p3_0 {
newpath
translate
279.411 44.1 m
279.411 44.2126 l
283.944 44.2126 l
283.944 44.1 l
} bind def
/p3_1 {
newpath
translate
274.877 44.1 m
274.877 44.2255 l
281.678 44.2255 l
281.678 44.2126 l
} bind def
/p3_2 {
newpath
translate
288.478 44.1 m
288.478 45.934 l
293.012 45.934 l
293.012 44.1 l
} bind def
/p3_3 {
newpath
translate
278.277 44.2255 m
278.277 46.2817 l
290.745 46.2817 l
290.745 45.934 l
} bind def
/p3_4 {
newpath
translate
284.511 46.2817 m
284.511 47.9657 l
297.546 47.9657 l
297.546 44.1 l
} bind def
/p3_5 {
newpath
translate
302.079 44.1 m
302.079 44.4868 l
306.613 44.4868 l
306.613 44.1 l
} bind def
/p3_6 {
newpath
translate
311.147 44.1 m
311.147 44.7494 l
315.681 44.7494 l
315.681 44.1 l
} bind def
/p3_7 {
newpath
translate
304.346 44.4868 m
304.346 47.0685 l
313.414 47.0685 l
313.414 44.7494 l
} bind def
/p3_8 {
newpath
translate
320.214 44.1 m
320.214 46.5923 l
324.748 46.5923 l
324.748 44.1 l
} bind def
/p3_9 {
newpath
translate
308.88 47.0685 m
308.88 48.8262 l
322.481 48.8262 l
322.481 46.5923 l
} bind def
/p3_a {
newpath
translate
291.028 47.9657 m
291.028 51.3388 l
315.681 51.3388 l
315.681 48.8262 l
} bind def
/p3_b {
newpath
translate
333.816 44.1 m
333.816 44.8667 l
338.349 44.8667 l
338.349 44.1 l
} bind def
/p3_c {
newpath
translate
347.417 44.1 m
347.417 45.9598 l
351.951 45.9598 l
351.951 44.1 l
} bind def
/p3_d {
newpath
translate
342.883 44.1 m
342.883 46.4353 l
349.684 46.4353 l
349.684 45.9598 l
} bind def
/p3_e {
newpath
translate
336.083 44.8667 m
336.083 46.8551 l
346.283 46.8551 l
346.283 46.4353 l
} bind def
/p3_f {
newpath
translate
329.282 44.1 m
329.282 46.9068 l
341.183 46.9068 l
341.183 46.8551 l
} bind def
/p3_10 {
newpath
translate
356.484 44.1 m
356.484 44.1104 l
361.018 44.1104 l
361.018 44.1 l
} bind def
/p3_11 {
newpath
translate
358.751 44.1104 m
358.751 44.1207 l
365.552 44.1207 l
365.552 44.1 l
} bind def
/p3_12 {
newpath
translate
370.086 44.1 m
370.086 44.1014 l
374.619 44.1014 l
374.619 44.1 l
} bind def
/p3_13 {
newpath
translate
372.353 44.1014 m
372.353 44.1155 l
379.153 44.1155 l
379.153 44.1 l
} bind def
/p3_14 {
newpath
translate
375.753 44.1155 m
375.753 44.1321 l
383.687 44.1321 l
383.687 44.1 l
} bind def
/p3_15 {
newpath
translate
362.152 44.1207 m
362.152 44.1371 l
379.72 44.1371 l
379.72 44.1321 l
} bind def
/p3_16 {
newpath
translate
335.232 46.9068 m
335.232 49.8106 l
370.936 49.8106 l
370.936 44.1371 l
} bind def
/p3_17 {
newpath
translate
353.084 49.8106 m
353.084 51.2136 l
388.221 51.2136 l
388.221 44.1 l
} bind def
/p3_18 {
newpath
translate
392.754 44.1 m
392.754 44.2992 l
397.288 44.2992 l
397.288 44.1 l
} bind def
/p3_19 {
newpath
translate
401.822 44.1 m
401.822 44.255 l
406.356 44.255 l
406.356 44.1 l
} bind def
/p3_1a {
newpath
translate
395.021 44.2992 m
395.021 44.4732 l
404.089 44.4732 l
404.089 44.255 l
} bind def
/p3_1b {
newpath
translate
399.555 44.4732 m
399.555 44.7686 l
410.889 44.7686 l
410.889 44.1 l
} bind def
/p3_1c {
newpath
translate
415.423 44.1 m
415.423 48.7722 l
419.957 48.7722 l
419.957 44.1 l
} bind def
/p3_1d {
newpath
translate
405.222 44.7686 m
405.222 51.3524 l
417.69 51.3524 l
417.69 48.7722 l
} bind def
/p3_1e {
newpath
translate
370.652 51.2136 m
370.652 63.6852 l
411.456 63.6852 l
411.456 51.3524 l
} bind def
/p3_1f {
newpath
translate
303.354 51.3388 m
303.354 68.011 l
391.054 68.011 l
391.054 63.6852 l
} bind def
/p3_20 {
newpath
translate
424.491 44.1 m
424.491 46.2995 l
429.024 46.2995 l
429.024 44.1 l
} bind def
/p3_21 {
newpath
translate
438.092 44.1 m
438.092 45.2272 l
442.626 45.2272 l
442.626 44.1 l
} bind def
/p3_22 {
newpath
translate
433.558 44.1 m
433.558 47.2526 l
440.359 47.2526 l
440.359 45.2272 l
} bind def
/p3_23 {
newpath
translate
447.159 44.1 m
447.159 44.6775 l
451.693 44.6775 l
451.693 44.1 l
} bind def
/p3_24 {
newpath
translate
436.958 47.2526 m
436.958 56.7281 l
449.426 56.7281 l
449.426 44.6775 l
} bind def
/p3_25 {
newpath
translate
426.758 46.2995 m
426.758 58.7772 l
443.192 58.7772 l
443.192 56.7281 l
} bind def
/p3_26 {
newpath
translate
347.204 68.011 m
347.204 87.0979 l
434.975 87.0979 l
434.975 58.7772 l
} bind def
/p3_27 {
newpath
translate
456.227 44.1 m
456.227 46.7108 l
460.761 46.7108 l
460.761 44.1 l
} bind def
/p3_28 {
newpath
translate
458.494 46.7108 m
458.494 62.9229 l
465.294 62.9229 l
465.294 44.1 l
} bind def
/p3_29 {
newpath
translate
461.894 62.9229 m
461.894 78.2067 l
469.828 78.2067 l
469.828 44.1 l
} bind def
/p3_2a {
newpath
translate
478.896 44.1 m
478.896 64.4549 l
483.429 64.4549 l
483.429 44.1 l
} bind def
/p3_2b {
newpath
translate
474.362 44.1 m
474.362 100.979 l
481.163 100.979 l
481.163 64.4549 l
} bind def
/p3_2c {
newpath
translate
465.861 78.2067 m
465.861 119.602 l
477.762 119.602 l
477.762 100.979 l
} bind def
/p3_2d {
newpath
translate
391.09 87.0979 m
391.09 138.905 l
471.812 138.905 l
471.812 119.602 l
} bind def
/p3_2e {
newpath
translate
492.497 44.1 m
492.497 44.1181 l
497.031 44.1181 l
497.031 44.1 l
} bind def
/p3_2f {
newpath
translate
487.963 44.1 m
487.963 44.2602 l
494.764 44.2602 l
494.764 44.1181 l
} bind def
/p3_30 {
newpath
translate
491.363 44.2602 m
491.363 44.5206 l
501.564 44.5206 l
501.564 44.1 l
} bind def
/p3_31 {
newpath
translate
496.464 44.5206 m
496.464 44.566 l
506.098 44.566 l
506.098 44.1 l
} bind def
/p3_32 {
newpath
translate
510.632 44.1 m
510.632 44.3323 l
515.166 44.3323 l
515.166 44.1 l
} bind def
/p3_33 {
newpath
translate
501.281 44.566 m
501.281 47.2934 l
512.899 47.2934 l
512.899 44.3323 l
} bind def
/p3_34 {
newpath
translate
519.699 44.1 m
519.699 50.0549 l
524.233 50.0549 l
524.233 44.1 l
} bind def
/p3_35 {
newpath
translate
507.09 47.2934 m
507.09 87.7666 l
521.966 87.7666 l
521.966 50.0549 l
} bind def
/p3_36 {
newpath
translate
431.451 138.905 m
431.451 162.63 l
514.528 162.63 l
514.528 87.7666 l
} bind def
0.750 0.000 0.750 setrgbcolor
gsave
453.4 352.8 73.12 44.1 clipbox
0 0 p3_0
stroke
grestore
gsave
453.4 352.8 73.12 44.1 clipbox
0 0 p3_1
stroke
grestore
gsave
453.4 352.8 73.12 44.1 clipbox
0 0 p3_2
stroke
grestore
gsave
453.4 352.8 73.12 44.1 clipbox
0 0 p3_3
stroke
grestore
gsave
453.4 352.8 73.12 44.1 clipbox
0 0 p3_4
stroke
grestore
gsave
453.4 352.8 73.12 44.1 clipbox
0 0 p3_5
stroke
grestore
gsave
453.4 352.8 73.12 44.1 clipbox
0 0 p3_6
stroke
grestore
gsave
453.4 352.8 73.12 44.1 clipbox
0 0 p3_7
stroke
grestore
gsave
453.4 352.8 73.12 44.1 clipbox
0 0 p3_8
stroke
grestore
gsave
453.4 352.8 73.12 44.1 clipbox
0 0 p3_9
stroke
grestore
gsave
453.4 352.8 73.12 44.1 clipbox
0 0 p3_a
stroke
grestore
gsave
453.4 352.8 73.12 44.1 clipbox
0 0 p3_b
stroke
grestore
gsave
453.4 352.8 73.12 44.1 clipbox
0 0 p3_c
stroke
grestore
gsave
453.4 352.8 73.12 44.1 clipbox
0 0 p3_d
stroke
grestore
gsave
453.4 352.8 73.12 44.1 clipbox
0 0 p3_e
stroke
grestore
gsave
453.4 352.8 73.12 44.1 clipbox
0 0 p3_f
stroke
grestore
gsave
453.4 352.8 73.12 44.1 clipbox
0 0 p3_10
stroke
grestore
gsave
453.4 352.8 73.12 44.1 clipbox
0 0 p3_11
stroke
grestore
gsave
453.4 352.8 73.12 44.1 clipbox
0 0 p3_12
stroke
grestore
gsave
453.4 352.8 73.12 44.1 clipbox
0 0 p3_13
stroke
grestore
gsave
453.4 352.8 73.12 44.1 clipbox
0 0 p3_14
stroke
grestore
gsave
453.4 352.8 73.12 44.1 clipbox
0 0 p3_15
stroke
grestore
gsave
453.4 352.8 73.12 44.1 clipbox
0 0 p3_16
stroke
grestore
gsave
453.4 352.8 73.12 44.1 clipbox
0 0 p3_17
stroke
grestore
gsave
453.4 352.8 73.12 44.1 clipbox
0 0 p3_18
stroke
grestore
gsave
453.4 352.8 73.12 44.1 clipbox
0 0 p3_19
stroke
grestore
gsave
453.4 352.8 73.12 44.1 clipbox
0 0 p3_1a
stroke
grestore
gsave
453.4 352.8 73.12 44.1 clipbox
0 0 p3_1b
stroke
grestore
gsave
453.4 352.8 73.12 44.1 clipbox
0 0 p3_1c
stroke
grestore
gsave
453.4 352.8 73.12 44.1 clipbox
0 0 p3_1d
stroke
grestore
gsave
453.4 352.8 73.12 44.1 clipbox
0 0 p3_1e
stroke
grestore
gsave
453.4 352.8 73.12 44.1 clipbox
0 0 p3_1f
stroke
grestore
gsave
453.4 352.8 73.12 44.1 clipbox
0 0 p3_20
stroke
grestore
gsave
453.4 352.8 73.12 44.1 clipbox
0 0 p3_21
stroke
grestore
gsave
453.4 352.8 73.12 44.1 clipbox
0 0 p3_22
stroke
grestore
gsave
453.4 352.8 73.12 44.1 clipbox
0 0 p3_23
stroke
grestore
gsave
453.4 352.8 73.12 44.1 clipbox
0 0 p3_24
stroke
grestore
gsave
453.4 352.8 73.12 44.1 clipbox
0 0 p3_25
stroke
grestore
gsave
453.4 352.8 73.12 44.1 clipbox
0 0 p3_26
stroke
grestore
gsave
453.4 352.8 73.12 44.1 clipbox
0 0 p3_27
stroke
grestore
gsave
453.4 352.8 73.12 44.1 clipbox
0 0 p3_28
stroke
grestore
gsave
453.4 352.8 73.12 44.1 clipbox
0 0 p3_29
stroke
grestore
gsave
453.4 352.8 73.12 44.1 clipbox
0 0 p3_2a
stroke
grestore
gsave
453.4 352.8 73.12 44.1 clipbox
0 0 p3_2b
stroke
grestore
gsave
453.4 352.8 73.12 44.1 clipbox
0 0 p3_2c
stroke
grestore
gsave
453.4 352.8 73.12 44.1 clipbox
0 0 p3_2d
stroke
grestore
gsave
453.4 352.8 73.12 44.1 clipbox
0 0 p3_2e
stroke
grestore
gsave
453.4 352.8 73.12 44.1 clipbox
0 0 p3_2f
stroke
grestore
gsave
453.4 352.8 73.12 44.1 clipbox
0 0 p3_30
stroke
grestore
gsave
453.4 352.8 73.12 44.1 clipbox
0 0 p3_31
stroke
grestore
gsave
453.4 352.8 73.12 44.1 clipbox
0 0 p3_32
stroke
grestore
gsave
453.4 352.8 73.12 44.1 clipbox
0 0 p3_33
stroke
grestore
gsave
453.4 352.8 73.12 44.1 clipbox
0 0 p3_34
stroke
grestore
gsave
453.4 352.8 73.12 44.1 clipbox
0 0 p3_35
stroke
grestore
gsave
453.4 352.8 73.12 44.1 clipbox
0 0 p3_36
stroke
grestore
/p4_0 {
newpath
translate
181.076 204.09 m
181.076 313.907 l
248.454 313.907 l
248.454 146.17 l
} bind def
/p4_1 {
newpath
translate
214.765 313.907 m
214.765 341.803 l
472.989 341.803 l
472.989 162.63 l
} bind def
/p4_2 {
newpath
translate
79.6423 189.5 m
79.6423 380.1 l
343.877 380.1 l
343.877 341.803 l
} bind def
0.000 0.000 1.000 setrgbcolor
gsave
453.4 352.8 73.12 44.1 clipbox
0 0 p4_0
stroke
grestore
gsave
453.4 352.8 73.12 44.1 clipbox
0 0 p4_1
stroke
grestore
gsave
453.4 352.8 73.12 44.1 clipbox
0 0 p4_2
stroke
grestore
0.000 setgray
/BitstreamVeraSans-Roman findfont
5.000 scalefont
setfont
gsave
77.212187 34.568750 translate
90.000000 rotate
0.000000 0.000000 m /seven glyphshow
3.181152 0.000000 m /seven glyphshow
grestore
gsave
81.824062 34.506250 translate
90.000000 rotate
0.000000 0.078125 m /three glyphshow
3.181152 0.078125 m /three glyphshow
grestore
gsave
86.357812 34.428125 translate
90.000000 rotate
0.000000 0.078125 m /six glyphshow
3.181152 0.078125 m /nine glyphshow
grestore
gsave
90.891563 34.334375 translate
90.000000 rotate
0.000000 0.078125 m /four glyphshow
3.181152 0.078125 m /nine glyphshow
grestore
gsave
95.347188 34.412500 translate
90.000000 rotate
0.000000 0.000000 m /four glyphshow
3.181152 0.000000 m /seven glyphshow
grestore
gsave
99.959063 34.350000 translate
90.000000 rotate
0.000000 0.078125 m /six glyphshow
3.181152 0.078125 m /four glyphshow
grestore
gsave
104.492812 34.381250 translate
90.000000 rotate
0.000000 0.078125 m /three glyphshow
3.181152 0.078125 m /four glyphshow
grestore
gsave
108.948438 37.756250 translate
90.000000 rotate
0.000000 0.000000 m /seven glyphshow
grestore
gsave
113.521250 34.396875 translate
90.000000 rotate
0.000000 0.078125 m /five glyphshow
3.181152 0.078125 m /four glyphshow
grestore
gsave
118.094063 34.506250 translate
90.000000 rotate
0.000000 0.078125 m /eight glyphshow
3.181152 0.078125 m /five glyphshow
grestore
gsave
122.549688 34.256250 translate
90.000000 rotate
0.000000 0.000000 m /four glyphshow
3.181152 0.000000 m /four glyphshow
grestore
gsave
127.161563 37.693750 translate
90.000000 rotate
0.000000 0.078125 m /three glyphshow
grestore
gsave
131.695312 34.506250 translate
90.000000 rotate
0.000000 0.078125 m /six glyphshow
3.181152 0.078125 m /five glyphshow
grestore
gsave
136.229062 34.521875 translate
90.000000 rotate
0.000000 0.078125 m /five glyphshow
3.181152 0.078125 m /three glyphshow
grestore
gsave
140.762812 34.537500 translate
90.000000 rotate
0.000000 0.078125 m /six glyphshow
3.181152 0.078125 m /one glyphshow
grestore
gsave
145.296562 34.506250 translate
90.000000 rotate
0.000000 0.078125 m /two glyphshow
3.181152 0.078125 m /three glyphshow
grestore
gsave
149.830312 34.568750 translate
90.000000 rotate
0.000000 0.078125 m /three glyphshow
3.181152 0.078125 m /one glyphshow
grestore
gsave
154.364062 34.537500 translate
90.000000 rotate
0.000000 0.078125 m /three glyphshow
3.181152 0.078125 m /seven glyphshow
grestore
gsave
158.897812 34.318750 translate
90.000000 rotate
0.000000 0.078125 m /nine glyphshow
3.181152 0.078125 m /four glyphshow
grestore
gsave
163.431563 34.475000 translate
90.000000 rotate
0.000000 0.078125 m /five glyphshow
3.181152 0.078125 m /nine glyphshow
grestore
gsave
167.965313 34.412500 translate
90.000000 rotate
0.000000 0.078125 m /eight glyphshow
3.181152 0.078125 m /zero glyphshow
grestore
gsave
172.499063 34.381250 translate
90.000000 rotate
0.000000 0.078125 m /nine glyphshow
3.181152 0.078125 m /eight glyphshow
grestore
gsave
176.993750 34.381250 translate
90.000000 rotate
0.000000 0.000000 m /two glyphshow
3.181152 0.000000 m /four glyphshow
grestore
gsave
181.566563 34.490625 translate
90.000000 rotate
0.000000 0.078125 m /seven glyphshow
3.181152 0.078125 m /nine glyphshow
grestore
gsave
186.100313 37.568750 translate
90.000000 rotate
0.000000 0.078125 m /six glyphshow
grestore
gsave
190.634063 34.443750 translate
90.000000 rotate
0.000000 0.078125 m /three glyphshow
3.181152 0.078125 m /eight glyphshow
grestore
gsave
195.167813 34.631250 translate
90.000000 rotate
0.000000 0.078125 m /one glyphshow
3.181152 0.078125 m /nine glyphshow
grestore
gsave
199.701563 34.475000 translate
90.000000 rotate
0.000000 0.078125 m /six glyphshow
3.181152 0.078125 m /three glyphshow
grestore
gsave
204.196250 34.584375 translate
90.000000 rotate
0.000000 0.078125 m /five glyphshow
3.181152 0.078125 m /one glyphshow
grestore
gsave
208.769063 34.428125 translate
90.000000 rotate
0.000000 0.078125 m /five glyphshow
3.181152 0.078125 m /six glyphshow
grestore
gsave
213.302813 34.475000 translate
90.000000 rotate
0.000000 0.078125 m /seven glyphshow
3.181152 0.078125 m /eight glyphshow
grestore
gsave
217.836563 34.381250 translate
90.000000 rotate
0.000000 0.078125 m /four glyphshow
3.181152 0.078125 m /three glyphshow
grestore
gsave
222.370313 34.615625 translate
90.000000 rotate
0.000000 0.078125 m /one glyphshow
3.181152 0.078125 m /eight glyphshow
grestore
gsave
226.904063 34.428125 translate
90.000000 rotate
0.000000 0.078125 m /eight glyphshow
3.181152 0.078125 m /nine glyphshow
grestore
gsave
231.437813 37.584375 translate
90.000000 rotate
0.000000 0.078125 m /zero glyphshow
grestore
gsave
235.893438 37.443750 translate
90.000000 rotate
0.000000 0.000000 m /four glyphshow
grestore
gsave
240.427188 37.928125 translate
90.000000 rotate
0.000000 0.000000 m /one glyphshow
grestore
gsave
245.039062 34.459375 translate
90.000000 rotate
0.000000 0.078125 m /two glyphshow
3.181152 0.078125 m /nine glyphshow
grestore
gsave
249.572812 34.381250 translate
90.000000 rotate
0.000000 0.078125 m /nine glyphshow
3.181152 0.078125 m /zero glyphshow
grestore
gsave
254.106563 34.475000 translate
90.000000 rotate
0.000000 0.078125 m /eight glyphshow
3.181152 0.078125 m /three glyphshow
grestore
gsave
258.640313 37.600000 translate
90.000000 rotate
0.000000 0.078125 m /eight glyphshow
grestore
gsave
263.174062 34.459375 translate
90.000000 rotate
0.000000 0.078125 m /five glyphshow
3.181152 0.078125 m /zero glyphshow
grestore
gsave
267.707813 34.412500 translate
90.000000 rotate
0.000000 0.078125 m /three glyphshow
3.181152 0.078125 m /six glyphshow
grestore
gsave
272.241562 34.350000 translate
90.000000 rotate
0.000000 0.078125 m /eight glyphshow
3.181152 0.078125 m /four glyphshow
grestore
gsave
276.736250 34.709375 translate
90.000000 rotate
0.000000 0.078125 m /one glyphshow
3.181152 0.078125 m /five glyphshow
grestore
gsave
281.309062 34.615625 translate
90.000000 rotate
0.000000 0.078125 m /five glyphshow
3.181152 0.078125 m /two glyphshow
grestore
gsave
285.842813 34.537500 translate
90.000000 rotate
0.000000 0.078125 m /eight glyphshow
3.181152 0.078125 m /one glyphshow
grestore
gsave
290.376562 34.318750 translate
90.000000 rotate
0.000000 0.078125 m /four glyphshow
3.181152 0.078125 m /zero glyphshow
grestore
gsave
294.910313 34.287500 translate
90.000000 rotate
0.000000 0.078125 m /four glyphshow
3.181152 0.078125 m /six glyphshow
grestore
gsave
299.444062 34.475000 translate
90.000000 rotate
0.000000 0.078125 m /seven glyphshow
3.181152 0.078125 m /zero glyphshow
grestore
gsave
303.977813 34.506250 translate
90.000000 rotate
0.000000 0.078125 m /six glyphshow
3.181152 0.078125 m /seven glyphshow
grestore
gsave
308.511563 34.396875 translate
90.000000 rotate
0.000000 0.078125 m /nine glyphshow
3.181152 0.078125 m /nine glyphshow
grestore
gsave
313.045313 34.350000 translate
90.000000 rotate
0.000000 0.078125 m /nine glyphshow
3.181152 0.078125 m /six glyphshow
grestore
gsave
317.579063 34.381250 translate
90.000000 rotate
0.000000 0.078125 m /eight glyphshow
3.181152 0.078125 m /six glyphshow
grestore
gsave
322.112813 37.584375 translate
90.000000 rotate
0.000000 0.078125 m /nine glyphshow
grestore
gsave
326.646563 34.459375 translate
90.000000 rotate
0.000000 0.078125 m /three glyphshow
3.181152 0.078125 m /nine glyphshow
grestore
gsave
331.102188 34.709375 translate
90.000000 rotate
0.000000 0.000000 m /one glyphshow
3.181152 0.000000 m /seven glyphshow
grestore
gsave
335.714063 34.506250 translate
90.000000 rotate
0.000000 0.078125 m /nine glyphshow
3.181152 0.078125 m /one glyphshow
grestore
gsave
340.247813 34.678125 translate
90.000000 rotate
0.000000 0.078125 m /one glyphshow
3.181152 0.078125 m /three glyphshow
grestore
gsave
344.781563 34.615625 translate
90.000000 rotate
0.000000 0.078125 m /one glyphshow
3.181152 0.078125 m /zero glyphshow
grestore
gsave
349.276250 34.553125 translate
90.000000 rotate
0.000000 0.078125 m /five glyphshow
3.181152 0.078125 m /five glyphshow
grestore
gsave
353.849063 34.537500 translate
90.000000 rotate
0.000000 0.078125 m /nine glyphshow
3.181152 0.078125 m /two glyphshow
grestore
gsave
358.382812 34.381250 translate
90.000000 rotate
0.000000 0.078125 m /six glyphshow
3.181152 0.078125 m /six glyphshow
grestore
gsave
362.877500 34.771875 translate
90.000000 rotate
0.000000 0.000000 m /one glyphshow
3.181152 0.000000 m /two glyphshow
grestore
gsave
367.411250 34.568750 translate
90.000000 rotate
0.000000 0.078125 m /seven glyphshow
3.181152 0.078125 m /five glyphshow
grestore
gsave
371.984062 34.412500 translate
90.000000 rotate
0.000000 0.078125 m /six glyphshow
3.181152 0.078125 m /eight glyphshow
grestore
gsave
376.478750 34.600000 translate
90.000000 rotate
0.000000 0.000000 m /two glyphshow
3.181152 0.000000 m /two glyphshow
grestore
gsave
380.973438 34.740625 translate
90.000000 rotate
0.000000 0.000000 m /one glyphshow
3.181152 0.000000 m /one glyphshow
grestore
gsave
385.585313 34.443750 translate
90.000000 rotate
0.000000 0.078125 m /two glyphshow
3.181152 0.078125 m /eight glyphshow
grestore
gsave
390.119063 34.443750 translate
90.000000 rotate
0.000000 0.078125 m /two glyphshow
3.181152 0.078125 m /zero glyphshow
grestore
gsave
394.613750 34.475000 translate
90.000000 rotate
0.000000 0.000000 m /four glyphshow
3.181152 0.000000 m /two glyphshow
grestore
gsave
399.108438 34.443750 translate
90.000000 rotate
0.000000 0.000000 m /four glyphshow
3.181152 0.000000 m /one glyphshow
grestore
gsave
403.720313 34.506250 translate
90.000000 rotate
0.000000 0.078125 m /eight glyphshow
3.181152 0.078125 m /seven glyphshow
grestore
gsave
408.215000 34.631250 translate
90.000000 rotate
0.000000 0.000000 m /seven glyphshow
3.181152 0.000000 m /two glyphshow
grestore
gsave
412.787813 34.443750 translate
90.000000 rotate
0.000000 0.078125 m /seven glyphshow
3.181152 0.078125 m /six glyphshow
grestore
gsave
417.321563 34.568750 translate
90.000000 rotate
0.000000 0.078125 m /eight glyphshow
3.181152 0.078125 m /two glyphshow
grestore
gsave
421.855313 34.568750 translate
90.000000 rotate
0.000000 0.078125 m /six glyphshow
3.181152 0.078125 m /two glyphshow
grestore
gsave
426.310938 34.412500 translate
90.000000 rotate
0.000000 0.000000 m /seven glyphshow
3.181152 0.000000 m /four glyphshow
grestore
gsave
430.922813 34.412500 translate
90.000000 rotate
0.000000 0.078125 m /two glyphshow
3.181152 0.078125 m /six glyphshow
grestore
gsave
435.456563 34.537500 translate
90.000000 rotate
0.000000 0.078125 m /two glyphshow
3.181152 0.078125 m /five glyphshow
grestore
gsave
439.990313 34.584375 translate
90.000000 rotate
0.000000 0.078125 m /one glyphshow
3.181152 0.078125 m /six glyphshow
grestore
gsave
444.524063 34.537500 translate
90.000000 rotate
0.000000 0.078125 m /seven glyphshow
3.181152 0.078125 m /three glyphshow
grestore
gsave
449.018750 34.553125 translate
90.000000 rotate
0.000000 0.078125 m /five glyphshow
3.181152 0.078125 m /seven glyphshow
grestore
gsave
453.591563 34.443750 translate
90.000000 rotate
0.000000 0.078125 m /three glyphshow
3.181152 0.078125 m /zero glyphshow
grestore
gsave
458.047188 34.600000 translate
90.000000 rotate
0.000000 0.000000 m /seven glyphshow
3.181152 0.000000 m /one glyphshow
grestore
gsave
462.620000 37.740625 translate
90.000000 rotate
0.000000 0.078125 m /five glyphshow
grestore
gsave
467.153750 34.537500 translate
90.000000 rotate
0.000000 0.000000 m /two glyphshow
3.181152 0.000000 m /seven glyphshow
grestore
gsave
471.726562 34.443750 translate
90.000000 rotate
0.000000 0.078125 m /nine glyphshow
3.181152 0.078125 m /three glyphshow
grestore
gsave
476.182187 34.553125 translate
90.000000 rotate
0.000000 0.000000 m /one glyphshow
3.181152 0.000000 m /four glyphshow
grestore
gsave
480.794063 34.318750 translate
90.000000 rotate
0.000000 0.078125 m /four glyphshow
3.181152 0.078125 m /eight glyphshow
grestore
gsave
485.327813 34.412500 translate
90.000000 rotate
0.000000 0.078125 m /eight glyphshow
3.181152 0.078125 m /eight glyphshow
grestore
gsave
489.861563 34.475000 translate
90.000000 rotate
0.000000 0.078125 m /nine glyphshow
3.181152 0.078125 m /seven glyphshow
grestore
gsave
494.395313 34.537500 translate
90.000000 rotate
0.000000 0.078125 m /three glyphshow
3.181152 0.078125 m /five glyphshow
grestore
gsave
498.929063 34.459375 translate
90.000000 rotate
0.000000 0.078125 m /five glyphshow
3.181152 0.078125 m /eight glyphshow
grestore
gsave
503.423750 34.412500 translate
90.000000 rotate
0.000000 0.078125 m /four glyphshow
3.181152 0.078125 m /five glyphshow
grestore
gsave
507.996563 34.475000 translate
90.000000 rotate
0.000000 0.078125 m /nine glyphshow
3.181152 0.078125 m /five glyphshow
grestore
gsave
512.530313 34.412500 translate
90.000000 rotate
0.000000 0.078125 m /six glyphshow
3.181152 0.078125 m /zero glyphshow
grestore
gsave
517.064063 34.600000 translate
90.000000 rotate
0.000000 0.078125 m /three glyphshow
3.181152 0.078125 m /two glyphshow
grestore
gsave
521.558750 37.787500 translate
90.000000 rotate
0.000000 0.000000 m /two glyphshow
grestore
gsave
526.092500 34.568750 translate
90.000000 rotate
0.000000 0.000000 m /two glyphshow
3.181152 0.000000 m /one glyphshow
grestore
0.500 setlinewidth
gsave
/o {
gsave
newpath
translate
0 0 m
4 0 l
stroke
grestore
} bind def
73.125 44.1 o
grestore
gsave
/o {
gsave
newpath
translate
0 0 m
-4 0 l
stroke
grestore
} bind def
526.5 44.1 o
grestore
/BitstreamVeraSans-Roman findfont
12.000 scalefont
setfont
gsave
51.625000 39.560937 translate
0.000000 rotate
0.000000 0.171875 m /zero glyphshow
7.634766 0.171875 m /period glyphshow
11.449219 0.171875 m /zero glyphshow
grestore
gsave
/o {
gsave
newpath
translate
0 0 m
4 0 l
stroke
grestore
} bind def
73.125 111.3 o
grestore
gsave
/o {
gsave
newpath
translate
0 0 m
-4 0 l
stroke
grestore
} bind def
526.5 111.3 o
grestore
gsave
52.031250 106.760938 translate
0.000000 rotate
0.000000 0.171875 m /zero glyphshow
7.634766 0.171875 m /period glyphshow
11.449219 0.171875 m /two glyphshow
grestore
gsave
/o {
gsave
newpath
translate
0 0 m
4 0 l
stroke
grestore
} bind def
73.125 178.5 o
grestore
gsave
/o {
gsave
newpath
translate
0 0 m
-4 0 l
stroke
grestore
} bind def
526.5 178.5 o
grestore
gsave
51.500000 173.960938 translate
0.000000 rotate
0.000000 0.171875 m /zero glyphshow
7.634766 0.171875 m /period glyphshow
11.449219 0.171875 m /four glyphshow
grestore
gsave
/o {
gsave
newpath
translate
0 0 m
4 0 l
stroke
grestore
} bind def
73.125 245.7 o
grestore
gsave
/o {
gsave
newpath
translate
0 0 m
-4 0 l
stroke
grestore
} bind def
526.5 245.7 o
grestore
gsave
51.593750 241.160938 translate
0.000000 rotate
0.000000 0.171875 m /zero glyphshow
7.634766 0.171875 m /period glyphshow
11.449219 0.171875 m /six glyphshow
grestore
gsave
/o {
gsave
newpath
translate
0 0 m
4 0 l
stroke
grestore
} bind def
73.125 312.9 o
grestore
gsave
/o {
gsave
newpath
translate
0 0 m
-4 0 l
stroke
grestore
} bind def
526.5 312.9 o
grestore
gsave
51.656250 308.360938 translate
0.000000 rotate
0.000000 0.171875 m /zero glyphshow
7.634766 0.171875 m /period glyphshow
11.449219 0.171875 m /eight glyphshow
grestore
gsave
/o {
gsave
newpath
translate
0 0 m
4 0 l
stroke
grestore
} bind def
73.125 380.1 o
grestore
gsave
/o {
gsave
newpath
translate
0 0 m
-4 0 l
stroke
grestore
} bind def
526.5 380.1 o
grestore
gsave
52.140625 375.560938 translate
0.000000 rotate
0.000000 0.171875 m /one glyphshow
7.634766 0.171875 m /period glyphshow
11.449219 0.171875 m /zero glyphshow
grestore
1.000 setlinewidth
2 setlinecap
gsave
73.125 396.9 m
526.5 396.9 l
stroke
grestore
gsave
526.5 44.1 m
526.5 396.9 l
stroke
grestore
gsave
73.125 44.1 m
526.5 44.1 l
stroke
grestore
gsave
73.125 44.1 m
73.125 396.9 l
stroke
grestore

end
showpage
