%!PS-Adobe-3.0 EPSF-3.0
%%Creator: cairo 1.10.2 (http://cairographics.org)
%%CreationDate: Tue May 22 14:45:36 2012
%%Pages: 1
%%BoundingBox: 0 -1 1244 178
%%DocumentData: Clean7Bit
%%LanguageLevel: 2
%%EndComments
%%BeginProlog
/cairo_eps_state save def
/dict_count countdictstack def
/op_count count 1 sub def
userdict begin
/q { gsave } bind def
/Q { grestore } bind def
/cm { 6 array astore concat } bind def
/w { setlinewidth } bind def
/J { setlinecap } bind def
/j { setlinejoin } bind def
/M { setmiterlimit } bind def
/d { setdash } bind def
/m { moveto } bind def
/l { lineto } bind def
/c { curveto } bind def
/h { closepath } bind def
/re { exch dup neg 3 1 roll 5 3 roll moveto 0 rlineto
      0 exch rlineto 0 rlineto closepath } bind def
/S { stroke } bind def
/f { fill } bind def
/f* { eofill } bind def
/n { newpath } bind def
/W { clip } bind def
/W* { eoclip } bind def
/BT { } bind def
/ET { } bind def
/pdfmark where { pop globaldict /?pdfmark /exec load put }
    { globaldict begin /?pdfmark /pop load def /pdfmark
    /cleartomark load def end } ifelse
/BDC { mark 3 1 roll /BDC pdfmark } bind def
/EMC { mark /EMC pdfmark } bind def
/cairo_store_point { /cairo_point_y exch def /cairo_point_x exch def } def
/Tj { show currentpoint cairo_store_point } bind def
/TJ {
  {
    dup
    type /stringtype eq
    { show } { -0.001 mul 0 cairo_font_matrix dtransform rmoveto } ifelse
  } forall
  currentpoint cairo_store_point
} bind def
/cairo_selectfont { cairo_font_matrix aload pop pop pop 0 0 6 array astore
    cairo_font exch selectfont cairo_point_x cairo_point_y moveto } bind def
/Tf { pop /cairo_font exch def /cairo_font_matrix where
      { pop cairo_selectfont } if } bind def
/Td { matrix translate cairo_font_matrix matrix concatmatrix dup
      /cairo_font_matrix exch def dup 4 get exch 5 get cairo_store_point
      /cairo_font where { pop cairo_selectfont } if } bind def
/Tm { 2 copy 8 2 roll 6 array astore /cairo_font_matrix exch def
      cairo_store_point /cairo_font where { pop cairo_selectfont } if } bind def
/g { setgray } bind def
/rg { setrgbcolor } bind def
/d1 { setcachedevice } bind def
%%EndProlog
%%Page: 1 1
%%BeginPageSetup
%%PageBoundingBox: 0 -1 1244 178
%%EndPageSetup
q 0 -1 1244 179 rectclip q
Q q
0 177.325 1244 -178 re W n
q
0 177.325 1243 -177 re W n
[ 1 0 0 1 0 -0.675003 ] concat
  q
Q q
0.811765 0.886275 0.952941 rg
0.793 17.871 m 0.793 17.871 l 0.793 26.23 7.566 33.004 15.926 33.004 c 
19.938 33.004 23.785 31.41 26.625 28.57 c 29.461 25.734 31.055 21.887 
31.055 17.871 c 31.055 9.516 24.281 2.742 15.926 2.742 c 7.566 2.742 
0.793 9.516 0.793 17.871 c h
0.793 17.871 m f
0 g
1.6 w
0 J
1 j
[] 0.0 d
10 M q 1 0 0 -1 0 178 cm
0.793 160.129 m 0.793 151.77 7.566 144.996 15.926 144.996 c 19.938 
144.996 23.785 146.59 26.625 149.43 c 29.461 152.266 31.055 156.113 
31.055 160.129 c 31.055 168.484 24.281 175.258 15.926 175.258 c 7.566 
175.258 0.793 168.484 0.793 160.129 c h
0.793 160.129 m S Q
0.811765 0.886275 0.952941 rg
147.414 17.871 m 147.414 17.871 l 147.414 26.23 154.188 33.004 162.543 
33.004 c 166.555 33.004 170.406 31.41 173.242 28.57 c 176.078 25.734 
177.672 21.887 177.672 17.871 c 177.672 9.516 170.898 2.742 162.543 
2.742 c 154.188 2.742 147.414 9.516 147.414 17.871 c h
147.414 17.871 m f
0 g
q 1 0 0 -1 0 178 cm
147.414 160.129 m 147.414 151.77 154.188 144.996 162.543 144.996 c 
166.555 144.996 170.406 146.59 173.242 149.43 c 176.078 152.266 177.672 
156.113 177.672 160.129 c 177.672 168.484 170.898 175.258 162.543 
175.258 c 154.188 175.258 147.414 168.484 147.414 160.129 c h
147.414 160.129 m S Q
0.811765 0.886275 0.952941 rg
77.602 17.871 m 77.602 17.871 l 77.602 26.23 84.375 33.004 92.73 33.004 
c 96.742 33.004 100.594 31.41 103.43 28.57 c 106.266 25.734 107.863 
21.887 107.863 17.871 c 107.863 9.516 101.086 2.742 92.73 2.742 c 
84.375 2.742 77.602 9.516 77.602 17.871 c h
77.602 17.871 m f
0 g
q 1 0 0 -1 0 178 cm
77.602 160.129 m 77.602 151.77 84.375 144.996 92.73 144.996 c 96.742 
144.996 100.594 146.59 103.43 149.43 c 106.266 152.266 107.863 156.113 
107.863 160.129 c 107.863 168.484 101.086 175.258 92.73 175.258 c 
84.375 175.258 77.602 168.484 77.602 160.129 c h
77.602 160.129 m S Q
0.811765 0.886275 0.952941 rg
287.051 17.871 m 287.051 17.871 l 287.051 26.23 293.824 33.004 302.18 
33.004 c 306.191 33.004 310.043 31.41 312.879 28.57 c 315.715 25.734 
317.309 21.887 317.309 17.871 c 317.309 9.516 310.535 2.742 302.18 
2.742 c 293.824 2.742 287.051 9.516 287.051 17.871 c h
287.051 17.871 m f
0 g
q 1 0 0 -1 0 178 cm
287.051 160.129 m 287.051 151.77 293.824 144.996 302.18 144.996 c 
306.191 144.996 310.043 146.59 312.879 149.43 c 315.715 152.266 317.309 
156.113 317.309 160.129 c 317.309 168.484 310.535 175.258 302.18 
175.258 c 293.824 175.258 287.051 168.484 287.051 160.129 c h
287.051 160.129 m S Q
0.811765 0.886275 0.952941 rg
219.559 17.871 m 219.559 17.871 l 219.559 26.23 226.332 33.004 234.691 
33.004 c 238.703 33.004 242.551 31.41 245.391 28.57 c 248.227 25.734 
249.82 21.887 249.82 17.871 c 249.82 9.516 243.047 2.742 234.691 2.742 
c 226.332 2.742 219.559 9.516 219.559 17.871 c h
219.559 17.871 m f
0 g
q 1 0 0 -1 0 178 cm
219.559 160.129 m 219.559 151.77 226.332 144.996 234.691 144.996 c 
238.703 144.996 242.551 146.59 245.391 149.43 c 248.227 152.266 249.82 
156.113 249.82 160.129 c 249.82 168.484 243.047 175.258 234.691 175.258 
c 226.332 175.258 219.559 168.484 219.559 160.129 c h
219.559 160.129 m S Q
q 1 0 0 -1 0 178 cm
26.625 149.43 m 98.516 96.445 l S Q
100.086 79.426 m 104.363 85.863 l 96.949 83.68 l h
100.086 79.426 m f*
0 j
q 1 0 0 -1 0 178 cm
100.086 98.574 m 104.363 92.137 l 96.949 94.32 l h
100.086 98.574 m S Q
1 j
q 1 0 0 -1 0 178 cm
223.992 149.43 m 135.844 95.746 l S Q
137.219 84.512 m 129.641 86.031 l 134.469 80 l h
137.219 84.512 m f*
0 j
q 1 0 0 -1 0 178 cm
137.219 93.488 m 129.641 91.969 l 134.469 98 l h
137.219 93.488 m S Q
1 0 0 rg
101.812 97.949 m 101.812 97.949 l 101.812 106.305 108.586 113.078 
116.945 113.078 c 120.957 113.078 124.805 111.484 127.645 108.648 c 
130.48 105.809 132.074 101.961 132.074 97.949 c 132.074 89.59 125.301 
82.816 116.945 82.816 c 108.586 82.816 101.812 89.59 101.812 97.949 c h
101.812 97.949 m f
0 g
1 j
q 1 0 0 -1 0 178 cm
101.812 80.051 m 101.812 71.695 108.586 64.922 116.945 64.922 c 120.957 
64.922 124.805 66.516 127.645 69.352 c 130.48 72.191 132.074 76.039 
132.074 80.051 c 132.074 88.41 125.301 95.184 116.945 95.184 c 108.586 
95.184 101.812 88.41 101.812 80.051 c h
101.812 80.051 m S Q
0.811765 0.886275 0.952941 rg
648.383 99.219 m 648.383 99.219 l 648.383 107.578 655.156 114.352 
663.512 114.352 c 667.527 114.352 671.375 112.758 674.211 109.918 c 
677.051 107.082 678.645 103.234 678.645 99.219 c 678.645 90.863 671.871 
84.09 663.512 84.09 c 655.156 84.09 648.383 90.863 648.383 99.219 c h
648.383 99.219 m f
0 g
q 1 0 0 -1 0 178 cm
648.383 78.781 m 648.383 70.422 655.156 63.648 663.512 63.648 c 667.527 
63.648 671.375 65.242 674.211 68.082 c 677.051 70.918 678.645 74.766 
678.645 78.781 c 678.645 87.137 671.871 93.91 663.512 93.91 c 655.156 
93.91 648.383 87.137 648.383 78.781 c h
648.383 78.781 m S Q
0.811765 0.886275 0.952941 rg
578.57 99.219 m 578.57 99.219 l 578.57 107.578 585.344 114.352 593.703 
114.352 c 597.715 114.352 601.562 112.758 604.398 109.918 c 607.238 
107.082 608.832 103.234 608.832 99.219 c 608.832 90.863 602.059 84.09 
593.703 84.09 c 585.344 84.09 578.57 90.863 578.57 99.219 c h
578.57 99.219 m f
0 g
q 1 0 0 -1 0 178 cm
578.57 78.781 m 578.57 70.422 585.344 63.648 593.703 63.648 c 597.715 
63.648 601.562 65.242 604.398 68.082 c 607.238 70.918 608.832 74.766 
608.832 78.781 c 608.832 87.137 602.059 93.91 593.703 93.91 c 585.344 
93.91 578.57 87.137 578.57 78.781 c h
578.57 78.781 m S Q
0.811765 0.886275 0.952941 rg
720.531 99.219 m 720.531 99.219 l 720.531 107.578 727.305 114.352 
735.66 114.352 c 739.672 114.352 743.523 112.758 746.359 109.918 c 
749.195 107.082 750.793 103.234 750.793 99.219 c 750.793 90.863 744.016 
84.09 735.66 84.09 c 727.305 84.09 720.531 90.863 720.531 99.219 c h
720.531 99.219 m f
0 g
q 1 0 0 -1 0 178 cm
720.531 78.781 m 720.531 70.422 727.305 63.648 735.66 63.648 c 739.672 
63.648 743.523 65.242 746.359 68.082 c 749.195 70.918 750.793 74.766 
750.793 78.781 c 750.793 87.137 744.016 93.91 735.66 93.91 c 727.305 
93.91 720.531 87.137 720.531 78.781 c h
720.531 78.781 m S Q
1 0 0 rg
511.082 99.219 m 511.082 99.219 l 511.082 107.578 517.855 114.352 
526.211 114.352 c 530.223 114.352 534.074 112.758 536.91 109.918 c 
539.746 107.082 541.344 103.234 541.344 99.219 c 541.344 90.863 534.566 
84.09 526.211 84.09 c 517.855 84.09 511.082 90.863 511.082 99.219 c h
511.082 99.219 m f
0 g
q 1 0 0 -1 0 178 cm
511.082 78.781 m 511.082 70.422 517.855 63.648 526.211 63.648 c 530.223 
63.648 534.074 65.242 536.91 68.082 c 539.746 70.918 541.344 74.766 
541.344 78.781 c 541.344 87.137 534.566 93.91 526.211 93.91 c 517.855 
93.91 511.082 87.137 511.082 78.781 c h
511.082 78.781 m S Q
q 1 0 0 -1 0 178 cm
593.703 63.648 m 609.738 35.016 l S Q
612.047 141.691 m 613.289 149.316 l 607.434 144.273 l h
612.047 141.691 m f*
0 j
q 1 0 0 -1 0 178 cm
612.047 36.309 m 613.289 28.684 l 607.434 33.727 l h
612.047 36.309 m S Q
1 j
q 1 0 0 -1 0 178 cm
663.512 63.648 m 641.578 34.328 l S Q
643.695 145.254 m 637.23 149.484 l 639.465 142.09 l h
643.695 145.254 m f*
0 j
q 1 0 0 -1 0 178 cm
643.695 32.746 m 637.23 28.516 l 639.465 35.91 l h
643.695 32.746 m S Q
1 0 0 rg
610 162.059 m 610 162.059 l 610 170.414 616.773 177.188 625.129 177.188 
c 629.145 177.188 632.992 175.594 635.828 172.758 c 638.668 169.918 
640.262 166.07 640.262 162.059 c 640.262 153.699 633.488 146.926 
625.129 146.926 c 616.773 146.926 610 153.699 610 162.059 c h
610 162.059 m f
0 g
1 j
q 1 0 0 -1 0 178 cm
610 15.941 m 610 7.586 616.773 0.812 625.129 0.812 c 629.145 0.812 
632.992 2.406 635.828 5.242 c 638.668 8.082 640.262 11.93 640.262 
15.941 c 640.262 24.301 633.488 31.074 625.129 31.074 c 616.773 31.074 
610 24.301 610 15.941 c h
610 15.941 m S Q
0.811765 0.886275 0.952941 rg
434.273 16.602 m 434.273 16.602 l 434.273 24.957 441.047 31.73 449.406 
31.73 c 453.418 31.73 457.266 30.137 460.105 27.301 c 462.941 24.461 
464.535 20.613 464.535 16.602 c 464.535 8.242 457.762 1.469 449.406 
1.469 c 441.047 1.469 434.273 8.242 434.273 16.602 c h
434.273 16.602 m f
0 g
q 1 0 0 -1 0 178 cm
434.273 161.398 m 434.273 153.043 441.047 146.27 449.406 146.27 c 
453.418 146.27 457.266 147.863 460.105 150.699 c 462.941 153.539 
464.535 157.387 464.535 161.398 c 464.535 169.758 457.762 176.531 
449.406 176.531 c 441.047 176.531 434.273 169.758 434.273 161.398 c h
434.273 161.398 m S Q
0.811765 0.886275 0.952941 rg
578.57 16.602 m 578.57 16.602 l 578.57 24.957 585.344 31.73 593.703 
31.73 c 597.715 31.73 601.562 30.137 604.398 27.301 c 607.238 24.461 
608.832 20.613 608.832 16.602 c 608.832 8.242 602.059 1.469 593.703 
1.469 c 585.344 1.469 578.57 8.242 578.57 16.602 c h
578.57 16.602 m f
0 g
q 1 0 0 -1 0 178 cm
578.57 161.398 m 578.57 153.043 585.344 146.27 593.703 146.27 c 597.715 
146.27 601.562 147.863 604.398 150.699 c 607.238 153.539 608.832 
157.387 608.832 161.398 c 608.832 169.758 602.059 176.531 593.703 
176.531 c 585.344 176.531 578.57 169.758 578.57 161.398 c h
578.57 161.398 m S Q
0.811765 0.886275 0.952941 rg
511.082 16.602 m 511.082 16.602 l 511.082 24.957 517.855 31.73 526.211 
31.73 c 530.223 31.73 534.074 30.137 536.91 27.301 c 539.746 24.461 
541.344 20.613 541.344 16.602 c 541.344 8.242 534.566 1.469 526.211 
1.469 c 517.855 1.469 511.082 8.242 511.082 16.602 c h
511.082 16.602 m f
0 g
q 1 0 0 -1 0 178 cm
511.082 161.398 m 511.082 153.043 517.855 146.27 526.211 146.27 c 
530.223 146.27 534.074 147.863 536.91 150.699 c 539.746 153.539 541.344 
157.387 541.344 161.398 c 541.344 169.758 534.566 176.531 526.211 
176.531 c 517.855 176.531 511.082 169.758 511.082 161.398 c h
511.082 161.398 m S Q
0.811765 0.886275 0.952941 rg
720.531 16.602 m 720.531 16.602 l 720.531 24.957 727.305 31.73 735.66 
31.73 c 739.672 31.73 743.523 30.137 746.359 27.301 c 749.195 24.461 
750.793 20.613 750.793 16.602 c 750.793 8.242 744.016 1.469 735.66 
1.469 c 727.305 1.469 720.531 8.242 720.531 16.602 c h
720.531 16.602 m f
0 g
q 1 0 0 -1 0 178 cm
720.531 161.398 m 720.531 153.043 727.305 146.27 735.66 146.27 c 
739.672 146.27 743.523 147.863 746.359 150.699 c 749.195 153.539 
750.793 157.387 750.793 161.398 c 750.793 169.758 744.016 176.531 
735.66 176.531 c 727.305 176.531 720.531 169.758 720.531 161.398 c h
720.531 161.398 m S Q
0.811765 0.886275 0.952941 rg
648.383 16.602 m 648.383 16.602 l 648.383 24.957 655.156 31.73 663.512 
31.73 c 667.527 31.73 671.375 30.137 674.211 27.301 c 677.051 24.461 
678.645 20.613 678.645 16.602 c 678.645 8.242 671.871 1.469 663.512 
1.469 c 655.156 1.469 648.383 8.242 648.383 16.602 c h
648.383 16.602 m f
0 g
q 1 0 0 -1 0 178 cm
648.383 161.398 m 648.383 153.043 655.156 146.27 663.512 146.27 c 
667.527 146.27 671.375 147.863 674.211 150.699 c 677.051 153.539 
678.645 157.387 678.645 161.398 c 678.645 169.758 671.871 176.531 
663.512 176.531 c 655.156 176.531 648.383 169.758 648.383 161.398 c h
648.383 161.398 m S Q
q 1 0 0 -1 0 178 cm
449.406 146.27 m 526.211 93.91 l S Q
q 1 0 0 -1 0 178 cm
526.211 146.27 m 526.211 93.91 l S Q
q 1 0 0 -1 0 178 cm
593.703 146.27 m 593.703 93.91 l S Q
q 1 0 0 -1 0 178 cm
663.512 146.27 m 663.512 93.91 l S Q
q 1 0 0 -1 0 178 cm
735.66 146.27 m 735.66 93.91 l S Q
0.811765 0.886275 0.952941 rg
1070.086 16.602 m 1070.086 16.602 l 1070.086 24.957 1076.863 31.73 
1085.219 31.73 c 1089.23 31.73 1093.078 30.137 1095.918 27.301 c 
1098.754 24.461 1100.348 20.613 1100.348 16.602 c 1100.348 8.242 
1093.574 1.469 1085.219 1.469 c 1076.863 1.469 1070.086 8.242 1070.086 
16.602 c h
1070.086 16.602 m f
0 g
q 1 0 0 -1 0 178 cm
1070.086 161.398 m 1070.086 153.043 1076.863 146.27 1085.219 146.27 c 
1089.23 146.27 1093.078 147.863 1095.918 150.699 c 1098.754 153.539 
1100.348 157.387 1100.348 161.398 c 1100.348 169.758 1093.574 176.531 
1085.219 176.531 c 1076.863 176.531 1070.086 169.758 1070.086 161.398 c 
h
1070.086 161.398 m S Q
0.811765 0.886275 0.952941 rg
1212.047 16.602 m 1212.047 16.602 l 1212.047 24.957 1218.82 31.73 
1227.176 31.73 c 1231.191 31.73 1235.039 30.137 1237.875 27.301 c 
1240.715 24.461 1242.309 20.613 1242.309 16.602 c 1242.309 8.242 
1235.535 1.469 1227.176 1.469 c 1218.82 1.469 1212.047 8.242 1212.047 
16.602 c h
1212.047 16.602 m f
0 g
q 1 0 0 -1 0 178 cm
1212.047 161.398 m 1212.047 153.043 1218.82 146.27 1227.176 146.27 c 
1231.191 146.27 1235.039 147.863 1237.875 150.699 c 1240.715 153.539 
1242.309 157.387 1242.309 161.398 c 1242.309 169.758 1235.535 176.531 
1227.176 176.531 c 1218.82 176.531 1212.047 169.758 1212.047 161.398 c 
h
1212.047 161.398 m S Q
0.811765 0.886275 0.952941 rg
1139.898 16.602 m 1139.898 16.602 l 1139.898 24.957 1146.676 31.73 
1155.031 31.73 c 1159.043 31.73 1162.891 30.137 1165.73 27.301 c 
1168.566 24.461 1170.16 20.613 1170.16 16.602 c 1170.16 8.242 1163.387 
1.469 1155.031 1.469 c 1146.676 1.469 1139.898 8.242 1139.898 16.602 c 
h
1139.898 16.602 m f
0 g
q 1 0 0 -1 0 178 cm
1139.898 161.398 m 1139.898 153.043 1146.676 146.27 1155.031 146.27 c 
1159.043 146.27 1162.891 147.863 1165.73 150.699 c 1168.566 153.539 
1170.16 157.387 1170.16 161.398 c 1170.16 169.758 1163.387 176.531 
1155.031 176.531 c 1146.676 176.531 1139.898 169.758 1139.898 161.398 c 
h
1139.898 161.398 m S Q
0.811765 0.886275 0.952941 rg
1212.047 162.059 m 1212.047 162.059 l 1212.047 170.414 1218.82 177.188 
1227.176 177.188 c 1231.191 177.188 1235.039 175.594 1237.875 172.758 c 
1240.715 169.918 1242.309 166.07 1242.309 162.059 c 1242.309 153.699 
1235.535 146.926 1227.176 146.926 c 1218.82 146.926 1212.047 153.699 
1212.047 162.059 c h
1212.047 162.059 m f
0 g
q 1 0 0 -1 0 178 cm
1212.047 15.941 m 1212.047 7.586 1218.82 0.812 1227.176 0.812 c 
1231.191 0.812 1235.039 2.406 1237.875 5.242 c 1240.715 8.082 1242.309 
11.93 1242.309 15.941 c 1242.309 24.301 1235.535 31.074 1227.176 31.074 
c 1218.82 31.074 1212.047 24.301 1212.047 15.941 c h
1212.047 15.941 m S Q
1 0 0 rg
1105.043 162.059 m 1105.043 162.059 l 1105.043 170.414 1111.816 177.188 
1120.172 177.188 c 1124.188 177.188 1128.035 175.594 1130.871 172.758 c 
1133.711 169.918 1135.305 166.07 1135.305 162.059 c 1135.305 153.699 
1128.527 146.926 1120.172 146.926 c 1111.816 146.926 1105.043 153.699 
1105.043 162.059 c h
1105.043 162.059 m f
0 g
q 1 0 0 -1 0 178 cm
1105.043 15.941 m 1105.043 7.586 1111.816 0.812 1120.172 0.812 c 
1124.188 0.812 1128.035 2.406 1130.871 5.242 c 1133.711 8.082 1135.305 
11.93 1135.305 15.941 c 1135.305 24.301 1128.527 31.074 1120.172 31.074 
c 1111.816 31.074 1105.043 24.301 1105.043 15.941 c h
1105.043 15.941 m S Q
1 0 0 rg
966.367 99.219 m 966.367 99.219 l 966.367 107.578 973.141 114.352 
981.496 114.352 c 985.512 114.352 989.359 112.758 992.195 109.918 c 
995.035 107.082 996.629 103.234 996.629 99.219 c 996.629 90.863 989.855 
84.09 981.496 84.09 c 973.141 84.09 966.367 90.863 966.367 99.219 c h
966.367 99.219 m f
0 g
q 1 0 0 -1 0 178 cm
966.367 78.781 m 966.367 70.422 973.141 63.648 981.496 63.648 c 985.512 
63.648 989.359 65.242 992.195 68.082 c 995.035 70.918 996.629 74.766 
996.629 78.781 c 996.629 87.137 989.855 93.91 981.496 93.91 c 973.141 
93.91 966.367 87.137 966.367 78.781 c h
966.367 78.781 m S Q
0.811765 0.886275 0.952941 rg
927.359 16.602 m 927.359 16.602 l 927.359 24.957 934.133 31.73 942.488 
31.73 c 946.5 31.73 950.352 30.137 953.188 27.301 c 956.023 24.461 
957.621 20.613 957.621 16.602 c 957.621 8.242 950.844 1.469 942.488 
1.469 c 934.133 1.469 927.359 8.242 927.359 16.602 c h
927.359 16.602 m f
0 g
q 1 0 0 -1 0 178 cm
927.359 161.398 m 927.359 153.043 934.133 146.27 942.488 146.27 c 946.5 
146.27 950.352 147.863 953.188 150.699 c 956.023 153.539 957.621 
157.387 957.621 161.398 c 957.621 169.758 950.844 176.531 942.488 
176.531 c 934.133 176.531 927.359 169.758 927.359 161.398 c h
927.359 161.398 m S Q
0.811765 0.886275 0.952941 rg
1004.164 16.602 m 1004.164 16.602 l 1004.164 24.957 1010.938 31.73 
1019.293 31.73 c 1023.309 31.73 1027.156 30.137 1029.992 27.301 c 
1032.832 24.461 1034.426 20.613 1034.426 16.602 c 1034.426 8.242 
1027.652 1.469 1019.293 1.469 c 1010.938 1.469 1004.164 8.242 1004.164 
16.602 c h
1004.164 16.602 m f
0 g
q 1 0 0 -1 0 178 cm
1004.164 161.398 m 1004.164 153.043 1010.938 146.27 1019.293 146.27 c 
1023.309 146.27 1027.156 147.863 1029.992 150.699 c 1032.832 153.539 
1034.426 157.387 1034.426 161.398 c 1034.426 169.758 1027.652 176.531 
1019.293 176.531 c 1010.938 176.531 1004.164 169.758 1004.164 161.398 c 
h
1004.164 161.398 m S Q
q 1 0 0 -1 0 178 cm
942.488 146.27 m 981.496 93.91 l S Q
q 1 0 0 -1 0 178 cm
1019.297 146.27 m 981.496 93.91 l S Q
q 1 0 0 -1 0 178 cm
1227.176 146.27 m 1227.176 31.074 l S Q
q 1 0 0 -1 0 178 cm
1155.031 146.27 m 1120.172 31.074 l S Q
q 1 0 0 -1 0 178 cm
1085.219 146.27 m 1120.172 31.074 l S Q
1 0 0 rg
966.367 162.059 m 966.367 162.059 l 966.367 170.414 973.141 177.188 
981.496 177.188 c 985.512 177.188 989.359 175.594 992.195 172.758 c 
995.035 169.918 996.629 166.07 996.629 162.059 c 996.629 153.699 
989.855 146.926 981.496 146.926 c 973.141 146.926 966.367 153.699 
966.367 162.059 c h
966.367 162.059 m f
0 g
q 1 0 0 -1 0 178 cm
966.367 15.941 m 966.367 7.586 973.141 0.812 981.496 0.812 c 985.512 
0.812 989.359 2.406 992.195 5.242 c 995.035 8.082 996.629 11.93 996.629 
15.941 c 996.629 24.301 989.855 31.074 981.496 31.074 c 973.141 31.074 
966.367 24.301 966.367 15.941 c h
966.367 15.941 m S Q
q 1 0 0 -1 0 178 cm
981.496 31.074 m 981.496 63.648 l S Q
  Q
Q
Q Q
showpage
%%Trailer
count op_count sub {pop} repeat
countdictstack dict_count sub {end} repeat
cairo_eps_state restore
%%EOF
