%!PS-Adobe-3.0 EPSF-3.0
%%Title: /home/lboyles/research/beta_tree/figures/leukemia_dendrogram.eps
%%Creator: matplotlib version 1.1.0, http://matplotlib.sourceforge.net/
%%CreationDate: Tue May 22 10:17:10 2012
%%Orientation: portrait
%%BoundingBox: -544 192 1156 599
%%EndComments
%%BeginProlog
/mpldict 8 dict def
mpldict begin
/m { moveto } bind def
/l { lineto } bind def
/r { rlineto } bind def
/c { curveto } bind def
/cl { closepath } bind def
/box {
m
1 index 0 r
0 exch r
neg 0 r
cl
} bind def
/clipbox {
box
clip
newpath
} bind def
%!PS-Adobe-3.0 Resource-Font
%%Title: Bitstream Vera Sans
%%Copyright: Copyright (c) 2003 by Bitstream, Inc. All Rights Reserved.
%%Creator: Converted from TrueType to type 3 by PPR
25 dict begin
/_d{bind def}bind def
/_m{moveto}_d
/_l{lineto}_d
/_cl{closepath eofill}_d
/_c{curveto}_d
/_sc{7 -1 roll{setcachedevice}{pop pop pop pop pop pop}ifelse}_d
/_e{exec}_d
/FontName /BitstreamVeraSans-Roman def
/PaintType 0 def
/FontMatrix[.001 0 0 .001 0 0]def
/FontBBox[-183 -236 1287 928]def
/FontType 3 def
/Encoding [ /hyphen /period /zero /one /two /three /four /five /six /eight /A /B /C /E /H /L /M /O /R /S /T /d /e /i /p /r /y ] def
/FontInfo 10 dict dup begin
/FamilyName (Bitstream Vera Sans) def
/FullName (Bitstream Vera Sans) def
/Notice (Copyright (c) 2003 by Bitstream, Inc. All Rights Reserved. Bitstream Vera is a trademark of Bitstream, Inc.) def
/Weight (Roman) def
/Version (Release 1.10) def
/ItalicAngle 0.0 def
/isFixedPitch false def
/UnderlinePosition -213 def
/UnderlineThickness 143 def
end readonly def
/CharStrings 27 dict dup begin
/hyphen{361 0 49 234 312 314 _sc
49 314 _m
312 314 _l
312 234 _l
49 234 _l
49 314 _l
_cl}_d
/period{318 0 107 0 210 124 _sc
107 124 _m
210 124 _l
210 0 _l
107 0 _l
107 124 _l
_cl}_d
/zero{636 0 66 -13 570 742 _sc
318 664 _m
267 664 229 639 203 589 _c
177 539 165 464 165 364 _c
165 264 177 189 203 139 _c
229 89 267 64 318 64 _c
369 64 407 89 433 139 _c
458 189 471 264 471 364 _c
471 464 458 539 433 589 _c
407 639 369 664 318 664 _c
318 742 _m
399 742 461 709 505 645 _c
548 580 570 486 570 364 _c
570 241 548 147 505 83 _c
461 19 399 -13 318 -13 _c
236 -13 173 19 130 83 _c
87 147 66 241 66 364 _c
66 486 87 580 130 645 _c
173 709 236 742 318 742 _c
_cl}_d
/one{636 0 110 0 544 729 _sc
124 83 _m
285 83 _l
285 639 _l
110 604 _l
110 694 _l
284 729 _l
383 729 _l
383 83 _l
544 83 _l
544 0 _l
124 0 _l
124 83 _l
_cl}_d
/two{{636 0 73 0 536 742 _sc
192 83 _m
536 83 _l
536 0 _l
73 0 _l
73 83 _l
110 121 161 173 226 239 _c
290 304 331 346 348 365 _c
380 400 402 430 414 455 _c
426 479 433 504 433 528 _c
433 566 419 598 392 622 _c
365 646 330 659 286 659 _c
255 659 222 653 188 643 _c
154 632 117 616 78 594 _c
78 694 _l
118 710 155 722 189 730 _c
223 738 255 742 284 742 _c
359 742 419 723 464 685 _c
509 647 532 597 532 534 _c
532 504 526 475 515 449 _c
504 422 484 390 454 354 _c
446 344 420 317 376 272 _c
332 227 271 164 192 83 _c
_cl}_e}_d
/three{{636 0 76 -13 556 742 _sc
406 393 _m
453 383 490 362 516 330 _c
542 298 556 258 556 212 _c
556 140 531 84 482 45 _c
432 6 362 -13 271 -13 _c
240 -13 208 -10 176 -4 _c
144 1 110 10 76 22 _c
76 117 _l
103 101 133 89 166 81 _c
198 73 232 69 268 69 _c
330 69 377 81 409 105 _c
441 129 458 165 458 212 _c
458 254 443 288 413 312 _c
383 336 341 349 287 349 _c
202 349 _l
202 430 _l
291 430 _l
339 430 376 439 402 459 _c
428 478 441 506 441 543 _c
441 580 427 609 401 629 _c
374 649 336 659 287 659 _c
260 659 231 656 200 650 _c
169 644 135 635 98 623 _c
98 711 _l
135 721 170 729 203 734 _c
235 739 266 742 296 742 _c
}_e{370 742 429 725 473 691 _c
517 657 539 611 539 553 _c
539 513 527 479 504 451 _c
481 423 448 403 406 393 _c
_cl}_e}_d
/four{636 0 49 0 580 729 _sc
378 643 _m
129 254 _l
378 254 _l
378 643 _l
352 729 _m
476 729 _l
476 254 _l
580 254 _l
580 172 _l
476 172 _l
476 0 _l
378 0 _l
378 172 _l
49 172 _l
49 267 _l
352 729 _l
_cl}_d
/five{{636 0 77 -13 549 729 _sc
108 729 _m
495 729 _l
495 646 _l
198 646 _l
198 467 _l
212 472 227 476 241 478 _c
255 480 270 482 284 482 _c
365 482 429 459 477 415 _c
525 370 549 310 549 234 _c
549 155 524 94 475 51 _c
426 8 357 -13 269 -13 _c
238 -13 207 -10 175 -6 _c
143 -1 111 6 77 17 _c
77 116 _l
106 100 136 88 168 80 _c
199 72 232 69 267 69 _c
323 69 368 83 401 113 _c
433 143 450 183 450 234 _c
450 284 433 324 401 354 _c
368 384 323 399 267 399 _c
241 399 214 396 188 390 _c
162 384 135 375 108 363 _c
108 729 _l
_cl}_e}_d
/six{{636 0 70 -13 573 742 _sc
330 404 _m
286 404 251 388 225 358 _c
199 328 186 286 186 234 _c
186 181 199 139 225 109 _c
251 79 286 64 330 64 _c
374 64 409 79 435 109 _c
461 139 474 181 474 234 _c
474 286 461 328 435 358 _c
409 388 374 404 330 404 _c
526 713 _m
526 623 _l
501 635 476 644 451 650 _c
425 656 400 659 376 659 _c
310 659 260 637 226 593 _c
192 549 172 482 168 394 _c
187 422 211 444 240 459 _c
269 474 301 482 336 482 _c
409 482 467 459 509 415 _c
551 371 573 310 573 234 _c
573 159 550 99 506 54 _c
462 9 403 -13 330 -13 _c
246 -13 181 19 137 83 _c
92 147 70 241 70 364 _c
70 479 97 571 152 639 _c
206 707 280 742 372 742 _c
}_e{396 742 421 739 447 735 _c
472 730 498 723 526 713 _c
_cl}_e}_d
/eight{{636 0 68 -13 568 742 _sc
318 346 _m
271 346 234 333 207 308 _c
180 283 167 249 167 205 _c
167 161 180 126 207 101 _c
234 76 271 64 318 64 _c
364 64 401 76 428 102 _c
455 127 469 161 469 205 _c
469 249 455 283 429 308 _c
402 333 365 346 318 346 _c
219 388 _m
177 398 144 418 120 447 _c
96 476 85 511 85 553 _c
85 611 105 657 147 691 _c
188 725 245 742 318 742 _c
390 742 447 725 489 691 _c
530 657 551 611 551 553 _c
551 511 539 476 515 447 _c
491 418 459 398 417 388 _c
464 377 501 355 528 323 _c
554 291 568 251 568 205 _c
568 134 546 80 503 43 _c
459 5 398 -13 318 -13 _c
237 -13 175 5 132 43 _c
89 80 68 134 68 205 _c
68 251 81 291 108 323 _c
134 355 171 377 219 388 _c
}_e{183 544 _m
183 506 194 476 218 455 _c
242 434 275 424 318 424 _c
360 424 393 434 417 455 _c
441 476 453 506 453 544 _c
453 582 441 611 417 632 _c
393 653 360 664 318 664 _c
275 664 242 653 218 632 _c
194 611 183 582 183 544 _c
_cl}_e}_d
/A{684 0 8 0 676 729 _sc
342 632 _m
208 269 _l
476 269 _l
342 632 _l
286 729 _m
398 729 _l
676 0 _l
573 0 _l
507 187 _l
178 187 _l
112 0 _l
8 0 _l
286 729 _l
_cl}_d
/B{{686 0 98 0 615 729 _sc
197 348 _m
197 81 _l
355 81 _l
408 81 447 92 473 114 _c
498 136 511 169 511 215 _c
511 260 498 293 473 315 _c
447 337 408 348 355 348 _c
197 348 _l
197 648 _m
197 428 _l
343 428 _l
391 428 426 437 450 455 _c
474 473 486 500 486 538 _c
486 574 474 602 450 620 _c
426 638 391 648 343 648 _c
197 648 _l
98 729 _m
350 729 _l
425 729 483 713 524 682 _c
564 650 585 606 585 549 _c
585 504 574 468 553 442 _c
532 416 502 399 462 393 _c
510 382 548 360 575 327 _c
601 294 615 253 615 204 _c
615 138 592 88 548 53 _c
504 17 441 0 360 0 _c
98 0 _l
98 729 _l
}_e{_cl}_e}_d
/C{{698 0 56 -13 644 742 _sc
644 673 _m
644 569 _l
610 599 575 622 537 638 _c
499 653 460 661 418 661 _c
334 661 270 635 226 584 _c
182 533 160 460 160 364 _c
160 268 182 194 226 143 _c
270 92 334 67 418 67 _c
460 67 499 74 537 90 _c
575 105 610 128 644 159 _c
644 56 _l
609 32 572 15 534 4 _c
496 -7 455 -13 412 -13 _c
302 -13 215 20 151 87 _c
87 154 56 246 56 364 _c
56 481 87 573 151 641 _c
215 708 302 742 412 742 _c
456 742 497 736 535 725 _c
573 713 610 696 644 673 _c
_cl}_e}_d
/E{632 0 98 0 568 729 _sc
98 729 _m
559 729 _l
559 646 _l
197 646 _l
197 430 _l
544 430 _l
544 347 _l
197 347 _l
197 83 _l
568 83 _l
568 0 _l
98 0 _l
98 729 _l
_cl}_d
/H{752 0 98 0 654 729 _sc
98 729 _m
197 729 _l
197 430 _l
555 430 _l
555 729 _l
654 729 _l
654 0 _l
555 0 _l
555 347 _l
197 347 _l
197 0 _l
98 0 _l
98 729 _l
_cl}_d
/L{557 0 98 0 552 729 _sc
98 729 _m
197 729 _l
197 83 _l
552 83 _l
552 0 _l
98 0 _l
98 729 _l
_cl}_d
/M{863 0 98 0 765 729 _sc
98 729 _m
245 729 _l
431 233 _l
618 729 _l
765 729 _l
765 0 _l
669 0 _l
669 640 _l
481 140 _l
382 140 _l
194 640 _l
194 0 _l
98 0 _l
98 729 _l
_cl}_d
/O{787 0 56 -13 731 742 _sc
394 662 _m
322 662 265 635 223 582 _c
181 528 160 456 160 364 _c
160 272 181 199 223 146 _c
265 92 322 66 394 66 _c
465 66 522 92 564 146 _c
606 199 627 272 627 364 _c
627 456 606 528 564 582 _c
522 635 465 662 394 662 _c
394 742 _m
496 742 577 707 639 639 _c
700 571 731 479 731 364 _c
731 248 700 157 639 89 _c
577 21 496 -13 394 -13 _c
291 -13 209 21 148 89 _c
86 157 56 248 56 364 _c
56 479 86 571 148 639 _c
209 707 291 742 394 742 _c
_cl}_d
/R{{695 0 98 0 666 729 _sc
444 342 _m
465 334 486 319 506 296 _c
526 272 546 240 566 199 _c
666 0 _l
560 0 _l
467 187 _l
443 235 419 268 397 284 _c
374 300 343 308 304 308 _c
197 308 _l
197 0 _l
98 0 _l
98 729 _l
321 729 _l
404 729 466 711 507 677 _c
548 642 569 589 569 519 _c
569 473 558 434 537 404 _c
515 374 484 353 444 342 _c
197 648 _m
197 389 _l
321 389 _l
368 389 404 400 428 422 _c
452 444 465 476 465 519 _c
465 561 452 593 428 615 _c
404 637 368 648 321 648 _c
197 648 _l
_cl}_e}_d
/S{{635 0 66 -13 579 742 _sc
535 705 _m
535 609 _l
497 627 462 640 429 649 _c
395 657 363 662 333 662 _c
279 662 237 651 208 631 _c
179 610 165 580 165 542 _c
165 510 174 485 194 469 _c
213 452 250 439 304 429 _c
364 417 _l
437 403 491 378 526 343 _c
561 307 579 260 579 201 _c
579 130 555 77 508 41 _c
460 5 391 -13 300 -13 _c
265 -13 228 -9 189 -2 _c
150 5 110 16 69 32 _c
69 134 _l
109 111 148 94 186 83 _c
224 71 262 66 300 66 _c
356 66 399 77 430 99 _c
460 121 476 152 476 194 _c
476 230 465 258 443 278 _c
421 298 385 313 335 323 _c
275 335 _l
201 349 148 372 115 404 _c
82 435 66 478 66 534 _c
66 598 88 649 134 686 _c
179 723 242 742 322 742 _c
}_e{356 742 390 739 426 733 _c
461 727 497 717 535 705 _c
_cl}_e}_d
/T{611 0 -2 0 614 729 _sc
-2 729 _m
614 729 _l
614 646 _l
355 646 _l
355 0 _l
256 0 _l
256 646 _l
-2 646 _l
-2 729 _l
_cl}_d
/d{{635 0 55 -13 544 760 _sc
454 464 _m
454 760 _l
544 760 _l
544 0 _l
454 0 _l
454 82 _l
435 49 411 25 382 10 _c
353 -5 319 -13 279 -13 _c
213 -13 159 13 117 65 _c
75 117 55 187 55 273 _c
55 359 75 428 117 481 _c
159 533 213 560 279 560 _c
319 560 353 552 382 536 _c
411 520 435 496 454 464 _c
148 273 _m
148 207 161 155 188 117 _c
215 79 253 61 301 61 _c
348 61 385 79 413 117 _c
440 155 454 207 454 273 _c
454 339 440 390 413 428 _c
385 466 348 485 301 485 _c
253 485 215 466 188 428 _c
161 390 148 339 148 273 _c
_cl}_e}_d
/e{{615 0 55 -13 562 560 _sc
562 296 _m
562 252 _l
149 252 _l
153 190 171 142 205 110 _c
238 78 284 62 344 62 _c
378 62 412 66 444 74 _c
476 82 509 95 541 113 _c
541 28 _l
509 14 476 3 442 -3 _c
408 -9 373 -13 339 -13 _c
251 -13 182 12 131 62 _c
80 112 55 181 55 268 _c
55 357 79 428 127 481 _c
175 533 241 560 323 560 _c
397 560 455 536 498 489 _c
540 441 562 377 562 296 _c
472 322 _m
471 371 457 410 431 440 _c
404 469 368 484 324 484 _c
274 484 234 469 204 441 _c
174 413 156 373 152 322 _c
472 322 _l
_cl}_e}_d
/i{278 0 94 0 184 760 _sc
94 547 _m
184 547 _l
184 0 _l
94 0 _l
94 547 _l
94 760 _m
184 760 _l
184 646 _l
94 646 _l
94 760 _l
_cl}_d
/p{{635 0 91 -207 580 560 _sc
181 82 _m
181 -207 _l
91 -207 _l
91 547 _l
181 547 _l
181 464 _l
199 496 223 520 252 536 _c
281 552 316 560 356 560 _c
422 560 476 533 518 481 _c
559 428 580 359 580 273 _c
580 187 559 117 518 65 _c
476 13 422 -13 356 -13 _c
316 -13 281 -5 252 10 _c
223 25 199 49 181 82 _c
487 273 _m
487 339 473 390 446 428 _c
418 466 381 485 334 485 _c
286 485 249 466 222 428 _c
194 390 181 339 181 273 _c
181 207 194 155 222 117 _c
249 79 286 61 334 61 _c
381 61 418 79 446 117 _c
473 155 487 207 487 273 _c
_cl}_e}_d
/r{411 0 91 0 411 560 _sc
411 463 _m
401 469 390 473 378 476 _c
366 478 353 480 339 480 _c
288 480 249 463 222 430 _c
194 397 181 350 181 288 _c
181 0 _l
91 0 _l
91 547 _l
181 547 _l
181 462 _l
199 495 224 520 254 536 _c
284 552 321 560 365 560 _c
371 560 378 559 386 559 _c
393 558 401 557 411 555 _c
411 463 _l
_cl}_d
/y{592 0 30 -207 562 547 _sc
322 -50 _m
296 -114 271 -157 247 -177 _c
223 -197 191 -207 151 -207 _c
79 -207 _l
79 -132 _l
132 -132 _l
156 -132 175 -126 189 -114 _c
203 -102 218 -75 235 -31 _c
251 9 _l
30 547 _l
125 547 _l
296 119 _l
467 547 _l
562 547 _l
322 -50 _l
_cl}_d
end readonly def

/BuildGlyph
 {exch begin
 CharStrings exch
 2 copy known not{pop /.notdef}if
 true 3 1 roll get exec
 end}_d

/BuildChar {
 1 index /Encoding get exch get
 1 index /BuildGlyph get exec
}_d

FontName currentdict end definefont pop
end
%%EndProlog
mpldict begin
-544.5 192.6 translate
1701 406.8 0 0 clipbox
gsave
0 0 m
1701 0 l
1701 406.8 l
0 406.8 l
cl
1.000 setgray
fill
grestore
gsave
212.625 40.68 m
1530.9 40.68 l
1530.9 366.12 l
212.625 366.12 l
cl
1.000 setgray
fill
grestore
1.000 setlinewidth
1 setlinejoin
2 setlinecap
[] 0 setdash
0.000 0.067 1.000 setrgbcolor
gsave
1318 325.4 212.6 40.68 clipbox
212.012 -269.263 m
stroke
grestore
0.000 0.647 1.000 setrgbcolor
gsave
1318 325.4 212.6 40.68 clipbox
212.012 -269.263 m
stroke
grestore
0.251 1.000 0.718 setrgbcolor
gsave
1318 325.4 212.6 40.68 clipbox
212.012 -269.263 m
stroke
grestore
0.718 1.000 0.251 setrgbcolor
gsave
1318 325.4 212.6 40.68 clipbox
212.012 -269.263 m
stroke
grestore
1.000 0.725 0.000 setrgbcolor
gsave
1318 325.4 212.6 40.68 clipbox
212.012 -269.263 m
stroke
grestore
1.000 0.188 0.000 setrgbcolor
gsave
1318 325.4 212.6 40.68 clipbox
212.012 -269.263 m
stroke
grestore
0.502 0.000 0.000 setrgbcolor
gsave
1318 325.4 212.6 40.68 clipbox
212.012 -269.263 m
stroke
grestore
gsave
1318 325.4 212.6 40.68 clipbox
313.795 40.68 m
313.795 108.517 l
319.926 108.517 l
319.926 40.68 l
stroke
grestore
0.000 0.647 1.000 setrgbcolor
gsave
1318 325.4 212.6 40.68 clipbox
1098.63 40.68 m
1098.63 109.574 l
1104.76 109.574 l
1104.76 40.68 l
stroke
grestore
1.000 0.188 0.000 setrgbcolor
gsave
1318 325.4 212.6 40.68 clipbox
822.71 40.68 m
822.71 110.594 l
stroke
grestore
0.000 setgray
gsave
1318 325.4 212.6 40.68 clipbox
822.71 110.594 m
828.842 110.594 l
stroke
grestore
0.502 0.000 0.000 setrgbcolor
gsave
1318 325.4 212.6 40.68 clipbox
828.842 110.594 m
828.842 40.68 l
stroke
grestore
0.251 1.000 0.718 setrgbcolor
gsave
1318 325.4 212.6 40.68 clipbox
393.505 40.68 m
393.505 112.706 l
399.636 112.706 l
399.636 40.68 l
stroke
grestore
0.502 0.000 0.000 setrgbcolor
gsave
1318 325.4 212.6 40.68 clipbox
1074.1 40.68 m
1074.1 113.447 l
1080.23 113.447 l
1080.23 40.68 l
stroke
grestore
0.000 0.647 1.000 setrgbcolor
gsave
1318 325.4 212.6 40.68 clipbox
1129.29 40.68 m
1129.29 118.251 l
1135.42 118.251 l
1135.42 40.68 l
stroke
grestore
1.000 0.188 0.000 setrgbcolor
gsave
1318 325.4 212.6 40.68 clipbox
798.184 40.68 m
798.184 118.842 l
804.316 118.842 l
804.316 40.68 l
stroke
grestore
0.000 0.000 0.502 setrgbcolor
gsave
1318 325.4 212.6 40.68 clipbox
825.776 110.594 m
825.776 119.151 l
stroke
grestore
0.000 setgray
gsave
1318 325.4 212.6 40.68 clipbox
825.776 119.151 m
834.973 119.151 l
stroke
grestore
1.000 0.188 0.000 setrgbcolor
gsave
1318 325.4 212.6 40.68 clipbox
834.973 119.151 m
834.973 40.68 l
stroke
grestore
0.502 0.000 0.000 setrgbcolor
gsave
1318 325.4 212.6 40.68 clipbox
307.663 40.68 m
307.663 119.656 l
316.861 119.656 l
316.861 108.517 l
stroke
grestore
1.000 0.188 0.000 setrgbcolor
gsave
1318 325.4 212.6 40.68 clipbox
785.921 40.68 m
785.921 123.724 l
792.053 123.724 l
792.053 40.68 l
stroke
grestore
0.000 0.647 1.000 setrgbcolor
gsave
1318 325.4 212.6 40.68 clipbox
1117.02 40.68 m
1117.02 123.84 l
1123.15 123.84 l
1123.15 40.68 l
stroke
grestore
0.251 1.000 0.718 setrgbcolor
gsave
1318 325.4 212.6 40.68 clipbox
396.57 112.706 m
396.57 124.967 l
405.768 124.967 l
405.768 40.68 l
stroke
grestore
0.000 0.647 1.000 setrgbcolor
gsave
1318 325.4 212.6 40.68 clipbox
1092.5 40.68 m
1092.5 124.982 l
1101.69 124.982 l
1101.69 109.574 l
stroke
grestore
1.000 0.188 0.000 setrgbcolor
gsave
1318 325.4 212.6 40.68 clipbox
779.79 40.68 m
779.79 125.84 l
788.987 125.84 l
788.987 123.724 l
stroke
grestore
0.000 0.647 1.000 setrgbcolor
gsave
1318 325.4 212.6 40.68 clipbox
1120.09 123.84 m
1120.09 126.122 l
1132.35 126.122 l
1132.35 118.251 l
stroke
grestore
0.502 0.000 0.000 setrgbcolor
gsave
1318 325.4 212.6 40.68 clipbox
312.262 119.656 m
312.262 127.098 l
326.058 127.098 l
326.058 40.68 l
stroke
grestore
1.000 0.188 0.000 setrgbcolor
gsave
1318 325.4 212.6 40.68 clipbox
784.388 125.84 m
784.388 127.435 l
801.25 127.435 l
801.25 118.842 l
stroke
grestore
0.251 1.000 0.718 setrgbcolor
gsave
1318 325.4 212.6 40.68 clipbox
479.346 40.68 m
479.346 129.214 l
485.477 129.214 l
485.477 40.68 l
stroke
grestore
1.000 0.188 0.000 setrgbcolor
gsave
1318 325.4 212.6 40.68 clipbox
816.579 40.68 m
816.579 130.991 l
stroke
grestore
0.000 setgray
gsave
1318 325.4 212.6 40.68 clipbox
816.579 130.991 m
830.375 130.991 l
stroke
grestore
0.000 0.000 0.502 setrgbcolor
gsave
1318 325.4 212.6 40.68 clipbox
830.375 130.991 m
830.375 119.151 l
stroke
grestore
0.251 1.000 0.718 setrgbcolor
gsave
1318 325.4 212.6 40.68 clipbox
436.425 40.68 m
436.425 131.9 l
stroke
grestore
0.000 setgray
gsave
1318 325.4 212.6 40.68 clipbox
436.425 131.9 m
442.557 131.9 l
stroke
grestore
0.000 0.067 1.000 setrgbcolor
gsave
1318 325.4 212.6 40.68 clipbox
442.557 131.9 m
442.557 40.68 l
stroke
grestore
0.000 0.647 1.000 setrgbcolor
gsave
1318 325.4 212.6 40.68 clipbox
1172.21 40.68 m
1172.21 132.938 l
1178.34 132.938 l
1178.34 40.68 l
stroke
grestore
0.718 1.000 0.251 setrgbcolor
gsave
1318 325.4 212.6 40.68 clipbox
1294.84 40.68 m
1294.84 133.319 l
1300.97 133.319 l
1300.97 40.68 l
stroke
grestore
0.251 1.000 0.718 setrgbcolor
gsave
1318 325.4 212.6 40.68 clipbox
454.82 40.68 m
454.82 135.098 l
460.951 135.098 l
460.951 40.68 l
stroke
grestore
gsave
1318 325.4 212.6 40.68 clipbox
448.688 40.68 m
448.688 135.622 l
457.885 135.622 l
457.885 135.098 l
stroke
grestore
1.000 0.725 0.000 setrgbcolor
gsave
1318 325.4 212.6 40.68 clipbox
1429.73 40.68 m
1429.73 136.948 l
1435.86 136.948 l
1435.86 40.68 l
stroke
grestore
1.000 0.188 0.000 setrgbcolor
gsave
1318 325.4 212.6 40.68 clipbox
632.634 40.68 m
632.634 137.157 l
638.765 137.157 l
638.765 40.68 l
stroke
grestore
0.251 1.000 0.718 setrgbcolor
gsave
1318 325.4 212.6 40.68 clipbox
453.287 135.622 m
453.287 137.345 l
467.083 137.345 l
467.083 40.68 l
stroke
grestore
1.000 0.188 0.000 setrgbcolor
gsave
1318 325.4 212.6 40.68 clipbox
841.105 40.68 m
841.105 137.816 l
847.236 137.816 l
847.236 40.68 l
stroke
grestore
gsave
1318 325.4 212.6 40.68 clipbox
810.447 40.68 m
810.447 138.177 l
stroke
grestore
0.000 setgray
gsave
1318 325.4 212.6 40.68 clipbox
810.447 138.177 m
823.477 138.177 l
stroke
grestore
0.000 0.000 0.502 setrgbcolor
gsave
1318 325.4 212.6 40.68 clipbox
823.477 138.177 m
823.477 130.991 l
stroke
grestore
1.000 0.188 0.000 setrgbcolor
gsave
1318 325.4 212.6 40.68 clipbox
844.171 137.816 m
844.171 138.451 l
853.368 138.451 l
853.368 40.68 l
stroke
grestore
gsave
1318 325.4 212.6 40.68 clipbox
773.658 40.68 m
773.658 138.81 l
792.819 138.81 l
792.819 127.435 l
stroke
grestore
1.000 0.725 0.000 setrgbcolor
gsave
1318 325.4 212.6 40.68 clipbox
1466.52 40.68 m
1466.52 139.032 l
1472.65 139.032 l
1472.65 40.68 l
stroke
grestore
1.000 0.188 0.000 setrgbcolor
gsave
1318 325.4 212.6 40.68 clipbox
865.631 40.68 m
865.631 139.999 l
871.763 139.999 l
871.763 40.68 l
stroke
grestore
gsave
1318 325.4 212.6 40.68 clipbox
783.239 138.81 m
783.239 140.993 l
stroke
grestore
0.000 setgray
gsave
1318 325.4 212.6 40.68 clipbox
783.239 140.993 m
816.962 140.993 l
stroke
grestore
0.000 0.000 0.502 setrgbcolor
gsave
1318 325.4 212.6 40.68 clipbox
816.962 140.993 m
816.962 138.177 l
stroke
grestore
0.251 1.000 0.718 setrgbcolor
gsave
1318 325.4 212.6 40.68 clipbox
401.169 124.967 m
401.169 141.235 l
411.899 141.235 l
411.899 40.68 l
stroke
grestore
0.000 0.000 0.502 setrgbcolor
gsave
1318 325.4 212.6 40.68 clipbox
439.491 131.9 m
439.491 143.016 l
stroke
grestore
0.000 setgray
gsave
1318 325.4 212.6 40.68 clipbox
439.491 143.016 m
460.185 143.016 l
stroke
grestore
0.251 1.000 0.718 setrgbcolor
gsave
1318 325.4 212.6 40.68 clipbox
460.185 143.016 m
460.185 137.345 l
stroke
grestore
1.000 0.725 0.000 setrgbcolor
gsave
1318 325.4 212.6 40.68 clipbox
1478.78 40.68 m
1478.78 143.971 l
1484.91 143.971 l
1484.91 40.68 l
stroke
grestore
1.000 0.188 0.000 setrgbcolor
gsave
1318 325.4 212.6 40.68 clipbox
761.395 40.68 m
761.395 144.377 l
767.527 144.377 l
767.527 40.68 l
stroke
grestore
0.502 0.000 0.000 setrgbcolor
gsave
1318 325.4 212.6 40.68 clipbox
1245.78 40.68 m
1245.78 144.656 l
1251.92 144.656 l
1251.92 40.68 l
stroke
grestore
0.000 0.647 1.000 setrgbcolor
gsave
1318 325.4 212.6 40.68 clipbox
1097.1 124.982 m
1097.1 145.058 l
1110.89 145.058 l
1110.89 40.68 l
stroke
grestore
1.000 0.188 0.000 setrgbcolor
gsave
1318 325.4 212.6 40.68 clipbox
848.769 138.451 m
848.769 145.508 l
859.499 145.508 l
859.499 40.68 l
stroke
grestore
0.251 1.000 0.718 setrgbcolor
gsave
1318 325.4 212.6 40.68 clipbox
368.979 40.68 m
368.979 146.167 l
375.11 146.167 l
375.11 40.68 l
stroke
grestore
0.000 0.647 1.000 setrgbcolor
gsave
1318 325.4 212.6 40.68 clipbox
1166.08 40.68 m
1166.08 146.411 l
1175.27 146.411 l
1175.27 132.938 l
stroke
grestore
0.251 1.000 0.718 setrgbcolor
gsave
1318 325.4 212.6 40.68 clipbox
387.373 40.68 m
387.373 146.71 l
406.534 146.71 l
406.534 141.235 l
stroke
grestore
0.502 0.000 0.000 setrgbcolor
gsave
1318 325.4 212.6 40.68 clipbox
1227.39 40.68 m
1227.39 147.146 l
1233.52 147.146 l
1233.52 40.68 l
stroke
grestore
gsave
1318 325.4 212.6 40.68 clipbox
988.261 40.68 m
988.261 147.179 l
994.393 147.179 l
994.393 40.68 l
stroke
grestore
0.251 1.000 0.718 setrgbcolor
gsave
1318 325.4 212.6 40.68 clipbox
301.532 40.68 m
301.532 147.859 l
stroke
grestore
0.000 setgray
gsave
1318 325.4 212.6 40.68 clipbox
301.532 147.859 m
319.16 147.859 l
stroke
grestore
0.502 0.000 0.000 setrgbcolor
gsave
1318 325.4 212.6 40.68 clipbox
319.16 147.859 m
319.16 127.098 l
stroke
grestore
1.000 0.188 0.000 setrgbcolor
gsave
1318 325.4 212.6 40.68 clipbox
601.976 40.68 m
601.976 147.944 l
608.108 147.944 l
608.108 40.68 l
stroke
grestore
1.000 0.725 0.000 setrgbcolor
gsave
1318 325.4 212.6 40.68 clipbox
1448.12 40.68 m
1448.12 148.103 l
1454.26 148.103 l
1454.26 40.68 l
stroke
grestore
0.251 1.000 0.718 setrgbcolor
gsave
1318 325.4 212.6 40.68 clipbox
372.044 146.167 m
372.044 148.257 l
381.242 148.257 l
381.242 40.68 l
stroke
grestore
0.000 0.000 0.502 setrgbcolor
gsave
1318 325.4 212.6 40.68 clipbox
800.1 140.993 m
800.1 148.932 l
stroke
grestore
0.000 setgray
gsave
1318 325.4 212.6 40.68 clipbox
800.1 148.932 m
854.134 148.932 l
stroke
grestore
1.000 0.188 0.000 setrgbcolor
gsave
1318 325.4 212.6 40.68 clipbox
854.134 148.932 m
854.134 145.508 l
stroke
grestore
0.000 0.647 1.000 setrgbcolor
gsave
1318 325.4 212.6 40.68 clipbox
1126.22 126.122 m
1126.22 150.556 l
1141.55 150.556 l
1141.55 40.68 l
stroke
grestore
1.000 0.725 0.000 setrgbcolor
gsave
1318 325.4 212.6 40.68 clipbox
1451.19 148.103 m
1451.19 150.748 l
1460.39 150.748 l
1460.39 40.68 l
stroke
grestore
0.251 1.000 0.718 setrgbcolor
gsave
1318 325.4 212.6 40.68 clipbox
350.584 40.68 m
350.584 150.938 l
356.716 150.938 l
356.716 40.68 l
stroke
grestore
0.000 0.647 1.000 setrgbcolor
gsave
1318 325.4 212.6 40.68 clipbox
1147.68 40.68 m
1147.68 151.379 l
1153.81 151.379 l
1153.81 40.68 l
stroke
grestore
0.251 1.000 0.718 setrgbcolor
gsave
1318 325.4 212.6 40.68 clipbox
396.954 146.71 m
396.954 151.584 l
418.031 151.584 l
418.031 40.68 l
stroke
grestore
1.000 0.188 0.000 setrgbcolor
gsave
1318 325.4 212.6 40.68 clipbox
743.001 40.68 m
743.001 151.749 l
749.132 151.749 l
749.132 40.68 l
stroke
grestore
gsave
1318 325.4 212.6 40.68 clipbox
755.264 40.68 m
755.264 152.515 l
764.461 152.515 l
764.461 144.377 l
stroke
grestore
0.718 1.000 0.251 setrgbcolor
gsave
1318 325.4 212.6 40.68 clipbox
1288.71 40.68 m
1288.71 153.489 l
1297.9 153.489 l
1297.9 133.319 l
stroke
grestore
1.000 0.725 0.000 setrgbcolor
gsave
1318 325.4 212.6 40.68 clipbox
1481.85 143.971 m
1481.85 153.954 l
1491.05 153.954 l
1491.05 40.68 l
stroke
grestore
0.000 0.000 0.502 setrgbcolor
gsave
1318 325.4 212.6 40.68 clipbox
827.117 148.932 m
827.117 154.224 l
stroke
grestore
0.000 setgray
gsave
1318 325.4 212.6 40.68 clipbox
827.117 154.224 m
868.697 154.224 l
stroke
grestore
1.000 0.188 0.000 setrgbcolor
gsave
1318 325.4 212.6 40.68 clipbox
868.697 154.224 m
868.697 139.999 l
stroke
grestore
0.502 0.000 0.000 setrgbcolor
gsave
1318 325.4 212.6 40.68 clipbox
657.16 40.68 m
657.16 154.867 l
663.291 154.867 l
663.291 40.68 l
stroke
grestore
0.251 1.000 0.718 setrgbcolor
gsave
1318 325.4 212.6 40.68 clipbox
407.492 151.584 m
407.492 156.218 l
424.162 156.218 l
424.162 40.68 l
stroke
grestore
0.718 1.000 0.251 setrgbcolor
gsave
1318 325.4 212.6 40.68 clipbox
1055.71 40.68 m
1055.71 156.703 l
1061.84 156.703 l
1061.84 40.68 l
stroke
grestore
0.502 0.000 0.000 setrgbcolor
gsave
1318 325.4 212.6 40.68 clipbox
1037.31 40.68 m
1037.31 156.835 l
1043.44 156.835 l
1043.44 40.68 l
stroke
grestore
gsave
1318 325.4 212.6 40.68 clipbox
651.028 40.68 m
651.028 157.349 l
660.225 157.349 l
660.225 154.867 l
stroke
grestore
0.000 0.647 1.000 setrgbcolor
gsave
1318 325.4 212.6 40.68 clipbox
1170.67 146.411 m
1170.67 157.372 l
1184.47 157.372 l
1184.47 40.68 l
stroke
grestore
0.502 0.000 0.000 setrgbcolor
gsave
1318 325.4 212.6 40.68 clipbox
540.661 40.68 m
540.661 157.537 l
stroke
grestore
0.000 setgray
gsave
1318 325.4 212.6 40.68 clipbox
540.661 157.537 m
546.792 157.537 l
stroke
grestore
0.251 1.000 0.718 setrgbcolor
gsave
1318 325.4 212.6 40.68 clipbox
546.792 157.537 m
546.792 40.68 l
stroke
grestore
1.000 0.188 0.000 setrgbcolor
gsave
1318 325.4 212.6 40.68 clipbox
896.289 40.68 m
896.289 158.042 l
902.42 158.042 l
902.42 40.68 l
stroke
grestore
0.000 0.000 0.502 setrgbcolor
gsave
1318 325.4 212.6 40.68 clipbox
847.907 154.224 m
847.907 158.656 l
stroke
grestore
0.000 setgray
gsave
1318 325.4 212.6 40.68 clipbox
847.907 158.656 m
877.894 158.656 l
stroke
grestore
1.000 0.188 0.000 setrgbcolor
gsave
1318 325.4 212.6 40.68 clipbox
877.894 158.656 m
877.894 40.68 l
stroke
grestore
0.502 0.000 0.000 setrgbcolor
gsave
1318 325.4 212.6 40.68 clipbox
289.269 40.68 m
289.269 159.3 l
stroke
grestore
0.000 setgray
gsave
1318 325.4 212.6 40.68 clipbox
289.269 159.3 m
295.4 159.3 l
stroke
grestore
0.251 1.000 0.718 setrgbcolor
gsave
1318 325.4 212.6 40.68 clipbox
295.4 159.3 m
295.4 40.68 l
stroke
grestore
1.000 0.188 0.000 setrgbcolor
gsave
1318 325.4 212.6 40.68 clipbox
700.08 40.68 m
700.08 159.571 l
706.212 159.571 l
706.212 40.68 l
stroke
grestore
gsave
1318 325.4 212.6 40.68 clipbox
687.817 40.68 m
687.817 161.802 l
693.949 161.802 l
693.949 40.68 l
stroke
grestore
0.251 1.000 0.718 setrgbcolor
gsave
1318 325.4 212.6 40.68 clipbox
415.827 156.218 m
415.827 161.873 l
430.294 161.873 l
430.294 40.68 l
stroke
grestore
0.502 0.000 0.000 setrgbcolor
gsave
1318 325.4 212.6 40.68 clipbox
975.998 40.68 m
975.998 161.985 l
982.13 161.985 l
982.13 40.68 l
stroke
grestore
0.718 1.000 0.251 setrgbcolor
gsave
1318 325.4 212.6 40.68 clipbox
1270.31 40.68 m
1270.31 162.854 l
1276.44 162.854 l
1276.44 40.68 l
stroke
grestore
0.502 0.000 0.000 setrgbcolor
gsave
1318 325.4 212.6 40.68 clipbox
991.327 147.179 m
991.327 163.093 l
1000.52 163.093 l
1000.52 40.68 l
stroke
grestore
1.000 0.188 0.000 setrgbcolor
gsave
1318 325.4 212.6 40.68 clipbox
724.606 40.68 m
724.606 163.731 l
730.738 163.731 l
730.738 40.68 l
stroke
grestore
1.000 0.725 0.000 setrgbcolor
gsave
1318 325.4 212.6 40.68 clipbox
1486.45 153.954 m
1486.45 163.764 l
1497.18 163.764 l
1497.18 40.68 l
stroke
grestore
0.000 0.647 1.000 setrgbcolor
gsave
1318 325.4 212.6 40.68 clipbox
1103.99 145.058 m
1103.99 163.773 l
1133.88 163.773 l
1133.88 150.556 l
stroke
grestore
0.718 1.000 0.251 setrgbcolor
gsave
1318 325.4 212.6 40.68 clipbox
1293.3 153.489 m
1293.3 164.05 l
1307.1 164.05 l
1307.1 40.68 l
stroke
grestore
0.000 0.647 1.000 setrgbcolor
gsave
1318 325.4 212.6 40.68 clipbox
1159.94 40.68 m
1159.94 164.073 l
1177.57 164.073 l
1177.57 157.372 l
stroke
grestore
1.000 0.188 0.000 setrgbcolor
gsave
1318 325.4 212.6 40.68 clipbox
884.026 40.68 m
884.026 164.116 l
890.157 164.116 l
890.157 40.68 l
stroke
grestore
gsave
1318 325.4 212.6 40.68 clipbox
914.683 40.68 m
914.683 164.46 l
920.815 164.46 l
920.815 40.68 l
stroke
grestore
0.251 1.000 0.718 setrgbcolor
gsave
1318 325.4 212.6 40.68 clipbox
423.06 161.873 m
423.06 164.493 l
stroke
grestore
0.000 setgray
gsave
1318 325.4 212.6 40.68 clipbox
423.06 164.493 m
449.838 164.493 l
stroke
grestore
0.000 0.000 0.502 setrgbcolor
gsave
1318 325.4 212.6 40.68 clipbox
449.838 164.493 m
449.838 143.016 l
stroke
grestore
0.000 0.647 1.000 setrgbcolor
gsave
1318 325.4 212.6 40.68 clipbox
1118.94 163.773 m
1118.94 164.899 l
1150.75 164.899 l
1150.75 151.379 l
stroke
grestore
0.502 0.000 0.000 setrgbcolor
gsave
1318 325.4 212.6 40.68 clipbox
969.867 40.68 m
969.867 164.989 l
979.064 164.989 l
979.064 161.985 l
stroke
grestore
1.000 0.188 0.000 setrgbcolor
gsave
1318 325.4 212.6 40.68 clipbox
614.239 40.68 m
614.239 165.866 l
620.371 165.866 l
620.371 40.68 l
stroke
grestore
0.000 0.067 1.000 setrgbcolor
gsave
1318 325.4 212.6 40.68 clipbox
1006.66 40.68 m
1006.66 166.299 l
1012.79 166.299 l
1012.79 40.68 l
stroke
grestore
1.000 0.188 0.000 setrgbcolor
gsave
1318 325.4 212.6 40.68 clipbox
736.869 40.68 m
736.869 166.358 l
746.067 166.358 l
746.067 151.749 l
stroke
grestore
0.000 0.000 0.502 setrgbcolor
gsave
1318 325.4 212.6 40.68 clipbox
292.335 159.3 m
292.335 166.623 l
stroke
grestore
0.000 setgray
gsave
1318 325.4 212.6 40.68 clipbox
292.335 166.623 m
310.346 166.623 l
stroke
grestore
0.000 0.000 0.502 setrgbcolor
gsave
1318 325.4 212.6 40.68 clipbox
310.346 166.623 m
310.346 147.859 l
stroke
grestore
0.251 1.000 0.718 setrgbcolor
gsave
1318 325.4 212.6 40.68 clipbox
362.847 40.68 m
362.847 167.839 l
376.643 167.839 l
376.643 148.257 l
stroke
grestore
gsave
1318 325.4 212.6 40.68 clipbox
482.412 129.214 m
482.412 167.973 l
491.609 167.973 l
491.609 40.68 l
stroke
grestore
1.000 0.188 0.000 setrgbcolor
gsave
1318 325.4 212.6 40.68 clipbox
681.686 40.68 m
681.686 168.299 l
690.883 168.299 l
690.883 161.802 l
stroke
grestore
gsave
1318 325.4 212.6 40.68 clipbox
759.862 152.515 m
759.862 169.487 l
stroke
grestore
0.000 setgray
gsave
1318 325.4 212.6 40.68 clipbox
759.862 169.487 m
862.901 169.487 l
stroke
grestore
0.000 0.000 0.502 setrgbcolor
gsave
1318 325.4 212.6 40.68 clipbox
862.901 169.487 m
862.901 158.656 l
stroke
grestore
1.000 0.188 0.000 setrgbcolor
gsave
1318 325.4 212.6 40.68 clipbox
595.844 40.68 m
595.844 170.055 l
605.042 170.055 l
605.042 147.944 l
stroke
grestore
gsave
1318 325.4 212.6 40.68 clipbox
703.146 159.571 m
703.146 170.059 l
712.343 170.059 l
712.343 40.68 l
stroke
grestore
0.251 1.000 0.718 setrgbcolor
gsave
1318 325.4 212.6 40.68 clipbox
369.745 167.839 m
369.745 171.194 l
stroke
grestore
0.000 setgray
gsave
1318 325.4 212.6 40.68 clipbox
369.745 171.194 m
436.449 171.194 l
stroke
grestore
0.000 0.000 0.502 setrgbcolor
gsave
1318 325.4 212.6 40.68 clipbox
436.449 171.194 m
436.449 164.493 l
stroke
grestore
0.251 1.000 0.718 setrgbcolor
gsave
1318 325.4 212.6 40.68 clipbox
344.452 40.68 m
344.452 172.237 l
353.65 172.237 l
353.65 150.938 l
stroke
grestore
1.000 0.188 0.000 setrgbcolor
gsave
1318 325.4 212.6 40.68 clipbox
727.672 163.731 m
727.672 172.441 l
741.468 172.441 l
741.468 166.358 l
stroke
grestore
gsave
1318 325.4 212.6 40.68 clipbox
675.554 40.68 m
675.554 172.583 l
686.284 172.583 l
686.284 168.299 l
stroke
grestore
gsave
1318 325.4 212.6 40.68 clipbox
899.354 158.042 m
899.354 172.971 l
908.552 172.971 l
908.552 40.68 l
stroke
grestore
gsave
1318 325.4 212.6 40.68 clipbox
635.699 137.157 m
635.699 173.546 l
644.897 173.546 l
644.897 40.68 l
stroke
grestore
0.251 1.000 0.718 setrgbcolor
gsave
1318 325.4 212.6 40.68 clipbox
332.189 40.68 m
332.189 173.816 l
338.321 173.816 l
338.321 40.68 l
stroke
grestore
0.000 0.067 1.000 setrgbcolor
gsave
1318 325.4 212.6 40.68 clipbox
1018.92 40.68 m
1018.92 173.89 l
1025.05 173.89 l
1025.05 40.68 l
stroke
grestore
0.000 0.647 1.000 setrgbcolor
gsave
1318 325.4 212.6 40.68 clipbox
1134.84 164.899 m
1134.84 174.557 l
1168.76 174.557 l
1168.76 164.073 l
stroke
grestore
0.502 0.000 0.000 setrgbcolor
gsave
1318 325.4 212.6 40.68 clipbox
1325.49 40.68 m
1325.49 174.632 l
stroke
grestore
0.000 setgray
gsave
1318 325.4 212.6 40.68 clipbox
1325.49 174.632 m
1331.63 174.632 l
stroke
grestore
0.000 0.067 1.000 setrgbcolor
gsave
1318 325.4 212.6 40.68 clipbox
1331.63 174.632 m
1331.63 40.68 l
stroke
grestore
1.000 0.188 0.000 setrgbcolor
gsave
1318 325.4 212.6 40.68 clipbox
734.57 172.441 m
734.57 175.842 l
stroke
grestore
0.000 setgray
gsave
1318 325.4 212.6 40.68 clipbox
734.57 175.842 m
811.381 175.842 l
stroke
grestore
0.000 0.000 0.502 setrgbcolor
gsave
1318 325.4 212.6 40.68 clipbox
811.381 175.842 m
811.381 169.487 l
stroke
grestore
0.502 0.000 0.000 setrgbcolor
gsave
1318 325.4 212.6 40.68 clipbox
577.45 40.68 m
577.45 175.866 l
stroke
grestore
0.000 setgray
gsave
1318 325.4 212.6 40.68 clipbox
577.45 175.866 m
583.581 175.866 l
stroke
grestore
0.000 0.067 1.000 setrgbcolor
gsave
1318 325.4 212.6 40.68 clipbox
583.581 175.866 m
583.581 40.68 l
stroke
grestore
0.502 0.000 0.000 setrgbcolor
gsave
1318 325.4 212.6 40.68 clipbox
1202.86 40.68 m
1202.86 177.8 l
stroke
grestore
0.000 setgray
gsave
1318 325.4 212.6 40.68 clipbox
1202.86 177.8 m
1209 177.8 l
stroke
grestore
0.251 1.000 0.718 setrgbcolor
gsave
1318 325.4 212.6 40.68 clipbox
1209 177.8 m
1209 40.68 l
stroke
grestore
gsave
1318 325.4 212.6 40.68 clipbox
349.051 172.237 m
349.051 178.123 l
stroke
grestore
0.000 setgray
gsave
1318 325.4 212.6 40.68 clipbox
349.051 178.123 m
403.097 178.123 l
stroke
grestore
0.000 0.000 0.502 setrgbcolor
gsave
1318 325.4 212.6 40.68 clipbox
403.097 178.123 m
403.097 171.194 l
stroke
grestore
1.000 0.188 0.000 setrgbcolor
gsave
1318 325.4 212.6 40.68 clipbox
707.745 170.059 m
707.745 178.134 l
718.475 178.134 l
718.475 40.68 l
stroke
grestore
0.251 1.000 0.718 setrgbcolor
gsave
1318 325.4 212.6 40.68 clipbox
473.214 40.68 m
473.214 178.552 l
487.01 178.552 l
487.01 167.973 l
stroke
grestore
0.502 0.000 0.000 setrgbcolor
gsave
1318 325.4 212.6 40.68 clipbox
963.735 40.68 m
963.735 178.816 l
974.465 178.816 l
974.465 164.989 l
stroke
grestore
1.000 0.188 0.000 setrgbcolor
gsave
1318 325.4 212.6 40.68 clipbox
669.423 40.68 m
669.423 178.884 l
680.919 178.884 l
680.919 172.583 l
stroke
grestore
0.502 0.000 0.000 setrgbcolor
gsave
1318 325.4 212.6 40.68 clipbox
1215.13 40.68 m
1215.13 180.036 l
1221.26 180.036 l
1221.26 40.68 l
stroke
grestore
0.000 0.000 0.502 setrgbcolor
gsave
1318 325.4 212.6 40.68 clipbox
301.34 166.623 m
301.34 180.631 l
stroke
grestore
0.000 setgray
gsave
1318 325.4 212.6 40.68 clipbox
301.34 180.631 m
335.255 180.631 l
stroke
grestore
0.251 1.000 0.718 setrgbcolor
gsave
1318 325.4 212.6 40.68 clipbox
335.255 180.631 m
335.255 173.816 l
stroke
grestore
1.000 0.188 0.000 setrgbcolor
gsave
1318 325.4 212.6 40.68 clipbox
903.953 172.971 m
903.953 180.632 l
917.749 180.632 l
917.749 164.46 l
stroke
grestore
gsave
1318 325.4 212.6 40.68 clipbox
600.443 170.055 m
600.443 181.658 l
617.305 181.658 l
617.305 165.866 l
stroke
grestore
1.000 0.725 0.000 setrgbcolor
gsave
1318 325.4 212.6 40.68 clipbox
1417.47 40.68 m
1417.47 182.834 l
1423.6 182.834 l
1423.6 40.68 l
stroke
grestore
0.502 0.000 0.000 setrgbcolor
gsave
1318 325.4 212.6 40.68 clipbox
221.822 40.68 m
221.822 182.973 l
stroke
grestore
0.000 setgray
gsave
1318 325.4 212.6 40.68 clipbox
221.822 182.973 m
227.954 182.973 l
stroke
grestore
0.251 1.000 0.718 setrgbcolor
gsave
1318 325.4 212.6 40.68 clipbox
227.954 182.973 m
227.954 40.68 l
stroke
grestore
gsave
1318 325.4 212.6 40.68 clipbox
283.137 40.68 m
283.137 183.967 l
stroke
grestore
0.000 setgray
gsave
1318 325.4 212.6 40.68 clipbox
283.137 183.967 m
318.298 183.967 l
stroke
grestore
0.000 0.000 0.502 setrgbcolor
gsave
1318 325.4 212.6 40.68 clipbox
318.298 183.967 m
318.298 180.631 l
stroke
grestore
0.502 0.000 0.000 setrgbcolor
gsave
1318 325.4 212.6 40.68 clipbox
939.209 40.68 m
939.209 185.059 l
945.341 185.059 l
945.341 40.68 l
stroke
grestore
0.000 0.000 0.502 setrgbcolor
gsave
1318 325.4 212.6 40.68 clipbox
376.074 178.123 m
376.074 185.437 l
stroke
grestore
0.000 setgray
gsave
1318 325.4 212.6 40.68 clipbox
376.074 185.437 m
480.112 185.437 l
stroke
grestore
0.251 1.000 0.718 setrgbcolor
gsave
1318 325.4 212.6 40.68 clipbox
480.112 185.437 m
480.112 178.552 l
stroke
grestore
0.502 0.000 0.000 setrgbcolor
gsave
1318 325.4 212.6 40.68 clipbox
969.1 178.816 m
969.1 185.757 l
995.926 185.757 l
995.926 163.093 l
stroke
grestore
0.251 1.000 0.718 setrgbcolor
gsave
1318 325.4 212.6 40.68 clipbox
270.874 40.68 m
270.874 185.957 l
277.006 185.957 l
277.006 40.68 l
stroke
grestore
0.000 0.000 0.502 setrgbcolor
gsave
1318 325.4 212.6 40.68 clipbox
772.976 175.842 m
772.976 186.369 l
stroke
grestore
0.000 setgray
gsave
1318 325.4 212.6 40.68 clipbox
772.976 186.369 m
887.091 186.369 l
stroke
grestore
1.000 0.188 0.000 setrgbcolor
gsave
1318 325.4 212.6 40.68 clipbox
887.091 186.369 m
887.091 164.116 l
stroke
grestore
0.502 0.000 0.000 setrgbcolor
gsave
1318 325.4 212.6 40.68 clipbox
1190.6 40.68 m
1190.6 186.476 l
1196.73 186.476 l
1196.73 40.68 l
stroke
grestore
0.000 0.067 1.000 setrgbcolor
gsave
1318 325.4 212.6 40.68 clipbox
1021.98 173.89 m
1021.98 187.106 l
1031.18 187.106 l
1031.18 40.68 l
stroke
grestore
1.000 0.188 0.000 setrgbcolor
gsave
1318 325.4 212.6 40.68 clipbox
675.171 178.884 m
675.171 187.334 l
713.11 187.334 l
713.11 178.134 l
stroke
grestore
0.502 0.000 0.000 setrgbcolor
gsave
1318 325.4 212.6 40.68 clipbox
1248.85 144.656 m
1248.85 187.577 l
1258.05 187.577 l
1258.05 40.68 l
stroke
grestore
gsave
1318 325.4 212.6 40.68 clipbox
516.135 40.68 m
516.135 187.763 l
522.266 187.763 l
522.266 40.68 l
stroke
grestore
gsave
1318 325.4 212.6 40.68 clipbox
589.713 40.68 m
589.713 188.411 l
stroke
grestore
0.000 setgray
gsave
1318 325.4 212.6 40.68 clipbox
589.713 188.411 m
608.874 188.411 l
stroke
grestore
1.000 0.188 0.000 setrgbcolor
gsave
1318 325.4 212.6 40.68 clipbox
608.874 188.411 m
608.874 181.658 l
stroke
grestore
1.000 0.725 0.000 setrgbcolor
gsave
1318 325.4 212.6 40.68 clipbox
1399.07 40.68 m
1399.07 190.315 l
1405.2 190.315 l
1405.2 40.68 l
stroke
grestore
0.502 0.000 0.000 setrgbcolor
gsave
1318 325.4 212.6 40.68 clipbox
1337.76 40.68 m
1337.76 190.876 l
stroke
grestore
0.000 setgray
gsave
1318 325.4 212.6 40.68 clipbox
1337.76 190.876 m
1343.89 190.876 l
stroke
grestore
0.251 1.000 0.718 setrgbcolor
gsave
1318 325.4 212.6 40.68 clipbox
1343.89 190.876 m
1343.89 40.68 l
stroke
grestore
gsave
1318 325.4 212.6 40.68 clipbox
497.74 40.68 m
497.74 191.231 l
503.872 191.231 l
503.872 40.68 l
stroke
grestore
0.718 1.000 0.251 setrgbcolor
gsave
1318 325.4 212.6 40.68 clipbox
1058.77 156.703 m
1058.77 191.483 l
1067.97 191.483 l
1067.97 40.68 l
stroke
grestore
0.000 0.000 0.502 setrgbcolor
gsave
1318 325.4 212.6 40.68 clipbox
830.033 186.369 m
830.033 191.744 l
stroke
grestore
0.000 setgray
gsave
1318 325.4 212.6 40.68 clipbox
830.033 191.744 m
910.851 191.744 l
stroke
grestore
1.000 0.188 0.000 setrgbcolor
gsave
1318 325.4 212.6 40.68 clipbox
910.851 191.744 m
910.851 180.632 l
stroke
grestore
0.502 0.000 0.000 setrgbcolor
gsave
1318 325.4 212.6 40.68 clipbox
951.472 40.68 m
951.472 192.192 l
957.604 192.192 l
957.604 40.68 l
stroke
grestore
0.000 0.647 1.000 setrgbcolor
gsave
1318 325.4 212.6 40.68 clipbox
1086.37 40.68 m
1086.37 192.844 l
1151.8 192.844 l
1151.8 174.557 l
stroke
grestore
0.718 1.000 0.251 setrgbcolor
gsave
1318 325.4 212.6 40.68 clipbox
1273.38 162.854 m
1273.38 192.958 l
1282.57 192.958 l
1282.57 40.68 l
stroke
grestore
1.000 0.188 0.000 setrgbcolor
gsave
1318 325.4 212.6 40.68 clipbox
926.946 40.68 m
926.946 193.422 l
933.078 193.422 l
933.078 40.68 l
stroke
grestore
1.000 0.725 0.000 setrgbcolor
gsave
1318 325.4 212.6 40.68 clipbox
1455.79 150.748 m
1455.79 194.543 l
1469.58 194.543 l
1469.58 139.032 l
stroke
grestore
0.502 0.000 0.000 setrgbcolor
gsave
1318 325.4 212.6 40.68 clipbox
534.529 40.68 m
534.529 194.8 l
stroke
grestore
0.000 setgray
gsave
1318 325.4 212.6 40.68 clipbox
534.529 194.8 m
543.727 194.8 l
stroke
grestore
0.000 0.000 0.502 setrgbcolor
gsave
1318 325.4 212.6 40.68 clipbox
543.727 194.8 m
543.727 157.537 l
stroke
grestore
1.000 0.188 0.000 setrgbcolor
gsave
1318 325.4 212.6 40.68 clipbox
640.298 173.546 m
640.298 195.089 l
stroke
grestore
0.000 setgray
gsave
1318 325.4 212.6 40.68 clipbox
640.298 195.089 m
655.627 195.089 l
stroke
grestore
0.502 0.000 0.000 setrgbcolor
gsave
1318 325.4 212.6 40.68 clipbox
655.627 195.089 m
655.627 157.349 l
stroke
grestore
gsave
1318 325.4 212.6 40.68 clipbox
519.201 187.763 m
519.201 195.157 l
528.398 195.157 l
528.398 40.68 l
stroke
grestore
0.000 0.000 0.502 setrgbcolor
gsave
1318 325.4 212.6 40.68 clipbox
300.718 183.967 m
300.718 196.675 l
stroke
grestore
0.000 setgray
gsave
1318 325.4 212.6 40.68 clipbox
300.718 196.675 m
428.093 196.675 l
stroke
grestore
0.000 0.000 0.502 setrgbcolor
gsave
1318 325.4 212.6 40.68 clipbox
428.093 196.675 m
428.093 185.437 l
stroke
grestore
1.000 0.188 0.000 setrgbcolor
gsave
1318 325.4 212.6 40.68 clipbox
694.14 187.334 m
694.14 197.08 l
stroke
grestore
0.000 setgray
gsave
1318 325.4 212.6 40.68 clipbox
694.14 197.08 m
870.442 197.08 l
stroke
grestore
0.000 0.000 0.502 setrgbcolor
gsave
1318 325.4 212.6 40.68 clipbox
870.442 197.08 m
870.442 191.744 l
stroke
grestore
1.000 0.725 0.000 setrgbcolor
gsave
1318 325.4 212.6 40.68 clipbox
1462.69 194.543 m
1462.69 197.505 l
1491.81 197.505 l
1491.81 163.764 l
stroke
grestore
0.502 0.000 0.000 setrgbcolor
gsave
1318 325.4 212.6 40.68 clipbox
942.275 185.059 m
942.275 197.962 l
954.538 197.962 l
954.538 192.192 l
stroke
grestore
gsave
1318 325.4 212.6 40.68 clipbox
1253.45 187.577 m
1253.45 198.267 l
1264.18 198.267 l
1264.18 40.68 l
stroke
grestore
1.000 0.725 0.000 setrgbcolor
gsave
1318 325.4 212.6 40.68 clipbox
1521.7 40.68 m
1521.7 199.006 l
1527.83 199.006 l
1527.83 40.68 l
stroke
grestore
0.502 0.000 0.000 setrgbcolor
gsave
1318 325.4 212.6 40.68 clipbox
1218.19 180.036 m
1218.19 200.214 l
1230.46 200.214 l
1230.46 147.146 l
stroke
grestore
0.718 1.000 0.251 setrgbcolor
gsave
1318 325.4 212.6 40.68 clipbox
1277.98 192.958 m
1277.98 200.498 l
1300.2 200.498 l
1300.2 164.05 l
stroke
grestore
0.000 0.000 0.502 setrgbcolor
gsave
1318 325.4 212.6 40.68 clipbox
539.128 194.8 m
539.128 200.537 l
stroke
grestore
0.000 setgray
gsave
1318 325.4 212.6 40.68 clipbox
539.128 200.537 m
552.924 200.537 l
stroke
grestore
0.502 0.000 0.000 setrgbcolor
gsave
1318 325.4 212.6 40.68 clipbox
552.924 200.537 m
552.924 40.68 l
stroke
grestore
gsave
1318 325.4 212.6 40.68 clipbox
559.055 40.68 m
559.055 201.212 l
565.187 201.212 l
565.187 40.68 l
stroke
grestore
0.000 0.000 0.502 setrgbcolor
gsave
1318 325.4 212.6 40.68 clipbox
1340.82 190.876 m
1340.82 202.521 l
stroke
grestore
0.000 setgray
gsave
1318 325.4 212.6 40.68 clipbox
1340.82 202.521 m
1350.02 202.521 l
stroke
grestore
0.251 1.000 0.718 setrgbcolor
gsave
1318 325.4 212.6 40.68 clipbox
1350.02 202.521 m
1350.02 40.68 l
stroke
grestore
0.000 0.067 1.000 setrgbcolor
gsave
1318 325.4 212.6 40.68 clipbox
1009.72 166.299 m
1009.72 202.582 l
1026.58 202.582 l
1026.58 187.106 l
stroke
grestore
0.251 1.000 0.718 setrgbcolor
gsave
1318 325.4 212.6 40.68 clipbox
264.743 40.68 m
264.743 203.182 l
273.94 203.182 l
273.94 185.957 l
stroke
grestore
0.000 0.000 0.502 setrgbcolor
gsave
1318 325.4 212.6 40.68 clipbox
364.405 196.675 m
364.405 204.627 l
stroke
grestore
0.000 setgray
gsave
1318 325.4 212.6 40.68 clipbox
364.405 204.627 m
500.806 204.627 l
stroke
grestore
0.251 1.000 0.718 setrgbcolor
gsave
1318 325.4 212.6 40.68 clipbox
500.806 204.627 m
500.806 191.231 l
stroke
grestore
0.502 0.000 0.000 setrgbcolor
gsave
1318 325.4 212.6 40.68 clipbox
1077.17 113.447 m
1077.17 205.057 l
stroke
grestore
0.000 setgray
gsave
1318 325.4 212.6 40.68 clipbox
1077.17 205.057 m
1119.08 205.057 l
stroke
grestore
0.000 0.647 1.000 setrgbcolor
gsave
1318 325.4 212.6 40.68 clipbox
1119.08 205.057 m
1119.08 192.844 l
stroke
grestore
0.718 1.000 0.251 setrgbcolor
gsave
1318 325.4 212.6 40.68 clipbox
1289.09 200.498 m
1289.09 205.218 l
1313.23 205.218 l
1313.23 40.68 l
stroke
grestore
0.000 0.000 0.502 setrgbcolor
gsave
1318 325.4 212.6 40.68 clipbox
647.962 195.089 m
647.962 208.622 l
stroke
grestore
0.000 setgray
gsave
1318 325.4 212.6 40.68 clipbox
647.962 208.622 m
782.291 208.622 l
stroke
grestore
0.000 0.000 0.502 setrgbcolor
gsave
1318 325.4 212.6 40.68 clipbox
782.291 208.622 m
782.291 197.08 l
stroke
grestore
1.000 0.725 0.000 setrgbcolor
gsave
1318 325.4 212.6 40.68 clipbox
1515.57 40.68 m
1515.57 209.054 l
1524.77 209.054 l
1524.77 199.006 l
stroke
grestore
gsave
1318 325.4 212.6 40.68 clipbox
1441.99 40.68 m
1441.99 209.653 l
1477.25 209.653 l
1477.25 197.505 l
stroke
grestore
0.502 0.000 0.000 setrgbcolor
gsave
1318 325.4 212.6 40.68 clipbox
1040.38 156.835 m
1040.38 210.567 l
1049.58 210.567 l
1049.58 40.68 l
stroke
grestore
0.000 0.067 1.000 setrgbcolor
gsave
1318 325.4 212.6 40.68 clipbox
571.318 40.68 m
571.318 210.88 l
stroke
grestore
0.000 setgray
gsave
1318 325.4 212.6 40.68 clipbox
571.318 210.88 m
580.516 210.88 l
stroke
grestore
0.000 0.000 0.502 setrgbcolor
gsave
1318 325.4 212.6 40.68 clipbox
580.516 210.88 m
580.516 175.866 l
stroke
grestore
1.000 0.188 0.000 setrgbcolor
gsave
1318 325.4 212.6 40.68 clipbox
626.502 40.68 m
626.502 213.729 l
stroke
grestore
0.000 setgray
gsave
1318 325.4 212.6 40.68 clipbox
626.502 213.729 m
715.127 213.729 l
stroke
grestore
0.000 0.000 0.502 setrgbcolor
gsave
1318 325.4 212.6 40.68 clipbox
715.127 213.729 m
715.127 208.622 l
stroke
grestore
0.251 1.000 0.718 setrgbcolor
gsave
1318 325.4 212.6 40.68 clipbox
258.611 40.68 m
258.611 214.144 l
269.341 214.144 l
269.341 203.182 l
stroke
grestore
1.000 0.725 0.000 setrgbcolor
gsave
1318 325.4 212.6 40.68 clipbox
1402.14 190.315 m
1402.14 214.159 l
1411.34 214.159 l
1411.34 40.68 l
stroke
grestore
0.502 0.000 0.000 setrgbcolor
gsave
1318 325.4 212.6 40.68 clipbox
948.406 197.962 m
948.406 215.633 l
982.513 215.633 l
982.513 185.757 l
stroke
grestore
0.000 0.000 0.502 setrgbcolor
gsave
1318 325.4 212.6 40.68 clipbox
546.026 200.537 m
546.026 215.884 l
stroke
grestore
0.000 setgray
gsave
1318 325.4 212.6 40.68 clipbox
546.026 215.884 m
562.121 215.884 l
stroke
grestore
0.502 0.000 0.000 setrgbcolor
gsave
1318 325.4 212.6 40.68 clipbox
562.121 215.884 m
562.121 201.212 l
stroke
grestore
0.000 0.000 0.502 setrgbcolor
gsave
1318 325.4 212.6 40.68 clipbox
432.606 204.627 m
432.606 217.052 l
stroke
grestore
0.000 setgray
gsave
1318 325.4 212.6 40.68 clipbox
432.606 217.052 m
510.003 217.052 l
stroke
grestore
0.251 1.000 0.718 setrgbcolor
gsave
1318 325.4 212.6 40.68 clipbox
510.003 217.052 m
510.003 40.68 l
stroke
grestore
0.000 0.000 0.502 setrgbcolor
gsave
1318 325.4 212.6 40.68 clipbox
599.293 188.411 m
599.293 217.449 l
stroke
grestore
0.000 setgray
gsave
1318 325.4 212.6 40.68 clipbox
599.293 217.449 m
670.814 217.449 l
stroke
grestore
0.000 0.000 0.502 setrgbcolor
gsave
1318 325.4 212.6 40.68 clipbox
670.814 217.449 m
670.814 213.729 l
stroke
grestore
gsave
1318 325.4 212.6 40.68 clipbox
635.054 217.449 m
635.054 220.968 l
stroke
grestore
0.000 setgray
gsave
1318 325.4 212.6 40.68 clipbox
635.054 220.968 m
930.012 220.968 l
stroke
grestore
1.000 0.188 0.000 setrgbcolor
gsave
1318 325.4 212.6 40.68 clipbox
930.012 220.968 m
930.012 193.422 l
stroke
grestore
0.251 1.000 0.718 setrgbcolor
gsave
1318 325.4 212.6 40.68 clipbox
263.976 214.144 m
263.976 221.776 l
stroke
grestore
0.000 setgray
gsave
1318 325.4 212.6 40.68 clipbox
263.976 221.776 m
471.305 221.776 l
stroke
grestore
0.000 0.000 0.502 setrgbcolor
gsave
1318 325.4 212.6 40.68 clipbox
471.305 221.776 m
471.305 217.052 l
stroke
grestore
0.502 0.000 0.000 setrgbcolor
gsave
1318 325.4 212.6 40.68 clipbox
965.46 215.633 m
965.46 221.857 l
stroke
grestore
0.000 setgray
gsave
1318 325.4 212.6 40.68 clipbox
965.46 221.857 m
1018.15 221.857 l
stroke
grestore
0.000 0.067 1.000 setrgbcolor
gsave
1318 325.4 212.6 40.68 clipbox
1018.15 221.857 m
1018.15 202.582 l
stroke
grestore
0.502 0.000 0.000 setrgbcolor
gsave
1318 325.4 212.6 40.68 clipbox
523.799 195.157 m
523.799 222.439 l
stroke
grestore
0.000 setgray
gsave
1318 325.4 212.6 40.68 clipbox
523.799 222.439 m
554.074 222.439 l
stroke
grestore
0.000 0.000 0.502 setrgbcolor
gsave
1318 325.4 212.6 40.68 clipbox
554.074 222.439 m
554.074 215.884 l
stroke
grestore
0.718 1.000 0.251 setrgbcolor
gsave
1318 325.4 212.6 40.68 clipbox
1063.37 191.483 m
1063.37 223.106 l
stroke
grestore
0.000 setgray
gsave
1318 325.4 212.6 40.68 clipbox
1063.37 223.106 m
1098.13 223.106 l
stroke
grestore
0.000 0.000 0.502 setrgbcolor
gsave
1318 325.4 212.6 40.68 clipbox
1098.13 223.106 m
1098.13 205.057 l
stroke
grestore
gsave
1318 325.4 212.6 40.68 clipbox
1205.93 177.8 m
1205.93 223.122 l
stroke
grestore
0.000 setgray
gsave
1318 325.4 212.6 40.68 clipbox
1205.93 223.122 m
1224.32 223.122 l
stroke
grestore
0.502 0.000 0.000 setrgbcolor
gsave
1318 325.4 212.6 40.68 clipbox
1224.32 223.122 m
1224.32 200.214 l
stroke
grestore
1.000 0.725 0.000 setrgbcolor
gsave
1318 325.4 212.6 40.68 clipbox
1509.44 40.68 m
1509.44 226.068 l
1520.17 226.068 l
1520.17 209.054 l
stroke
grestore
gsave
1318 325.4 212.6 40.68 clipbox
1362.28 40.68 m
1362.28 227.914 l
1368.41 227.914 l
1368.41 40.68 l
stroke
grestore
0.718 1.000 0.251 setrgbcolor
gsave
1318 325.4 212.6 40.68 clipbox
1301.16 205.218 m
1301.16 229.81 l
1319.36 229.81 l
1319.36 40.68 l
stroke
grestore
1.000 0.725 0.000 setrgbcolor
gsave
1318 325.4 212.6 40.68 clipbox
1406.74 214.159 m
1406.74 229.923 l
1420.53 229.923 l
1420.53 182.834 l
stroke
grestore
0.000 0.000 0.502 setrgbcolor
gsave
1318 325.4 212.6 40.68 clipbox
538.936 222.439 m
538.936 230.596 l
stroke
grestore
0.000 setgray
gsave
1318 325.4 212.6 40.68 clipbox
538.936 230.596 m
575.917 230.596 l
stroke
grestore
0.000 0.000 0.502 setrgbcolor
gsave
1318 325.4 212.6 40.68 clipbox
575.917 230.596 m
575.917 210.88 l
stroke
grestore
0.502 0.000 0.000 setrgbcolor
gsave
1318 325.4 212.6 40.68 clipbox
1193.67 186.476 m
1193.67 234.405 l
stroke
grestore
0.000 setgray
gsave
1318 325.4 212.6 40.68 clipbox
1193.67 234.405 m
1215.13 234.405 l
stroke
grestore
0.000 0.000 0.502 setrgbcolor
gsave
1318 325.4 212.6 40.68 clipbox
1215.13 234.405 m
1215.13 223.122 l
stroke
grestore
0.502 0.000 0.000 setrgbcolor
gsave
1318 325.4 212.6 40.68 clipbox
252.48 40.68 m
252.48 235.637 l
stroke
grestore
0.000 setgray
gsave
1318 325.4 212.6 40.68 clipbox
252.48 235.637 m
367.64 235.637 l
stroke
grestore
0.000 0.000 0.502 setrgbcolor
gsave
1318 325.4 212.6 40.68 clipbox
367.64 235.637 m
367.64 221.776 l
stroke
grestore
1.000 0.725 0.000 setrgbcolor
gsave
1318 325.4 212.6 40.68 clipbox
1432.8 136.948 m
1432.8 236.107 l
1459.62 236.107 l
1459.62 209.653 l
stroke
grestore
gsave
1318 325.4 212.6 40.68 clipbox
1413.63 229.923 m
1413.63 240.094 l
1446.21 240.094 l
1446.21 236.107 l
stroke
grestore
0.502 0.000 0.000 setrgbcolor
gsave
1318 325.4 212.6 40.68 clipbox
1239.65 40.68 m
1239.65 241.988 l
1258.81 241.988 l
1258.81 198.267 l
stroke
grestore
0.000 0.000 0.502 setrgbcolor
gsave
1318 325.4 212.6 40.68 clipbox
310.06 235.637 m
310.06 242.44 l
stroke
grestore
0.000 setgray
gsave
1318 325.4 212.6 40.68 clipbox
310.06 242.44 m
557.427 242.44 l
stroke
grestore
0.000 0.000 0.502 setrgbcolor
gsave
1318 325.4 212.6 40.68 clipbox
557.427 242.44 m
557.427 230.596 l
stroke
grestore
gsave
1318 325.4 212.6 40.68 clipbox
782.533 220.968 m
782.533 242.692 l
stroke
grestore
0.000 setgray
gsave
1318 325.4 212.6 40.68 clipbox
782.533 242.692 m
991.806 242.692 l
stroke
grestore
0.000 0.000 0.502 setrgbcolor
gsave
1318 325.4 212.6 40.68 clipbox
991.806 242.692 m
991.806 221.857 l
stroke
grestore
1.000 0.725 0.000 setrgbcolor
gsave
1318 325.4 212.6 40.68 clipbox
1429.92 240.094 m
1429.92 247.487 l
1503.31 247.487 l
1503.31 40.68 l
stroke
grestore
0.502 0.000 0.000 setrgbcolor
gsave
1318 325.4 212.6 40.68 clipbox
1044.98 210.567 m
1044.98 249.552 l
stroke
grestore
0.000 setgray
gsave
1318 325.4 212.6 40.68 clipbox
1044.98 249.552 m
1080.75 249.552 l
stroke
grestore
0.000 0.000 0.502 setrgbcolor
gsave
1318 325.4 212.6 40.68 clipbox
1080.75 249.552 m
1080.75 223.106 l
stroke
grestore
gsave
1318 325.4 212.6 40.68 clipbox
433.743 242.44 m
433.743 249.593 l
stroke
grestore
0.000 setgray
gsave
1318 325.4 212.6 40.68 clipbox
433.743 249.593 m
887.169 249.593 l
stroke
grestore
0.000 0.000 0.502 setrgbcolor
gsave
1318 325.4 212.6 40.68 clipbox
887.169 249.593 m
887.169 242.692 l
stroke
grestore
gsave
1318 325.4 212.6 40.68 clipbox
1328.56 174.632 m
1328.56 250.125 l
stroke
grestore
0.000 setgray
gsave
1318 325.4 212.6 40.68 clipbox
1328.56 250.125 m
1345.42 250.125 l
stroke
grestore
0.000 0.000 0.502 setrgbcolor
gsave
1318 325.4 212.6 40.68 clipbox
1345.42 250.125 m
1345.42 202.521 l
stroke
grestore
1.000 0.725 0.000 setrgbcolor
gsave
1318 325.4 212.6 40.68 clipbox
1392.94 40.68 m
1392.94 259.063 l
1466.61 259.063 l
1466.61 247.487 l
stroke
grestore
0.000 0.000 0.502 setrgbcolor
gsave
1318 325.4 212.6 40.68 clipbox
1062.86 249.552 m
1062.86 261.776 l
stroke
grestore
0.000 setgray
gsave
1318 325.4 212.6 40.68 clipbox
1062.86 261.776 m
1204.4 261.776 l
stroke
grestore
0.000 0.000 0.502 setrgbcolor
gsave
1318 325.4 212.6 40.68 clipbox
1204.4 261.776 m
1204.4 234.405 l
stroke
grestore
0.718 1.000 0.251 setrgbcolor
gsave
1318 325.4 212.6 40.68 clipbox
1310.26 229.81 m
1310.26 262.256 l
stroke
grestore
0.000 setgray
gsave
1318 325.4 212.6 40.68 clipbox
1310.26 262.256 m
1336.99 262.256 l
stroke
grestore
0.000 0.000 0.502 setrgbcolor
gsave
1318 325.4 212.6 40.68 clipbox
1336.99 262.256 m
1336.99 250.125 l
stroke
grestore
1.000 0.725 0.000 setrgbcolor
gsave
1318 325.4 212.6 40.68 clipbox
1365.35 227.914 m
1365.35 266.294 l
1374.55 266.294 l
1374.55 40.68 l
stroke
grestore
0.000 0.000 0.502 setrgbcolor
gsave
1318 325.4 212.6 40.68 clipbox
660.456 249.593 m
660.456 269.07 l
stroke
grestore
0.000 setgray
gsave
1318 325.4 212.6 40.68 clipbox
660.456 269.07 m
1133.63 269.07 l
stroke
grestore
0.000 0.000 0.502 setrgbcolor
gsave
1318 325.4 212.6 40.68 clipbox
1133.63 269.07 m
1133.63 261.776 l
stroke
grestore
1.000 0.725 0.000 setrgbcolor
gsave
1318 325.4 212.6 40.68 clipbox
1369.95 266.294 m
1369.95 271.047 l
1380.68 271.047 l
1380.68 40.68 l
stroke
grestore
0.502 0.000 0.000 setrgbcolor
gsave
1318 325.4 212.6 40.68 clipbox
1249.23 241.988 m
1249.23 272.743 l
stroke
grestore
0.000 setgray
gsave
1318 325.4 212.6 40.68 clipbox
1249.23 272.743 m
1323.63 272.743 l
stroke
grestore
0.000 0.000 0.502 setrgbcolor
gsave
1318 325.4 212.6 40.68 clipbox
1323.63 272.743 m
1323.63 262.256 l
stroke
grestore
0.718 1.000 0.251 setrgbcolor
gsave
1318 325.4 212.6 40.68 clipbox
240.217 40.68 m
240.217 275.543 l
stroke
grestore
0.000 setgray
gsave
1318 325.4 212.6 40.68 clipbox
240.217 275.543 m
246.348 275.543 l
stroke
grestore
0.251 1.000 0.718 setrgbcolor
gsave
1318 325.4 212.6 40.68 clipbox
246.348 275.543 m
246.348 40.68 l
stroke
grestore
1.000 0.725 0.000 setrgbcolor
gsave
1318 325.4 212.6 40.68 clipbox
1429.78 259.063 m
1429.78 279.946 l
1514.8 279.946 l
1514.8 226.068 l
stroke
grestore
0.000 0.000 0.502 setrgbcolor
gsave
1318 325.4 212.6 40.68 clipbox
897.043 269.07 m
897.043 281.999 l
stroke
grestore
0.000 setgray
gsave
1318 325.4 212.6 40.68 clipbox
897.043 281.999 m
1286.43 281.999 l
stroke
grestore
0.000 0.000 0.502 setrgbcolor
gsave
1318 325.4 212.6 40.68 clipbox
1286.43 281.999 m
1286.43 272.743 l
stroke
grestore
0.000 0.647 1.000 setrgbcolor
gsave
1318 325.4 212.6 40.68 clipbox
234.085 40.68 m
234.085 293.031 l
stroke
grestore
0.000 setgray
gsave
1318 325.4 212.6 40.68 clipbox
234.085 293.031 m
243.283 293.031 l
stroke
grestore
0.000 0.000 0.502 setrgbcolor
gsave
1318 325.4 212.6 40.68 clipbox
243.283 293.031 m
243.283 275.543 l
stroke
grestore
1.000 0.725 0.000 setrgbcolor
gsave
1318 325.4 212.6 40.68 clipbox
1386.81 40.68 m
1386.81 295.069 l
1472.29 295.069 l
1472.29 279.946 l
stroke
grestore
0.000 0.000 0.502 setrgbcolor
gsave
1318 325.4 212.6 40.68 clipbox
238.684 293.031 m
238.684 300.45 l
stroke
grestore
0.000 setgray
gsave
1318 325.4 212.6 40.68 clipbox
238.684 300.45 m
1091.74 300.45 l
stroke
grestore
0.000 0.000 0.502 setrgbcolor
gsave
1318 325.4 212.6 40.68 clipbox
1091.74 300.45 m
1091.74 281.999 l
stroke
grestore
0.718 1.000 0.251 setrgbcolor
gsave
1318 325.4 212.6 40.68 clipbox
215.691 40.68 m
215.691 315.79 l
stroke
grestore
0.000 setgray
gsave
1318 325.4 212.6 40.68 clipbox
215.691 315.79 m
224.888 315.79 l
stroke
grestore
0.000 0.000 0.502 setrgbcolor
gsave
1318 325.4 212.6 40.68 clipbox
224.888 315.79 m
224.888 182.973 l
stroke
grestore
gsave
1318 325.4 212.6 40.68 clipbox
665.21 300.45 m
665.21 323.413 l
stroke
grestore
0.000 setgray
gsave
1318 325.4 212.6 40.68 clipbox
665.21 323.413 m
1356.15 323.413 l
stroke
grestore
0.502 0.000 0.000 setrgbcolor
gsave
1318 325.4 212.6 40.68 clipbox
1356.15 323.413 m
1356.15 40.68 l
stroke
grestore
1.000 0.725 0.000 setrgbcolor
gsave
1318 325.4 212.6 40.68 clipbox
1375.31 271.047 m
1375.31 330.024 l
1429.55 330.024 l
1429.55 295.069 l
stroke
grestore
0.000 0.000 0.502 setrgbcolor
gsave
1318 325.4 212.6 40.68 clipbox
220.289 315.79 m
220.289 350.331 l
stroke
grestore
0.000 setgray
gsave
1318 325.4 212.6 40.68 clipbox
220.289 350.331 m
1010.68 350.331 l
stroke
grestore
0.000 0.000 0.502 setrgbcolor
gsave
1318 325.4 212.6 40.68 clipbox
1010.68 350.331 m
1010.68 323.413 l
stroke
grestore
gsave
1318 325.4 212.6 40.68 clipbox
615.485 350.331 m
615.485 350.623 l
stroke
grestore
0.000 setgray
gsave
1318 325.4 212.6 40.68 clipbox
615.485 350.623 m
1402.43 350.623 l
stroke
grestore
1.000 0.725 0.000 setrgbcolor
gsave
1318 325.4 212.6 40.68 clipbox
1402.43 350.623 m
1402.43 330.024 l
stroke
grestore
0.000 setgray
/BitstreamVeraSans-Roman findfont
6.000 scalefont
setfont
gsave
214.245443 32.148750 translate
0.000000 rotate
0.000000 0.078125 m /three glyphshow
grestore
gsave
220.314455 32.148750 translate
0.000000 rotate
0.000000 0.078125 m /six glyphshow
grestore
gsave
226.563154 32.226875 translate
0.000000 rotate
0.000000 0.000000 m /two glyphshow
grestore
gsave
232.780603 32.305000 translate
0.000000 rotate
0.000000 0.000000 m /one glyphshow
grestore
gsave
238.771490 32.148750 translate
0.000000 rotate
0.000000 0.078125 m /three glyphshow
grestore
gsave
244.957689 32.226875 translate
0.000000 rotate
0.000000 0.000000 m /two glyphshow
grestore
gsave
250.972013 32.148750 translate
0.000000 rotate
0.000000 0.078125 m /six glyphshow
grestore
gsave
257.220712 32.226875 translate
0.000000 rotate
0.000000 0.000000 m /two glyphshow
grestore
gsave
263.352224 32.226875 translate
0.000000 rotate
0.000000 0.000000 m /two glyphshow
grestore
gsave
269.483735 32.226875 translate
0.000000 rotate
0.000000 0.000000 m /two glyphshow
grestore
gsave
275.615247 32.226875 translate
0.000000 rotate
0.000000 0.000000 m /two glyphshow
grestore
gsave
281.746759 32.226875 translate
0.000000 rotate
0.000000 0.000000 m /two glyphshow
grestore
gsave
287.761083 32.148750 translate
0.000000 rotate
0.000000 0.078125 m /six glyphshow
grestore
gsave
294.009782 32.226875 translate
0.000000 rotate
0.000000 0.000000 m /two glyphshow
grestore
gsave
300.141294 32.226875 translate
0.000000 rotate
0.000000 0.000000 m /two glyphshow
grestore
gsave
306.155618 32.148750 translate
0.000000 rotate
0.000000 0.078125 m /six glyphshow
grestore
gsave
312.287129 32.148750 translate
0.000000 rotate
0.000000 0.078125 m /six glyphshow
grestore
gsave
318.418641 32.148750 translate
0.000000 rotate
0.000000 0.078125 m /six glyphshow
grestore
gsave
324.550153 32.148750 translate
0.000000 rotate
0.000000 0.078125 m /six glyphshow
grestore
gsave
330.798852 32.226875 translate
0.000000 rotate
0.000000 0.000000 m /two glyphshow
grestore
gsave
336.930363 32.226875 translate
0.000000 rotate
0.000000 0.000000 m /two glyphshow
grestore
gsave
343.061875 32.226875 translate
0.000000 rotate
0.000000 0.000000 m /two glyphshow
grestore
gsave
349.193387 32.226875 translate
0.000000 rotate
0.000000 0.000000 m /two glyphshow
grestore
gsave
355.324898 32.226875 translate
0.000000 rotate
0.000000 0.000000 m /two glyphshow
grestore
gsave
361.456410 32.226875 translate
0.000000 rotate
0.000000 0.000000 m /two glyphshow
grestore
gsave
367.587922 32.226875 translate
0.000000 rotate
0.000000 0.000000 m /two glyphshow
grestore
gsave
373.719433 32.226875 translate
0.000000 rotate
0.000000 0.000000 m /two glyphshow
grestore
gsave
379.850945 32.226875 translate
0.000000 rotate
0.000000 0.000000 m /two glyphshow
grestore
gsave
385.982456 32.226875 translate
0.000000 rotate
0.000000 0.000000 m /two glyphshow
grestore
gsave
392.113968 32.226875 translate
0.000000 rotate
0.000000 0.000000 m /two glyphshow
grestore
gsave
398.245480 32.226875 translate
0.000000 rotate
0.000000 0.000000 m /two glyphshow
grestore
gsave
404.376991 32.226875 translate
0.000000 rotate
0.000000 0.000000 m /two glyphshow
grestore
gsave
410.508503 32.226875 translate
0.000000 rotate
0.000000 0.000000 m /two glyphshow
grestore
gsave
416.640015 32.226875 translate
0.000000 rotate
0.000000 0.000000 m /two glyphshow
grestore
gsave
422.771526 32.226875 translate
0.000000 rotate
0.000000 0.000000 m /two glyphshow
grestore
gsave
428.903038 32.226875 translate
0.000000 rotate
0.000000 0.000000 m /two glyphshow
grestore
gsave
435.034549 32.226875 translate
0.000000 rotate
0.000000 0.000000 m /two glyphshow
grestore
gsave
441.041061 32.148750 translate
0.000000 rotate
0.000000 0.078125 m /zero glyphshow
grestore
gsave
447.297573 32.226875 translate
0.000000 rotate
0.000000 0.000000 m /two glyphshow
grestore
gsave
453.429084 32.226875 translate
0.000000 rotate
0.000000 0.000000 m /two glyphshow
grestore
gsave
459.560596 32.226875 translate
0.000000 rotate
0.000000 0.000000 m /two glyphshow
grestore
gsave
465.692108 32.226875 translate
0.000000 rotate
0.000000 0.000000 m /two glyphshow
grestore
gsave
471.823619 32.226875 translate
0.000000 rotate
0.000000 0.000000 m /two glyphshow
grestore
gsave
477.955131 32.226875 translate
0.000000 rotate
0.000000 0.000000 m /two glyphshow
grestore
gsave
484.086642 32.226875 translate
0.000000 rotate
0.000000 0.000000 m /two glyphshow
grestore
gsave
490.218154 32.226875 translate
0.000000 rotate
0.000000 0.000000 m /two glyphshow
grestore
gsave
496.349666 32.226875 translate
0.000000 rotate
0.000000 0.000000 m /two glyphshow
grestore
gsave
502.481177 32.226875 translate
0.000000 rotate
0.000000 0.000000 m /two glyphshow
grestore
gsave
508.612689 32.226875 translate
0.000000 rotate
0.000000 0.000000 m /two glyphshow
grestore
gsave
514.627013 32.148750 translate
0.000000 rotate
0.000000 0.078125 m /six glyphshow
grestore
gsave
520.758525 32.148750 translate
0.000000 rotate
0.000000 0.078125 m /six glyphshow
grestore
gsave
526.890036 32.148750 translate
0.000000 rotate
0.000000 0.078125 m /six glyphshow
grestore
gsave
533.021548 32.148750 translate
0.000000 rotate
0.000000 0.078125 m /six glyphshow
grestore
gsave
539.153060 32.148750 translate
0.000000 rotate
0.000000 0.078125 m /six glyphshow
grestore
gsave
545.401759 32.226875 translate
0.000000 rotate
0.000000 0.000000 m /two glyphshow
grestore
gsave
551.416083 32.148750 translate
0.000000 rotate
0.000000 0.078125 m /six glyphshow
grestore
gsave
557.547594 32.148750 translate
0.000000 rotate
0.000000 0.078125 m /six glyphshow
grestore
gsave
563.679106 32.148750 translate
0.000000 rotate
0.000000 0.078125 m /six glyphshow
grestore
gsave
569.802805 32.148750 translate
0.000000 rotate
0.000000 0.078125 m /zero glyphshow
grestore
gsave
575.942129 32.148750 translate
0.000000 rotate
0.000000 0.078125 m /six glyphshow
grestore
gsave
582.065828 32.148750 translate
0.000000 rotate
0.000000 0.078125 m /zero glyphshow
grestore
gsave
588.205153 32.148750 translate
0.000000 rotate
0.000000 0.078125 m /six glyphshow
grestore
gsave
594.430414 32.226875 translate
0.000000 rotate
0.000000 0.078125 m /five glyphshow
grestore
gsave
600.561926 32.226875 translate
0.000000 rotate
0.000000 0.078125 m /five glyphshow
grestore
gsave
606.693438 32.226875 translate
0.000000 rotate
0.000000 0.078125 m /five glyphshow
grestore
gsave
612.824949 32.226875 translate
0.000000 rotate
0.000000 0.078125 m /five glyphshow
grestore
gsave
618.956461 32.226875 translate
0.000000 rotate
0.000000 0.078125 m /five glyphshow
grestore
gsave
625.087972 32.226875 translate
0.000000 rotate
0.000000 0.078125 m /five glyphshow
grestore
gsave
631.219484 32.226875 translate
0.000000 rotate
0.000000 0.078125 m /five glyphshow
grestore
gsave
637.350996 32.226875 translate
0.000000 rotate
0.000000 0.078125 m /five glyphshow
grestore
gsave
643.482507 32.226875 translate
0.000000 rotate
0.000000 0.078125 m /five glyphshow
grestore
gsave
649.520269 32.148750 translate
0.000000 rotate
0.000000 0.078125 m /six glyphshow
grestore
gsave
655.651781 32.148750 translate
0.000000 rotate
0.000000 0.078125 m /six glyphshow
grestore
gsave
661.783292 32.148750 translate
0.000000 rotate
0.000000 0.078125 m /six glyphshow
grestore
gsave
668.008554 32.226875 translate
0.000000 rotate
0.000000 0.078125 m /five glyphshow
grestore
gsave
674.140065 32.226875 translate
0.000000 rotate
0.000000 0.078125 m /five glyphshow
grestore
gsave
680.271577 32.226875 translate
0.000000 rotate
0.000000 0.078125 m /five glyphshow
grestore
gsave
686.403089 32.226875 translate
0.000000 rotate
0.000000 0.078125 m /five glyphshow
grestore
gsave
692.534600 32.226875 translate
0.000000 rotate
0.000000 0.078125 m /five glyphshow
grestore
gsave
698.666112 32.226875 translate
0.000000 rotate
0.000000 0.078125 m /five glyphshow
grestore
gsave
704.797624 32.226875 translate
0.000000 rotate
0.000000 0.078125 m /five glyphshow
grestore
gsave
710.929135 32.226875 translate
0.000000 rotate
0.000000 0.078125 m /five glyphshow
grestore
gsave
717.060647 32.226875 translate
0.000000 rotate
0.000000 0.078125 m /five glyphshow
grestore
gsave
723.192158 32.226875 translate
0.000000 rotate
0.000000 0.078125 m /five glyphshow
grestore
gsave
729.323670 32.226875 translate
0.000000 rotate
0.000000 0.078125 m /five glyphshow
grestore
gsave
735.455182 32.226875 translate
0.000000 rotate
0.000000 0.078125 m /five glyphshow
grestore
gsave
741.586693 32.226875 translate
0.000000 rotate
0.000000 0.078125 m /five glyphshow
grestore
gsave
747.718205 32.226875 translate
0.000000 rotate
0.000000 0.078125 m /five glyphshow
grestore
gsave
753.849717 32.226875 translate
0.000000 rotate
0.000000 0.078125 m /five glyphshow
grestore
gsave
759.981228 32.226875 translate
0.000000 rotate
0.000000 0.078125 m /five glyphshow
grestore
gsave
766.112740 32.226875 translate
0.000000 rotate
0.000000 0.078125 m /five glyphshow
grestore
gsave
772.244251 32.226875 translate
0.000000 rotate
0.000000 0.078125 m /five glyphshow
grestore
gsave
778.375763 32.226875 translate
0.000000 rotate
0.000000 0.078125 m /five glyphshow
grestore
gsave
784.507275 32.226875 translate
0.000000 rotate
0.000000 0.078125 m /five glyphshow
grestore
gsave
790.638786 32.226875 translate
0.000000 rotate
0.000000 0.078125 m /five glyphshow
grestore
gsave
796.770298 32.226875 translate
0.000000 rotate
0.000000 0.078125 m /five glyphshow
grestore
gsave
802.901810 32.226875 translate
0.000000 rotate
0.000000 0.078125 m /five glyphshow
grestore
gsave
809.033321 32.226875 translate
0.000000 rotate
0.000000 0.078125 m /five glyphshow
grestore
gsave
815.164833 32.226875 translate
0.000000 rotate
0.000000 0.078125 m /five glyphshow
grestore
gsave
821.296344 32.226875 translate
0.000000 rotate
0.000000 0.078125 m /five glyphshow
grestore
gsave
827.334106 32.148750 translate
0.000000 rotate
0.000000 0.078125 m /six glyphshow
grestore
gsave
833.559368 32.226875 translate
0.000000 rotate
0.000000 0.078125 m /five glyphshow
grestore
gsave
839.690879 32.226875 translate
0.000000 rotate
0.000000 0.078125 m /five glyphshow
grestore
gsave
845.822391 32.226875 translate
0.000000 rotate
0.000000 0.078125 m /five glyphshow
grestore
gsave
851.953903 32.226875 translate
0.000000 rotate
0.000000 0.078125 m /five glyphshow
grestore
gsave
858.085414 32.226875 translate
0.000000 rotate
0.000000 0.078125 m /five glyphshow
grestore
gsave
864.216926 32.226875 translate
0.000000 rotate
0.000000 0.078125 m /five glyphshow
grestore
gsave
870.348438 32.226875 translate
0.000000 rotate
0.000000 0.078125 m /five glyphshow
grestore
gsave
876.479949 32.226875 translate
0.000000 rotate
0.000000 0.078125 m /five glyphshow
grestore
gsave
882.611461 32.226875 translate
0.000000 rotate
0.000000 0.078125 m /five glyphshow
grestore
gsave
888.742972 32.226875 translate
0.000000 rotate
0.000000 0.078125 m /five glyphshow
grestore
gsave
894.874484 32.226875 translate
0.000000 rotate
0.000000 0.078125 m /five glyphshow
grestore
gsave
901.005996 32.226875 translate
0.000000 rotate
0.000000 0.078125 m /five glyphshow
grestore
gsave
907.137507 32.226875 translate
0.000000 rotate
0.000000 0.078125 m /five glyphshow
grestore
gsave
913.269019 32.226875 translate
0.000000 rotate
0.000000 0.078125 m /five glyphshow
grestore
gsave
919.400531 32.226875 translate
0.000000 rotate
0.000000 0.078125 m /five glyphshow
grestore
gsave
925.532042 32.226875 translate
0.000000 rotate
0.000000 0.078125 m /five glyphshow
grestore
gsave
931.663554 32.226875 translate
0.000000 rotate
0.000000 0.078125 m /five glyphshow
grestore
gsave
937.701315 32.148750 translate
0.000000 rotate
0.000000 0.078125 m /six glyphshow
grestore
gsave
943.832827 32.148750 translate
0.000000 rotate
0.000000 0.078125 m /six glyphshow
grestore
gsave
949.964339 32.148750 translate
0.000000 rotate
0.000000 0.078125 m /six glyphshow
grestore
gsave
956.095850 32.148750 translate
0.000000 rotate
0.000000 0.078125 m /six glyphshow
grestore
gsave
962.227362 32.148750 translate
0.000000 rotate
0.000000 0.078125 m /six glyphshow
grestore
gsave
968.358874 32.148750 translate
0.000000 rotate
0.000000 0.078125 m /six glyphshow
grestore
gsave
974.490385 32.148750 translate
0.000000 rotate
0.000000 0.078125 m /six glyphshow
grestore
gsave
980.621897 32.148750 translate
0.000000 rotate
0.000000 0.078125 m /six glyphshow
grestore
gsave
986.753408 32.148750 translate
0.000000 rotate
0.000000 0.078125 m /six glyphshow
grestore
gsave
992.884920 32.148750 translate
0.000000 rotate
0.000000 0.078125 m /six glyphshow
grestore
gsave
999.016432 32.148750 translate
0.000000 rotate
0.000000 0.078125 m /six glyphshow
grestore
gsave
1005.140131 32.148750 translate
0.000000 rotate
0.000000 0.078125 m /zero glyphshow
grestore
gsave
1011.271642 32.148750 translate
0.000000 rotate
0.000000 0.078125 m /zero glyphshow
grestore
gsave
1017.403154 32.148750 translate
0.000000 rotate
0.000000 0.078125 m /zero glyphshow
grestore
gsave
1023.534666 32.148750 translate
0.000000 rotate
0.000000 0.078125 m /zero glyphshow
grestore
gsave
1029.666177 32.148750 translate
0.000000 rotate
0.000000 0.078125 m /zero glyphshow
grestore
gsave
1035.805501 32.148750 translate
0.000000 rotate
0.000000 0.078125 m /six glyphshow
grestore
gsave
1041.937013 32.148750 translate
0.000000 rotate
0.000000 0.078125 m /six glyphshow
grestore
gsave
1048.068525 32.148750 translate
0.000000 rotate
0.000000 0.078125 m /six glyphshow
grestore
gsave
1054.262536 32.148750 translate
0.000000 rotate
0.000000 0.078125 m /three glyphshow
grestore
gsave
1060.394048 32.148750 translate
0.000000 rotate
0.000000 0.078125 m /three glyphshow
grestore
gsave
1066.525560 32.148750 translate
0.000000 rotate
0.000000 0.078125 m /three glyphshow
grestore
gsave
1072.594571 32.148750 translate
0.000000 rotate
0.000000 0.078125 m /six glyphshow
grestore
gsave
1078.726083 32.148750 translate
0.000000 rotate
0.000000 0.078125 m /six glyphshow
grestore
gsave
1085.060719 32.305000 translate
0.000000 rotate
0.000000 0.000000 m /one glyphshow
grestore
gsave
1091.192231 32.305000 translate
0.000000 rotate
0.000000 0.000000 m /one glyphshow
grestore
gsave
1097.323743 32.305000 translate
0.000000 rotate
0.000000 0.000000 m /one glyphshow
grestore
gsave
1103.455254 32.305000 translate
0.000000 rotate
0.000000 0.000000 m /one glyphshow
grestore
gsave
1109.586766 32.305000 translate
0.000000 rotate
0.000000 0.000000 m /one glyphshow
grestore
gsave
1115.718278 32.305000 translate
0.000000 rotate
0.000000 0.000000 m /one glyphshow
grestore
gsave
1121.849789 32.305000 translate
0.000000 rotate
0.000000 0.000000 m /one glyphshow
grestore
gsave
1127.981301 32.305000 translate
0.000000 rotate
0.000000 0.000000 m /one glyphshow
grestore
gsave
1134.112813 32.305000 translate
0.000000 rotate
0.000000 0.000000 m /one glyphshow
grestore
gsave
1140.244324 32.305000 translate
0.000000 rotate
0.000000 0.000000 m /one glyphshow
grestore
gsave
1146.375836 32.305000 translate
0.000000 rotate
0.000000 0.000000 m /one glyphshow
grestore
gsave
1152.507347 32.305000 translate
0.000000 rotate
0.000000 0.000000 m /one glyphshow
grestore
gsave
1158.638859 32.305000 translate
0.000000 rotate
0.000000 0.000000 m /one glyphshow
grestore
gsave
1164.770371 32.305000 translate
0.000000 rotate
0.000000 0.000000 m /one glyphshow
grestore
gsave
1170.901882 32.305000 translate
0.000000 rotate
0.000000 0.000000 m /one glyphshow
grestore
gsave
1177.033394 32.305000 translate
0.000000 rotate
0.000000 0.000000 m /one glyphshow
grestore
gsave
1183.164906 32.305000 translate
0.000000 rotate
0.000000 0.000000 m /one glyphshow
grestore
gsave
1189.093292 32.148750 translate
0.000000 rotate
0.000000 0.078125 m /six glyphshow
grestore
gsave
1195.224804 32.148750 translate
0.000000 rotate
0.000000 0.078125 m /six glyphshow
grestore
gsave
1201.356315 32.148750 translate
0.000000 rotate
0.000000 0.078125 m /six glyphshow
grestore
gsave
1207.605015 32.226875 translate
0.000000 rotate
0.000000 0.000000 m /two glyphshow
grestore
gsave
1213.619339 32.148750 translate
0.000000 rotate
0.000000 0.078125 m /six glyphshow
grestore
gsave
1219.750850 32.148750 translate
0.000000 rotate
0.000000 0.078125 m /six glyphshow
grestore
gsave
1225.882362 32.148750 translate
0.000000 rotate
0.000000 0.078125 m /six glyphshow
grestore
gsave
1232.013874 32.148750 translate
0.000000 rotate
0.000000 0.078125 m /six glyphshow
grestore
gsave
1238.145385 32.148750 translate
0.000000 rotate
0.000000 0.078125 m /six glyphshow
grestore
gsave
1244.276897 32.148750 translate
0.000000 rotate
0.000000 0.078125 m /six glyphshow
grestore
gsave
1250.408408 32.148750 translate
0.000000 rotate
0.000000 0.078125 m /six glyphshow
grestore
gsave
1256.539920 32.148750 translate
0.000000 rotate
0.000000 0.078125 m /six glyphshow
grestore
gsave
1262.671432 32.148750 translate
0.000000 rotate
0.000000 0.078125 m /six glyphshow
grestore
gsave
1268.865443 32.148750 translate
0.000000 rotate
0.000000 0.078125 m /three glyphshow
grestore
gsave
1274.996955 32.148750 translate
0.000000 rotate
0.000000 0.078125 m /three glyphshow
grestore
gsave
1281.128467 32.148750 translate
0.000000 rotate
0.000000 0.078125 m /three glyphshow
grestore
gsave
1287.259978 32.148750 translate
0.000000 rotate
0.000000 0.078125 m /three glyphshow
grestore
gsave
1293.391490 32.148750 translate
0.000000 rotate
0.000000 0.078125 m /three glyphshow
grestore
gsave
1299.523001 32.148750 translate
0.000000 rotate
0.000000 0.078125 m /three glyphshow
grestore
gsave
1305.654513 32.148750 translate
0.000000 rotate
0.000000 0.078125 m /three glyphshow
grestore
gsave
1311.786025 32.148750 translate
0.000000 rotate
0.000000 0.078125 m /three glyphshow
grestore
gsave
1317.917536 32.148750 translate
0.000000 rotate
0.000000 0.078125 m /three glyphshow
grestore
gsave
1323.986548 32.148750 translate
0.000000 rotate
0.000000 0.078125 m /six glyphshow
grestore
gsave
1330.110247 32.148750 translate
0.000000 rotate
0.000000 0.078125 m /zero glyphshow
grestore
gsave
1336.249571 32.148750 translate
0.000000 rotate
0.000000 0.078125 m /six glyphshow
grestore
gsave
1342.498270 32.226875 translate
0.000000 rotate
0.000000 0.000000 m /two glyphshow
grestore
gsave
1348.629782 32.226875 translate
0.000000 rotate
0.000000 0.000000 m /two glyphshow
grestore
gsave
1354.644106 32.148750 translate
0.000000 rotate
0.000000 0.078125 m /six glyphshow
grestore
gsave
1360.689680 32.305000 translate
0.000000 rotate
0.000000 0.000000 m /four glyphshow
grestore
gsave
1366.821192 32.305000 translate
0.000000 rotate
0.000000 0.000000 m /four glyphshow
grestore
gsave
1372.952703 32.305000 translate
0.000000 rotate
0.000000 0.000000 m /four glyphshow
grestore
gsave
1379.084215 32.305000 translate
0.000000 rotate
0.000000 0.000000 m /four glyphshow
grestore
gsave
1385.215727 32.305000 translate
0.000000 rotate
0.000000 0.000000 m /four glyphshow
grestore
gsave
1391.347238 32.305000 translate
0.000000 rotate
0.000000 0.000000 m /four glyphshow
grestore
gsave
1397.478750 32.305000 translate
0.000000 rotate
0.000000 0.000000 m /four glyphshow
grestore
gsave
1403.610262 32.305000 translate
0.000000 rotate
0.000000 0.000000 m /four glyphshow
grestore
gsave
1409.741773 32.305000 translate
0.000000 rotate
0.000000 0.000000 m /four glyphshow
grestore
gsave
1415.873285 32.305000 translate
0.000000 rotate
0.000000 0.000000 m /four glyphshow
grestore
gsave
1422.004797 32.305000 translate
0.000000 rotate
0.000000 0.000000 m /four glyphshow
grestore
gsave
1428.136308 32.305000 translate
0.000000 rotate
0.000000 0.000000 m /four glyphshow
grestore
gsave
1434.267820 32.305000 translate
0.000000 rotate
0.000000 0.000000 m /four glyphshow
grestore
gsave
1440.399331 32.305000 translate
0.000000 rotate
0.000000 0.000000 m /four glyphshow
grestore
gsave
1446.530843 32.305000 translate
0.000000 rotate
0.000000 0.000000 m /four glyphshow
grestore
gsave
1452.662355 32.305000 translate
0.000000 rotate
0.000000 0.000000 m /four glyphshow
grestore
gsave
1458.793866 32.305000 translate
0.000000 rotate
0.000000 0.000000 m /four glyphshow
grestore
gsave
1464.925378 32.305000 translate
0.000000 rotate
0.000000 0.000000 m /four glyphshow
grestore
gsave
1471.056890 32.305000 translate
0.000000 rotate
0.000000 0.000000 m /four glyphshow
grestore
gsave
1477.188401 32.305000 translate
0.000000 rotate
0.000000 0.000000 m /four glyphshow
grestore
gsave
1483.319913 32.305000 translate
0.000000 rotate
0.000000 0.000000 m /four glyphshow
grestore
gsave
1489.451424 32.305000 translate
0.000000 rotate
0.000000 0.000000 m /four glyphshow
grestore
gsave
1495.582936 32.305000 translate
0.000000 rotate
0.000000 0.000000 m /four glyphshow
grestore
gsave
1501.714448 32.305000 translate
0.000000 rotate
0.000000 0.000000 m /four glyphshow
grestore
gsave
1507.845959 32.305000 translate
0.000000 rotate
0.000000 0.000000 m /four glyphshow
grestore
gsave
1513.977471 32.305000 translate
0.000000 rotate
0.000000 0.000000 m /four glyphshow
grestore
gsave
1520.108983 32.305000 translate
0.000000 rotate
0.000000 0.000000 m /four glyphshow
grestore
gsave
1526.240494 32.305000 translate
0.000000 rotate
0.000000 0.000000 m /four glyphshow
grestore
0.500 setlinewidth
0 setlinecap
gsave
/o {
gsave
newpath
translate
0 0 m
4 0 l
gsave
0.000 setgray
fill
grestore
stroke
grestore
} bind def
212.625 40.68 o
grestore
gsave
/o {
gsave
newpath
translate
0 0 m
-4 0 l
gsave
0.000 setgray
fill
grestore
stroke
grestore
} bind def
1530.9 40.68 o
grestore
/BitstreamVeraSans-Roman findfont
12.000 scalefont
setfont
gsave
191.125000 36.140937 translate
0.000000 rotate
0.000000 0.171875 m /zero glyphshow
7.634766 0.171875 m /period glyphshow
11.449219 0.171875 m /zero glyphshow
grestore
gsave
/o {
gsave
newpath
translate
0 0 m
4 0 l
gsave
0.000 setgray
fill
grestore
stroke
grestore
} bind def
212.625 102.669 o
grestore
gsave
/o {
gsave
newpath
translate
0 0 m
-4 0 l
gsave
0.000 setgray
fill
grestore
stroke
grestore
} bind def
1530.9 102.669 o
grestore
gsave
191.531250 98.129509 translate
0.000000 rotate
0.000000 0.171875 m /zero glyphshow
7.634766 0.171875 m /period glyphshow
11.449219 0.171875 m /two glyphshow
grestore
gsave
/o {
gsave
newpath
translate
0 0 m
4 0 l
gsave
0.000 setgray
fill
grestore
stroke
grestore
} bind def
212.625 164.657 o
grestore
gsave
/o {
gsave
newpath
translate
0 0 m
-4 0 l
gsave
0.000 setgray
fill
grestore
stroke
grestore
} bind def
1530.9 164.657 o
grestore
gsave
191.000000 160.118080 translate
0.000000 rotate
0.000000 0.171875 m /zero glyphshow
7.634766 0.171875 m /period glyphshow
11.449219 0.171875 m /four glyphshow
grestore
gsave
/o {
gsave
newpath
translate
0 0 m
4 0 l
gsave
0.000 setgray
fill
grestore
stroke
grestore
} bind def
212.625 226.646 o
grestore
gsave
/o {
gsave
newpath
translate
0 0 m
-4 0 l
gsave
0.000 setgray
fill
grestore
stroke
grestore
} bind def
1530.9 226.646 o
grestore
gsave
191.093750 222.106652 translate
0.000000 rotate
0.000000 0.171875 m /zero glyphshow
7.634766 0.171875 m /period glyphshow
11.449219 0.171875 m /six glyphshow
grestore
gsave
/o {
gsave
newpath
translate
0 0 m
4 0 l
gsave
0.000 setgray
fill
grestore
stroke
grestore
} bind def
212.625 288.634 o
grestore
gsave
/o {
gsave
newpath
translate
0 0 m
-4 0 l
gsave
0.000 setgray
fill
grestore
stroke
grestore
} bind def
1530.9 288.634 o
grestore
gsave
191.156250 284.095223 translate
0.000000 rotate
0.000000 0.171875 m /zero glyphshow
7.634766 0.171875 m /period glyphshow
11.449219 0.171875 m /eight glyphshow
grestore
gsave
/o {
gsave
newpath
translate
0 0 m
4 0 l
gsave
0.000 setgray
fill
grestore
stroke
grestore
} bind def
212.625 350.623 o
grestore
gsave
/o {
gsave
newpath
translate
0 0 m
-4 0 l
gsave
0.000 setgray
fill
grestore
stroke
grestore
} bind def
1530.9 350.623 o
grestore
gsave
191.640625 346.083795 translate
0.000000 rotate
0.000000 0.171875 m /one glyphshow
7.634766 0.171875 m /period glyphshow
11.449219 0.171875 m /zero glyphshow
grestore
1.000 setlinewidth
2 setlinecap
gsave
212.625 366.12 m
1530.9 366.12 l
stroke
grestore
gsave
1530.9 40.68 m
1530.9 366.12 l
stroke
grestore
gsave
212.625 40.68 m
1530.9 40.68 l
stroke
grestore
gsave
212.625 40.68 m
212.625 366.12 l
stroke
grestore
gsave
1454.53 268.139 m
1526.4 268.139 l
1526.4 361.62 l
1454.53 361.62 l
1454.53 268.139 l
cl
gsave
1.000 setgray
fill
grestore
stroke
grestore
0.000 0.067 1.000 setrgbcolor
gsave
1460.83 354.326 m
1473.43 354.326 l
stroke
grestore
0.000 setgray
/BitstreamVeraSans-Roman findfont
9.000 scalefont
setfont
gsave
1483.331250 351.051250 translate
0.000000 rotate
0.000000 0.125000 m /B glyphshow
6.049316 0.125000 m /C glyphshow
12.333496 0.125000 m /R glyphshow
grestore
0.000 0.647 1.000 setrgbcolor
gsave
1460.83 341.107 m
1473.43 341.107 l
stroke
grestore
0.000 setgray
gsave
1483.331250 337.957500 translate
0.000000 rotate
0.000000 0.000000 m /E glyphshow
5.686523 0.000000 m /two glyphshow
11.412598 0.000000 m /A glyphshow
grestore
0.251 1.000 0.718 setrgbcolor
gsave
1460.83 327.889 m
1473.43 327.889 l
stroke
grestore
0.000 setgray
gsave
1483.331250 322.863750 translate
0.000000 rotate
0.000000 1.875000 m /H glyphshow
6.767578 1.875000 m /y glyphshow
12.093750 1.875000 m /p glyphshow
17.806641 1.875000 m /e glyphshow
23.343750 1.875000 m /r glyphshow
26.918945 1.875000 m /d glyphshow
32.631836 1.875000 m /i glyphshow
35.132324 1.875000 m /p glyphshow
grestore
0.718 1.000 0.251 setrgbcolor
gsave
1460.83 314.67 m
1473.43 314.67 l
stroke
grestore
0.000 setgray
gsave
1483.331250 311.520000 translate
0.000000 rotate
0.000000 0.000000 m /M glyphshow
7.765137 0.000000 m /L glyphshow
12.779297 0.000000 m /L glyphshow
grestore
1.000 0.725 0.000 setrgbcolor
gsave
1460.83 301.451 m
1473.43 301.451 l
stroke
grestore
0.000 setgray
gsave
1483.331250 298.301250 translate
0.000000 rotate
0.000000 0.000000 m /T glyphshow
4.622559 0.000000 m /hyphen glyphshow
7.620117 0.000000 m /A glyphshow
13.776855 0.000000 m /L glyphshow
18.791016 0.000000 m /L glyphshow
grestore
1.000 0.188 0.000 setrgbcolor
gsave
1460.83 288.232 m
1473.43 288.232 l
stroke
grestore
0.000 setgray
gsave
1483.331250 285.082500 translate
0.000000 rotate
0.000000 0.000000 m /T glyphshow
5.497559 0.000000 m /E glyphshow
11.184082 0.000000 m /L glyphshow
grestore
0.502 0.000 0.000 setrgbcolor
gsave
1460.83 275.014 m
1473.43 275.014 l
stroke
grestore
0.000 setgray
gsave
1483.331250 271.738750 translate
0.000000 rotate
0.000000 0.125000 m /O glyphshow
7.083984 0.125000 m /T glyphshow
12.581543 0.125000 m /H glyphshow
19.349121 0.125000 m /E glyphshow
25.035645 0.125000 m /R glyphshow
31.289062 0.125000 m /S glyphshow
grestore

end
showpage
