%!PS-Adobe-3.0 EPSF-3.0
%%Creator: cairo 1.12.2 (http://cairographics.org)
%%CreationDate: Thu May 31 16:22:33 2012
%%Pages: 1
%%DocumentData: Clean7Bit
%%LanguageLevel: 2
%%BoundingBox: 0 -1 340 59
%%EndComments
%%BeginProlog
save
50 dict begin
/q { gsave } bind def
/Q { grestore } bind def
/cm { 6 array astore concat } bind def
/w { setlinewidth } bind def
/J { setlinecap } bind def
/j { setlinejoin } bind def
/M { setmiterlimit } bind def
/d { setdash } bind def
/m { moveto } bind def
/l { lineto } bind def
/c { curveto } bind def
/h { closepath } bind def
/re { exch dup neg 3 1 roll 5 3 roll moveto 0 rlineto
      0 exch rlineto 0 rlineto closepath } bind def
/S { stroke } bind def
/f { fill } bind def
/f* { eofill } bind def
/n { newpath } bind def
/W { clip } bind def
/W* { eoclip } bind def
/BT { } bind def
/ET { } bind def
/pdfmark where { pop globaldict /?pdfmark /exec load put }
    { globaldict begin /?pdfmark /pop load def /pdfmark
    /cleartomark load def end } ifelse
/BDC { mark 3 1 roll /BDC pdfmark } bind def
/EMC { mark /EMC pdfmark } bind def
/cairo_store_point { /cairo_point_y exch def /cairo_point_x exch def } def
/Tj { show currentpoint cairo_store_point } bind def
/TJ {
  {
    dup
    type /stringtype eq
    { show } { -0.001 mul 0 cairo_font_matrix dtransform rmoveto } ifelse
  } forall
  currentpoint cairo_store_point
} bind def
/cairo_selectfont { cairo_font_matrix aload pop pop pop 0 0 6 array astore
    cairo_font exch selectfont cairo_point_x cairo_point_y moveto } bind def
/Tf { pop /cairo_font exch def /cairo_font_matrix where
      { pop cairo_selectfont } if } bind def
/Td { matrix translate cairo_font_matrix matrix concatmatrix dup
      /cairo_font_matrix exch def dup 4 get exch 5 get cairo_store_point
      /cairo_font where { pop cairo_selectfont } if } bind def
/Tm { 2 copy 8 2 roll 6 array astore /cairo_font_matrix exch def
      cairo_store_point /cairo_font where { pop cairo_selectfont } if } bind def
/g { setgray } bind def
/rg { setrgbcolor } bind def
/d1 { setcachedevice } bind def
%%EndProlog
%%Page: 1 1
%%BeginPageSetup
%%PageBoundingBox: 0 -1 340 59
%%EndPageSetup
q 0 -1 340 60 rectclip q
0.811765 0.886275 0.952941 rg
0.199 4.22 m 0.199 6.435 1.996 8.228 4.207 8.228 c 5.27 8.228 6.289 7.806
 7.043 7.056 c 7.793 6.302 8.215 5.283 8.215 4.22 c 8.215 2.009 6.422 0.213
 4.207 0.213 c 1.996 0.213 0.199 2.009 0.199 4.22 c h
f
0 g
0.423849 w
0 J
1 j
[] 0.0 d
4 M q 1 0 0 -1 0 58.275002 cm
0.199 54.055 m 0.199 51.84 1.996 50.047 4.207 50.047 c 5.27 50.047 6.289
 50.469 7.043 51.219 c 7.793 51.973 8.215 52.992 8.215 54.055 c 8.215 56.266
 6.422 58.062 4.207 58.062 c 1.996 58.062 0.199 56.266 0.199 54.055 c h
S Q
0.811765 0.886275 0.952941 rg
10.02 28.236 m 10.02 30.451 11.816 32.244 14.031 32.244 c 15.094 32.244
 16.113 31.822 16.863 31.072 c 17.617 30.318 18.039 29.298 18.039 28.236
 c 18.039 26.025 16.242 24.228 14.031 24.228 c 11.816 24.228 10.02 26.025
 10.02 28.236 c h
f
0 g
q 1 0 0 -1 0 58.275002 cm
10.02 30.039 m 10.02 27.824 11.816 26.031 14.031 26.031 c 15.094 26.031
 16.113 26.453 16.863 27.203 c 17.617 27.957 18.039 28.977 18.039 30.039
 c 18.039 32.25 16.242 34.047 14.031 34.047 c 11.816 34.047 10.02 32.25 
10.02 30.039 c h
S Q
0.811765 0.886275 0.952941 rg
19.156 4.22 m 19.156 6.435 20.953 8.228 23.168 8.228 c 24.23 8.228 25.25
 7.806 26 7.056 c 26.754 6.302 27.176 5.283 27.176 4.22 c 27.176 2.009 25.379
 0.213 23.168 0.213 c 20.953 0.213 19.156 2.009 19.156 4.22 c h
f
0 g
q 1 0 0 -1 0 58.275002 cm
19.156 54.055 m 19.156 51.84 20.953 50.047 23.168 50.047 c 24.23 50.047
 25.25 50.469 26 51.219 c 26.754 51.973 27.176 52.992 27.176 54.055 c 27.176
 56.266 25.379 58.062 23.168 58.062 c 20.953 58.062 19.156 56.266 19.156
 54.055 c h
S Q
4.207 8.228 m 11.195 25.404 l f
q 1 0 0 -1 0 58.275002 cm
4.207 50.047 m 11.195 32.871 l S Q
23.168 8.228 m 16.863 25.404 l f
q 1 0 0 -1 0 58.275002 cm
23.168 50.047 m 16.863 32.871 l S Q
0.811765 0.886275 0.952941 rg
50.613 54.068 m 50.613 56.279 52.41 58.076 54.621 58.076 c 55.684 58.076
 56.703 57.654 57.457 56.9 c 58.207 56.15 58.629 55.13 58.629 54.068 c 58.629
 51.853 56.836 50.06 54.621 50.06 c 52.41 50.06 50.613 51.853 50.613 54.068
 c h
f
0 g
q 1 0 0 -1 0 58.275002 cm
50.613 4.207 m 50.613 1.996 52.41 0.199 54.621 0.199 c 55.684 0.199 56.703
 0.621 57.457 1.375 c 58.207 2.125 58.629 3.145 58.629 4.207 c 58.629 6.422
 56.836 8.215 54.621 8.215 c 52.41 8.215 50.613 6.422 50.613 4.207 c h
S Q
0.811765 0.886275 0.952941 rg
39.617 4.22 m 39.617 6.435 41.41 8.228 43.625 8.228 c 44.688 8.228 45.707
 7.806 46.461 7.056 c 47.211 6.302 47.633 5.283 47.633 4.22 c 47.633 2.009
 45.84 0.213 43.625 0.213 c 41.41 0.213 39.617 2.009 39.617 4.22 c h
f
0 g
q 1 0 0 -1 0 58.275002 cm
39.617 54.055 m 39.617 51.84 41.41 50.047 43.625 50.047 c 44.688 50.047
 45.707 50.469 46.461 51.219 c 47.211 51.973 47.633 52.992 47.633 54.055
 c 47.633 56.266 45.84 58.062 43.625 58.062 c 41.41 58.062 39.617 56.266
 39.617 54.055 c h
S Q
1 0 0 rg
49.438 18.064 m 49.438 20.279 51.234 22.072 53.445 22.072 c 54.512 22.072
 55.531 21.65 56.281 20.9 c 57.031 20.146 57.453 19.127 57.453 18.064 c 
57.453 15.849 55.66 14.056 53.445 14.056 c 51.234 14.056 49.438 15.849 49.438
 18.064 c h
f
0 g
q 1 0 0 -1 0 58.275002 cm
49.438 40.211 m 49.438 37.996 51.234 36.203 53.445 36.203 c 54.512 36.203
 55.531 36.625 56.281 37.375 c 57.031 38.129 57.453 39.148 57.453 40.211
 c 57.453 42.426 55.66 44.219 53.445 44.219 c 51.234 44.219 49.438 42.426
 49.438 40.211 c h
S Q
0.811765 0.886275 0.952941 rg
58.574 4.22 m 58.574 6.435 60.371 8.228 62.582 8.228 c 63.648 8.228 64.668
 7.806 65.418 7.056 c 66.168 6.302 66.59 5.283 66.59 4.22 c 66.59 2.009 
64.797 0.213 62.582 0.213 c 60.371 0.213 58.574 2.009 58.574 4.22 c h
f
0 g
q 1 0 0 -1 0 58.275002 cm
58.574 54.055 m 58.574 51.84 60.371 50.047 62.582 50.047 c 63.648 50.047
 64.668 50.469 65.418 51.219 c 66.168 51.973 66.59 52.992 66.59 54.055 c
 66.59 56.266 64.797 58.062 62.582 58.062 c 60.371 58.062 58.574 56.266 
58.574 54.055 c h
S Q
43.625 8.228 m 50.613 15.232 l f
q 1 0 0 -1 0 58.275002 cm
43.625 50.047 m 50.613 43.043 l S Q
62.582 8.228 m 56.281 15.232 l f
q 1 0 0 -1 0 58.275002 cm
62.582 50.047 m 56.281 43.043 l S Q
14.031 32.244 m 51.789 51.232 l f
q 1 0 0 -1 0 58.275002 cm
14.031 26.031 m 51.789 7.043 l S Q
0.811765 0.886275 0.952941 rg
84.555 4.22 m 84.555 6.435 86.348 8.228 88.562 8.228 c 89.625 8.228 90.645
 7.806 91.395 7.056 c 92.148 6.302 92.57 5.283 92.57 4.22 c 92.57 2.009 
90.773 0.213 88.562 0.213 c 86.348 0.213 84.555 2.009 84.555 4.22 c h
f
0 g
q 1 0 0 -1 0 58.275002 cm
84.555 54.055 m 84.555 51.84 86.348 50.047 88.562 50.047 c 89.625 50.047
 90.645 50.469 91.395 51.219 c 92.148 51.973 92.57 52.992 92.57 54.055 c
 92.57 56.266 90.773 58.062 88.562 58.062 c 86.348 58.062 84.555 56.266 
84.555 54.055 c h
S Q
0.811765 0.886275 0.952941 rg
122.27 4.22 m 122.27 6.435 124.062 8.228 126.277 8.228 c 127.34 8.228 128.359
 7.806 129.109 7.056 c 129.863 6.302 130.285 5.283 130.285 4.22 c 130.285
 2.009 128.492 0.213 126.277 0.213 c 124.062 0.213 122.27 2.009 122.27 4.22
 c h
f
0 g
q 1 0 0 -1 0 58.275002 cm
122.27 54.055 m 122.27 51.84 124.062 50.047 126.277 50.047 c 127.34 50.047
 128.359 50.469 129.109 51.219 c 129.863 51.973 130.285 52.992 130.285 54.055
 c 130.285 56.266 128.492 58.062 126.277 58.062 c 124.062 58.062 122.27 
56.266 122.27 54.055 c h
S Q
0.811765 0.886275 0.952941 rg
132.09 28.236 m 132.09 30.451 133.883 32.244 136.098 32.244 c 137.16 32.244
 138.18 31.822 138.934 31.072 c 139.684 30.318 140.105 29.298 140.105 28.236
 c 140.105 26.025 138.312 24.228 136.098 24.228 c 133.883 24.228 132.09 
26.025 132.09 28.236 c h
f
0 g
q 1 0 0 -1 0 58.275002 cm
132.09 30.039 m 132.09 27.824 133.883 26.031 136.098 26.031 c 137.16 26.031
 138.18 26.453 138.934 27.203 c 139.684 27.957 140.105 28.977 140.105 30.039
 c 140.105 32.25 138.312 34.047 136.098 34.047 c 133.883 34.047 132.09 32.25
 132.09 30.039 c h
S Q
0.811765 0.886275 0.952941 rg
141.227 4.22 m 141.227 6.435 143.02 8.228 145.234 8.228 c 146.297 8.228
 147.316 7.806 148.07 7.056 c 148.82 6.302 149.242 5.283 149.242 4.22 c 
149.242 2.009 147.449 0.213 145.234 0.213 c 143.02 0.213 141.227 2.009 141.227
 4.22 c h
f
0 g
q 1 0 0 -1 0 58.275002 cm
141.227 54.055 m 141.227 51.84 143.02 50.047 145.234 50.047 c 146.297 50.047
 147.316 50.469 148.07 51.219 c 148.82 51.973 149.242 52.992 149.242 54.055
 c 149.242 56.266 147.449 58.062 145.234 58.062 c 143.02 58.062 141.227 
56.266 141.227 54.055 c h
S Q
126.277 8.228 m 133.266 25.404 l f
q 1 0 0 -1 0 58.275002 cm
126.277 50.047 m 133.266 32.871 l S Q
145.234 8.228 m 138.934 25.404 l f
q 1 0 0 -1 0 58.275002 cm
145.234 50.047 m 138.934 32.871 l S Q
0.811765 0.886275 0.952941 rg
172.684 54.068 m 172.684 56.279 174.477 58.076 176.691 58.076 c 177.754
 58.076 178.773 57.654 179.523 56.9 c 180.277 56.15 180.699 55.13 180.699
 54.068 c 180.699 51.853 178.906 50.06 176.691 50.06 c 174.477 50.06 172.684
 51.853 172.684 54.068 c h
f
0 g
q 1 0 0 -1 0 58.275002 cm
172.684 4.207 m 172.684 1.996 174.477 0.199 176.691 0.199 c 177.754 0.199
 178.773 0.621 179.523 1.375 c 180.277 2.125 180.699 3.145 180.699 4.207
 c 180.699 6.422 178.906 8.215 176.691 8.215 c 174.477 8.215 172.684 6.422
 172.684 4.207 c h
S Q
0.811765 0.886275 0.952941 rg
161.688 4.22 m 161.688 6.435 163.48 8.228 165.695 8.228 c 166.758 8.228
 167.777 7.806 168.527 7.056 c 169.281 6.302 169.703 5.283 169.703 4.22 
c 169.703 2.009 167.906 0.213 165.695 0.213 c 163.48 0.213 161.688 2.009
 161.688 4.22 c h
f
0 g
q 1 0 0 -1 0 58.275002 cm
161.688 54.055 m 161.688 51.84 163.48 50.047 165.695 50.047 c 166.758 50.047
 167.777 50.469 168.527 51.219 c 169.281 51.973 169.703 52.992 169.703 54.055
 c 169.703 56.266 167.906 58.062 165.695 58.062 c 163.48 58.062 161.688 
56.266 161.688 54.055 c h
S Q
1 0 0 rg
171.508 18.064 m 171.508 20.279 173.301 22.072 175.516 22.072 c 176.578
 22.072 177.598 21.65 178.352 20.9 c 179.102 20.146 179.523 19.127 179.523
 18.064 c 179.523 15.849 177.73 14.056 175.516 14.056 c 173.301 14.056 171.508
 15.849 171.508 18.064 c h
f
0 g
q 1 0 0 -1 0 58.275002 cm
171.508 40.211 m 171.508 37.996 173.301 36.203 175.516 36.203 c 176.578
 36.203 177.598 36.625 178.352 37.375 c 179.102 38.129 179.523 39.148 179.523
 40.211 c 179.523 42.426 177.73 44.219 175.516 44.219 c 173.301 44.219 171.508
 42.426 171.508 40.211 c h
S Q
0.811765 0.886275 0.952941 rg
180.645 4.22 m 180.645 6.435 182.438 8.228 184.652 8.228 c 185.715 8.228
 186.734 7.806 187.484 7.056 c 188.238 6.302 188.66 5.283 188.66 4.22 c 
188.66 2.009 186.867 0.213 184.652 0.213 c 182.438 0.213 180.645 2.009 180.645
 4.22 c h
f
0 g
q 1 0 0 -1 0 58.275002 cm
180.645 54.055 m 180.645 51.84 182.438 50.047 184.652 50.047 c 185.715 
50.047 186.734 50.469 187.484 51.219 c 188.238 51.973 188.66 52.992 188.66
 54.055 c 188.66 56.266 186.867 58.062 184.652 58.062 c 182.438 58.062 180.645
 56.266 180.645 54.055 c h
S Q
165.695 8.228 m 172.68 15.232 l f
q 1 0 0 -1 0 58.275002 cm
165.695 50.047 m 172.68 43.043 l S Q
184.652 8.228 m 178.352 15.232 l f
q 1 0 0 -1 0 58.275002 cm
184.652 50.047 m 178.352 43.043 l S Q
136.098 32.244 m 173.855 51.232 l f
q 1 0 0 -1 0 58.275002 cm
136.098 26.031 m 173.855 7.043 l S Q
0.811765 0.886275 0.952941 rg
206.621 4.22 m 206.621 6.435 208.418 8.228 210.629 8.228 c 211.691 8.228
 212.711 7.806 213.465 7.056 c 214.215 6.302 214.637 5.283 214.637 4.22 
c 214.637 2.009 212.844 0.213 210.629 0.213 c 208.418 0.213 206.621 2.009
 206.621 4.22 c h
f
0 g
q 1 0 0 -1 0 58.275002 cm
206.621 54.055 m 206.621 51.84 208.418 50.047 210.629 50.047 c 211.691 
50.047 212.711 50.469 213.465 51.219 c 214.215 51.973 214.637 52.992 214.637
 54.055 c 214.637 56.266 212.844 58.062 210.629 58.062 c 208.418 58.062 
206.621 56.266 206.621 54.055 c h
S Q
210.629 8.228 m 179.523 51.232 l f
q 1 0 0 -1 0 58.275002 cm
210.629 50.047 m 179.523 7.043 l S Q
0.811765 0.886275 0.952941 rg
65.871 32.025 m 65.871 34.24 67.668 36.037 69.879 36.037 c 70.945 36.037
 71.965 35.611 72.715 34.861 c 73.465 34.111 73.891 33.091 73.891 32.025
 c 73.891 29.814 72.094 28.017 69.879 28.017 c 67.668 28.017 65.871 29.814
 65.871 32.025 c h
f
0 g
q 1 0 0 -1 0 58.275002 cm
65.871 26.25 m 65.871 24.035 67.668 22.238 69.879 22.238 c 70.945 22.238
 71.965 22.664 72.715 23.414 c 73.465 24.164 73.891 25.184 73.891 26.25 
c 73.891 28.461 72.094 30.258 69.879 30.258 c 67.668 30.258 65.871 28.461
 65.871 26.25 c h
S Q
88.562 8.228 m 72.715 29.193 l f
q 1 0 0 -1 0 58.275002 cm
88.562 50.047 m 72.715 29.082 l S Q
53.445 22.072 m 67.047 29.193 l f
q 1 0 0 -1 0 58.275002 cm
53.445 36.203 m 67.047 29.082 l S Q
69.879 36.037 m 57.457 51.232 l f
q 1 0 0 -1 0 58.275002 cm
69.879 22.238 m 57.457 7.043 l S Q
0.811765 0.886275 0.952941 rg
171.508 29.732 m 171.508 31.947 173.301 33.74 175.516 33.74 c 176.578 33.74
 177.598 33.318 178.352 32.568 c 179.102 31.814 179.523 30.795 179.523 29.732
 c 179.523 27.517 177.73 25.724 175.516 25.724 c 173.301 25.724 171.508 
27.517 171.508 29.732 c h
f
0 g
q 1 0 0 -1 0 58.275002 cm
171.508 28.543 m 171.508 26.328 173.301 24.535 175.516 24.535 c 176.578
 24.535 177.598 24.957 178.352 25.707 c 179.102 26.461 179.523 27.48 179.523
 28.543 c 179.523 30.758 177.73 32.551 175.516 32.551 c 173.301 32.551 171.508
 30.758 171.508 28.543 c h
S Q
q 1 0 0 -1 0 58.275002 cm
175.516 36.203 m 175.516 32.551 l S Q
0.811765 0.886275 0.952941 rg
246.801 4.22 m 246.801 6.435 248.598 8.228 250.809 8.228 c 251.871 8.228
 252.891 7.806 253.645 7.056 c 254.395 6.302 254.816 5.283 254.816 4.22 
c 254.816 2.009 253.023 0.213 250.809 0.213 c 248.598 0.213 246.801 2.009
 246.801 4.22 c h
f
0 g
q 1 0 0 -1 0 58.275002 cm
246.801 54.055 m 246.801 51.84 248.598 50.047 250.809 50.047 c 251.871 
50.047 252.891 50.469 253.645 51.219 c 254.395 51.973 254.816 52.992 254.816
 54.055 c 254.816 56.266 253.023 58.062 250.809 58.062 c 248.598 58.062 
246.801 56.266 246.801 54.055 c h
S Q
0.811765 0.886275 0.952941 rg
256.621 28.236 m 256.621 30.451 258.418 32.244 260.633 32.244 c 261.695
 32.244 262.715 31.822 263.465 31.072 c 264.219 30.318 264.641 29.298 264.641
 28.236 c 264.641 26.025 262.844 24.228 260.633 24.228 c 258.418 24.228 
256.621 26.025 256.621 28.236 c h
f
0 g
q 1 0 0 -1 0 58.275002 cm
256.621 30.039 m 256.621 27.824 258.418 26.031 260.633 26.031 c 261.695
 26.031 262.715 26.453 263.465 27.203 c 264.219 27.957 264.641 28.977 264.641
 30.039 c 264.641 32.25 262.844 34.047 260.633 34.047 c 258.418 34.047 256.621
 32.25 256.621 30.039 c h
S Q
0.811765 0.886275 0.952941 rg
265.758 4.22 m 265.758 6.435 267.555 8.228 269.77 8.228 c 270.832 8.228
 271.852 7.806 272.602 7.056 c 273.355 6.302 273.777 5.283 273.777 4.22 
c 273.777 2.009 271.98 0.213 269.77 0.213 c 267.555 0.213 265.758 2.009 
265.758 4.22 c h
f
0 g
q 1 0 0 -1 0 58.275002 cm
265.758 54.055 m 265.758 51.84 267.555 50.047 269.77 50.047 c 270.832 50.047
 271.852 50.469 272.602 51.219 c 273.355 51.973 273.777 52.992 273.777 54.055
 c 273.777 56.266 271.98 58.062 269.77 58.062 c 267.555 58.062 265.758 56.266
 265.758 54.055 c h
S Q
250.809 8.228 m 257.797 25.404 l f
q 1 0 0 -1 0 58.275002 cm
250.809 50.047 m 257.797 32.871 l S Q
269.77 8.228 m 263.465 25.404 l f
q 1 0 0 -1 0 58.275002 cm
269.77 50.047 m 263.465 32.871 l S Q
0.811765 0.886275 0.952941 rg
297.215 54.068 m 297.215 56.279 299.012 58.076 301.223 58.076 c 302.285
 58.076 303.305 57.654 304.059 56.9 c 304.809 56.15 305.23 55.13 305.23 
54.068 c 305.23 51.853 303.438 50.06 301.223 50.06 c 299.012 50.06 297.215
 51.853 297.215 54.068 c h
f
0 g
q 1 0 0 -1 0 58.275002 cm
297.215 4.207 m 297.215 1.996 299.012 0.199 301.223 0.199 c 302.285 0.199
 303.305 0.621 304.059 1.375 c 304.809 2.125 305.23 3.145 305.23 4.207 c
 305.23 6.422 303.438 8.215 301.223 8.215 c 299.012 8.215 297.215 6.422 
297.215 4.207 c h
S Q
0.811765 0.886275 0.952941 rg
286.219 4.22 m 286.219 6.435 288.012 8.228 290.227 8.228 c 291.289 8.228
 292.309 7.806 293.062 7.056 c 293.812 6.302 294.234 5.283 294.234 4.22 
c 294.234 2.009 292.441 0.213 290.227 0.213 c 288.012 0.213 286.219 2.009
 286.219 4.22 c h
f
0 g
q 1 0 0 -1 0 58.275002 cm
286.219 54.055 m 286.219 51.84 288.012 50.047 290.227 50.047 c 291.289 
50.047 292.309 50.469 293.062 51.219 c 293.812 51.973 294.234 52.992 294.234
 54.055 c 294.234 56.266 292.441 58.062 290.227 58.062 c 288.012 58.062 
286.219 56.266 286.219 54.055 c h
S Q
1 0 0 rg
296.039 18.064 m 296.039 20.279 297.836 22.072 300.047 22.072 c 301.113
 22.072 302.133 21.65 302.883 20.9 c 303.633 20.146 304.055 19.127 304.055
 18.064 c 304.055 15.849 302.262 14.056 300.047 14.056 c 297.836 14.056 
296.039 15.849 296.039 18.064 c h
f
0 g
q 1 0 0 -1 0 58.275002 cm
296.039 40.211 m 296.039 37.996 297.836 36.203 300.047 36.203 c 301.113
 36.203 302.133 36.625 302.883 37.375 c 303.633 38.129 304.055 39.148 304.055
 40.211 c 304.055 42.426 302.262 44.219 300.047 44.219 c 297.836 44.219 
296.039 42.426 296.039 40.211 c h
S Q
0.811765 0.886275 0.952941 rg
305.176 4.22 m 305.176 6.435 306.973 8.228 309.184 8.228 c 310.25 8.228
 311.266 7.806 312.02 7.056 c 312.77 6.302 313.191 5.283 313.191 4.22 c 
313.191 2.009 311.398 0.213 309.184 0.213 c 306.973 0.213 305.176 2.009 
305.176 4.22 c h
f
0 g
q 1 0 0 -1 0 58.275002 cm
305.176 54.055 m 305.176 51.84 306.973 50.047 309.184 50.047 c 310.25 50.047
 311.266 50.469 312.02 51.219 c 312.77 51.973 313.191 52.992 313.191 54.055
 c 313.191 56.266 311.398 58.062 309.184 58.062 c 306.973 58.062 305.176
 56.266 305.176 54.055 c h
S Q
290.227 8.228 m 297.215 15.232 l f
q 1 0 0 -1 0 58.275002 cm
290.227 50.047 m 297.215 43.043 l S Q
309.184 8.228 m 302.883 15.232 l f
q 1 0 0 -1 0 58.275002 cm
309.184 50.047 m 302.883 43.043 l S Q
0.811765 0.886275 0.952941 rg
331.156 4.22 m 331.156 6.435 332.949 8.228 335.164 8.228 c 336.227 8.228
 337.246 7.806 337.996 7.056 c 338.75 6.302 339.172 5.283 339.172 4.22 c
 339.172 2.009 337.375 0.213 335.164 0.213 c 332.949 0.213 331.156 2.009
 331.156 4.22 c h
f
0 g
q 1 0 0 -1 0 58.275002 cm
331.156 54.055 m 331.156 51.84 332.949 50.047 335.164 50.047 c 336.227 
50.047 337.246 50.469 337.996 51.219 c 338.75 51.973 339.172 52.992 339.172
 54.055 c 339.172 56.266 337.375 58.062 335.164 58.062 c 332.949 58.062 
331.156 56.266 331.156 54.055 c h
S Q
335.164 8.228 m 304.059 51.232 l f
q 1 0 0 -1 0 58.275002 cm
335.164 50.047 m 304.059 7.043 l S Q
0.811765 0.886275 0.952941 rg
278.203 41.74 m 278.203 43.951 279.996 45.748 282.211 45.748 c 283.273 
45.748 284.293 45.326 285.043 44.572 c 285.797 43.822 286.219 42.802 286.219
 41.74 c 286.219 39.525 284.426 37.732 282.211 37.732 c 279.996 37.732 278.203
 39.525 278.203 41.74 c h
f
0 g
q 1 0 0 -1 0 58.275002 cm
278.203 16.535 m 278.203 14.324 279.996 12.527 282.211 12.527 c 283.273
 12.527 284.293 12.949 285.043 13.703 c 285.797 14.453 286.219 15.473 286.219
 16.535 c 286.219 18.75 284.426 20.543 282.211 20.543 c 279.996 20.543 278.203
 18.75 278.203 16.535 c h
S Q
300.047 22.072 m 285.043 38.904 l f
q 1 0 0 -1 0 58.275002 cm
300.047 36.203 m 285.043 19.371 l S Q
260.633 32.244 m 279.375 38.904 l f
q 1 0 0 -1 0 58.275002 cm
260.633 26.031 m 279.375 19.371 l S Q
282.211 45.748 m 298.391 51.232 l f
q 1 0 0 -1 0 58.275002 cm
282.211 12.527 m 298.391 7.043 l S Q
174.465 52.646 m 174.449 52.627 l 174.449 52.607 l 174.438 52.588 l 174.438
 52.552 l 174.422 52.533 l 174.422 52.505 l 174.41 52.49 l 174.41 52.466
 l 174.395 52.455 l 174.395 52.443 l 174.383 52.435 l 174.383 52.427 l 174.352
 52.412 l 174.34 52.404 l 174.34 52.396 l 174.324 52.392 l 174.312 52.388
 l 174.297 52.38 l 174.285 52.377 l 174.27 52.377 l 174.242 52.373 l 174.23
 52.369 l 174.199 52.369 l 174.188 52.365 l 174.09 52.365 l 174.008 52.365
 173.926 52.365 173.926 52.232 c 173.926 52.177 173.965 52.15 174.02 52.15
 c 174.199 52.15 174.41 52.173 174.602 52.173 c 174.824 52.173 175.059 52.15
 175.281 52.15 c 175.309 52.15 175.406 52.15 175.406 52.287 c 175.406 52.365
 175.336 52.365 175.238 52.365 c 174.895 52.365 174.895 52.416 174.895 52.474
 c 174.895 52.556 175.184 53.681 175.238 53.853 c 175.324 53.654 175.516
 53.412 175.863 53.412 c 175.863 53.564 l 175.406 53.564 175.309 54.138 
175.309 54.181 c 175.309 54.193 175.309 54.209 175.336 54.291 c 175.668 
55.642 l 175.727 55.83 175.906 56.021 176.031 56.127 c 176.277 56.341 176.473
 56.388 176.598 56.388 c 176.859 56.388 177.043 56.146 177.043 55.74 c 177.043
 55.334 176.805 54.541 176.68 54.275 c 176.445 53.791 176.113 53.564 175.863
 53.564 c 175.863 53.412 l 176.668 53.412 177.527 54.42 177.527 55.435 c
 177.527 56.084 177.137 56.541 176.613 56.541 c 176.266 56.541 175.934 56.295
 175.711 56.021 c 175.641 56.396 175.336 56.541 175.086 56.541 c 174.77 
56.541 174.629 56.271 174.574 56.146 c 174.449 55.912 174.367 55.498 174.367
 55.478 c 174.367 55.408 174.438 55.408 174.449 55.408 c 174.52 55.408 174.52
 55.416 174.562 55.568 c 174.688 56.056 174.824 56.388 175.059 56.388 c 
175.184 56.388 175.281 56.334 175.281 56.072 c 175.281 55.912 175.254 55.838
 175.238 55.72 c h
f
179.188 55.459 m 179.188 55.505 l 179.176 55.513 l 179.176 55.537 l 179.16
 55.545 l 179.16 55.556 l 179.148 55.564 l 179.148 55.58 l 179.133 55.588
 l 179.133 55.591 l 179.121 55.599 l 179.121 55.603 l 179.105 55.611 l 179.105
 55.615 l 179.09 55.623 l 179.078 55.627 l 179.078 55.63 l 179.062 55.634
 l 179.051 55.634 l 179.035 55.638 l 179.035 55.642 l 178.996 55.642 l 178.855
 55.642 178.719 55.517 178.719 55.377 c 178.719 55.295 178.785 55.193 178.91
 55.193 c 179.051 55.193 179.188 55.33 179.188 55.459 c h
f
178.203 53.005 m 178.203 52.994 l 178.191 52.982 l 178.191 52.947 l 178.176
 52.935 l 178.176 52.9 l 178.164 52.888 l 178.164 52.802 l 178.164 52.576
 178.359 52.396 178.621 52.396 c 179.105 52.396 179.312 53.06 179.312 53.13
 c 179.312 53.197 179.258 53.197 179.23 53.197 c 179.176 53.197 179.16 53.166
 179.148 53.111 c 179.035 52.728 178.816 52.529 178.633 52.529 c 178.539
 52.529 178.512 52.591 178.512 52.697 c 178.512 52.806 178.551 52.9 178.594
 53.005 c 178.633 53.134 178.691 53.267 178.746 53.392 c 178.785 53.509 
178.969 53.947 178.98 54.005 c 178.996 54.056 179.008 54.111 179.008 54.162
 c 179.008 54.388 178.816 54.568 178.551 54.568 c 178.066 54.568 177.844
 53.912 177.844 53.83 c 177.844 53.767 177.914 53.767 177.93 53.767 c 177.996
 53.767 178.012 53.791 178.023 53.845 c 178.148 54.263 178.359 54.435 178.539
 54.435 c 178.605 54.435 178.648 54.396 178.648 54.267 c 178.648 54.154 
178.633 54.084 178.512 53.783 c h
f
300.508 20.615 m 300.508 20.65 l 300.496 20.654 l 300.496 20.67 l 300.48
 20.67 l 300.48 20.677 l 300.465 20.681 l 300.465 20.685 l 300.453 20.685
 l 300.453 20.689 l 300.426 20.689 l 300.258 20.689 299.762 20.634 299.578
 20.623 c 299.523 20.615 299.441 20.607 299.441 20.474 c 299.441 20.4 299.512
 20.4 299.621 20.4 c 299.953 20.4 299.953 20.338 299.953 20.283 c 299.941
 20.146 l 299.066 16.693 l 299.055 16.619 299.027 16.568 299.027 16.459 
c 299.027 16.064 299.344 15.822 299.664 15.822 c 299.883 15.822 300.066 
15.963 300.176 16.209 c 300.301 16.474 300.383 16.873 300.383 16.888 c 300.383
 16.959 300.328 16.959 300.301 16.959 c 300.23 16.959 300.23 16.927 300.203
 16.83 c 300.094 16.384 299.953 15.974 299.676 15.974 c 299.469 15.974 299.469
 16.197 299.469 16.295 c 299.469 16.459 299.484 16.494 299.512 16.627 c 
h
f
279.859 40.232 m 279.844 40.213 l 279.844 40.173 l 279.832 40.154 l 279.832
 40.119 l 279.816 40.107 l 279.816 40.091 l 279.805 40.076 l 279.805 40.052
 l 279.789 40.041 l 279.789 40.029 l 279.777 40.021 l 279.777 40.013 l 279.746
 39.998 l 279.746 39.99 l 279.734 39.982 l 279.719 39.978 l 279.707 39.974
 l 279.691 39.966 l 279.68 39.963 l 279.664 39.963 l 279.637 39.959 l 279.625
 39.955 l 279.594 39.955 l 279.582 39.951 l 279.484 39.951 l 279.402 39.951
 279.316 39.951 279.316 39.818 c 279.316 39.763 279.359 39.736 279.414 39.736
 c 279.594 39.736 279.805 39.759 279.996 39.759 c 280.219 39.759 280.453
 39.736 280.676 39.736 c 280.703 39.736 280.801 39.736 280.801 39.873 c 
280.801 39.951 280.73 39.951 280.633 39.951 c 280.289 39.951 280.289 40.002
 280.289 40.06 c 280.289 40.142 280.578 41.267 280.633 41.439 c 280.719 
41.24 280.91 40.998 281.258 40.998 c 281.258 41.15 l 280.801 41.15 280.703
 41.724 280.703 41.767 c 280.703 41.779 280.703 41.795 280.73 41.877 c 281.062
 43.228 l 281.121 43.416 281.301 43.607 281.426 43.713 c 281.672 43.927 
281.867 43.974 281.992 43.974 c 282.27 43.974 282.434 43.732 282.434 43.326
 c 282.434 42.92 282.199 42.127 282.074 41.861 c 281.84 41.38 281.508 41.15
 281.258 41.15 c 281.258 40.998 l 282.062 40.998 282.922 42.005 282.922 
43.021 c 282.922 43.67 282.531 44.127 282.008 44.127 c 281.66 44.127 281.328
 43.88 281.105 43.607 c 281.035 43.982 280.746 44.127 280.48 44.127 c 280.164
 44.127 280.023 43.857 279.969 43.732 c 279.844 43.498 279.762 43.084 279.762
 43.064 c 279.762 42.994 279.832 42.994 279.844 42.994 c 279.914 42.994 
279.914 43.002 279.957 43.154 c 280.082 43.642 280.219 43.974 280.469 43.974
 c 280.578 43.974 280.676 43.92 280.676 43.658 c 280.676 43.498 280.648 
43.423 280.633 43.306 c h
f
284.375 43.232 m 284.375 43.24 l 284.391 43.244 l 284.391 43.295 l 284.402
 43.298 l 284.402 43.31 l 284.402 43.334 284.375 43.38 284.32 43.38 c 284.223
 43.38 283.82 43.341 283.695 43.33 c 283.668 43.326 283.598 43.318 283.598
 43.22 c 283.598 43.15 283.668 43.15 283.723 43.15 c 283.961 43.15 283.961
 43.119 283.961 43.076 c 283.961 43.045 283.945 43.013 283.934 42.97 c 283.336
 40.588 l 283.32 40.541 283.32 40.486 283.32 40.439 c 283.32 40.13 283.586
 39.982 283.82 39.982 c 283.945 39.982 284.086 40.021 284.207 40.236 c 284.305
 40.412 284.375 40.697 284.375 40.716 c 284.375 40.783 284.32 40.783 284.305
 40.783 c 284.238 40.783 284.223 40.752 284.207 40.662 c 284.141 40.423 
284.043 40.115 283.836 40.115 c 283.711 40.115 283.684 40.236 283.684 40.349
 c 283.684 40.404 283.695 40.494 283.711 40.548 c h
f
187.746 18.498 m 187.746 18.529 l 187.73 18.533 l 187.73 18.552 l 187.715
 18.552 l 187.715 18.56 l 187.699 18.564 l 187.699 18.568 l 187.684 18.572
 l 187.684 18.576 l 187.668 18.576 l 187.621 18.576 187.605 18.568 187.512
 18.459 c 187.152 18.009 l 186.949 18.38 186.539 18.576 186.023 18.576 c
 185.035 18.576 184.094 17.677 184.094 16.728 c 184.094 16.099 184.516 15.736
 184.91 15.623 c 185.742 15.4 l 186.039 15.334 186.461 15.216 186.461 14.572
 c 186.461 13.873 185.82 13.138 185.066 13.138 c 184.562 13.138 183.688 
13.31 183.688 14.279 c 183.688 14.466 183.734 14.65 183.734 14.701 c 183.75
 14.732 183.75 14.74 183.75 14.755 c 183.75 14.834 183.703 14.841 183.656
 14.841 c 183.625 14.841 183.609 14.834 183.574 14.81 c 183.543 14.779 183.121
 12.998 183.121 12.974 c 183.121 12.927 183.152 12.896 183.199 12.896 c 
183.246 12.896 183.246 12.9 183.34 13.013 c 183.719 13.459 l 184.062 13.005
 184.594 12.896 185.051 12.896 c 186.102 12.896 187.027 13.935 187.027 14.9
 c 187.027 15.439 186.758 15.709 186.648 15.814 c 186.461 15.998 186.352
 16.029 185.645 16.209 c 185.473 16.255 185.207 16.334 185.129 16.345 c 
184.91 16.42 184.656 16.642 184.656 17.056 c 184.656 17.693 185.285 18.357
 186.023 18.357 c 186.664 18.357 187.152 18.021 187.152 17.142 c 187.152
 16.896 187.105 16.755 187.105 16.709 c 187.105 16.701 187.105 16.63 187.215
 16.63 c 187.293 16.63 187.293 16.654 187.324 16.787 c h
f
189.051 15.509 m 189.051 15.541 l 189.066 15.545 l 189.066 15.595 l 189.066
 15.623 189.051 15.673 188.988 15.673 c 188.875 15.673 188.422 15.63 188.281
 15.619 c 188.25 15.615 188.172 15.607 188.172 15.494 c 188.172 15.416 188.25
 15.416 188.312 15.416 c 188.562 15.416 188.562 15.377 188.562 15.334 c 
188.562 15.295 188.547 15.263 188.547 15.213 c 187.871 12.517 l 187.84 12.459
 187.84 12.4 187.84 12.345 c 187.84 11.994 188.156 11.826 188.422 11.826
 c 188.547 11.826 188.719 11.873 188.859 12.115 c 188.973 12.318 189.051
 12.638 189.051 12.662 c 189.051 12.732 188.973 12.732 188.957 12.732 c 
188.875 12.732 188.875 12.701 188.844 12.599 c 188.781 12.33 188.672 11.978
 188.438 11.978 c 188.297 11.978 188.25 12.115 188.25 12.248 c 188.25 12.306
 188.266 12.408 188.297 12.47 c h
f
196.578 36.009 m 197.473 36.009 l 197.203 34.853 197.141 34.517 197.141
 33.994 c 197.141 33.877 197.141 33.666 197.203 33.4 c 197.281 33.056 197.363
 33.009 197.488 33.009 c 197.645 33.009 197.801 33.15 197.801 33.306 c 197.801
 33.353 197.801 33.369 197.754 33.478 c 197.535 34.041 197.535 34.548 197.535
 34.767 c 197.535 35.181 197.582 35.603 197.676 36.009 c 198.57 36.009 l
 198.664 36.009 198.945 36.009 198.945 36.275 c 198.945 36.463 198.773 36.463
 198.633 36.463 c 196.012 36.463 l 195.84 36.463 195.543 36.463 195.199 
36.095 c 194.93 35.791 194.727 35.431 194.727 35.392 c 194.727 35.384 194.727
 35.314 194.82 35.314 c 194.883 35.314 194.898 35.345 194.945 35.408 c 195.324
 36.009 195.777 36.009 195.934 36.009 c 196.375 36.009 l 196.137 35.064 
195.715 34.119 195.387 33.408 c 195.324 33.291 195.324 33.275 195.324 33.22
 c 195.324 33.072 195.449 33.009 195.543 33.009 c 195.777 33.009 195.84 
33.228 195.934 33.517 c 196.043 33.877 196.043 33.892 196.137 34.283 c h
f
200.516 35.537 m 200.516 35.556 l 200.531 35.56 l 200.531 35.623 l 200.547
 35.623 l 200.547 35.654 200.516 35.705 200.449 35.705 c 200.34 35.705 199.887
 35.658 199.746 35.646 c 199.715 35.642 199.637 35.634 199.637 35.521 c 
199.637 35.447 199.715 35.447 199.777 35.447 c 200.027 35.447 200.027 35.408
 200.027 35.361 c 200.027 35.326 200.027 35.291 200.012 35.24 c 199.336 
32.545 l 199.32 32.49 199.305 32.427 199.305 32.377 c 199.305 32.025 199.621
 31.857 199.887 31.857 c 200.012 31.857 200.184 31.9 200.324 32.146 c 200.434
 32.345 200.516 32.67 200.516 32.689 c 200.516 32.763 200.449 32.763 200.418
 32.763 c 200.355 32.763 200.34 32.728 200.324 32.63 c 200.246 32.357 200.137
 32.005 199.902 32.005 c 199.762 32.005 199.73 32.146 199.73 32.275 c 199.73
 32.338 199.746 32.439 199.762 32.498 c h
f
261.16 30.619 m 261.16 30.681 l 261.145 30.693 l 261.145 30.716 l 261.133
 30.728 l 261.133 30.752 l 261.117 30.759 l 261.117 30.767 l 261.105 30.779
 l 261.105 30.787 l 261.09 30.798 l 261.09 30.802 l 261.074 30.81 l 261.062
 30.818 l 261.062 30.826 l 261.047 30.834 l 261.035 30.838 l 261.02 30.845
 l 261.008 30.849 l 261.008 30.853 l 260.992 30.857 l 260.98 30.861 l 260.965
 30.865 l 260.953 30.865 l 260.938 30.869 l 260.91 30.869 l 260.715 30.869
 260.535 30.689 260.535 30.502 c 260.535 30.373 260.633 30.255 260.801 30.255
 c 260.953 30.255 261.16 30.412 261.16 30.619 c h
f
260.633 28.025 m 260.648 28.041 l 260.648 28.06 l 260.66 28.076 l 260.66
 28.091 l 260.676 28.103 l 260.676 28.134 l 260.688 28.146 l 260.688 28.166
 l 260.703 28.177 l 260.703 28.209 l 260.715 28.228 l 260.715 28.248 l 260.73
 28.267 l 260.73 28.279 l 260.742 28.291 l 260.742 28.322 l 260.758 28.338
 l 260.758 28.361 l 260.77 28.377 l 260.77 28.392 l 260.785 28.408 l 260.785
 28.423 l 260.84 28.564 260.883 28.658 260.883 28.791 c 260.883 29.099 260.66
 29.357 260.312 29.357 c 259.664 29.357 259.398 28.357 259.398 28.295 c 
259.398 28.224 259.469 28.224 259.484 28.224 c 259.551 28.224 259.566 28.236
 259.594 28.349 c 259.789 28.998 260.051 29.205 260.285 29.205 c 260.34 
29.205 260.465 29.205 260.465 28.982 c 260.465 28.838 260.41 28.693 260.383
 28.623 c 260.328 28.443 260.023 27.646 259.914 27.345 c 259.844 27.17 259.746
 26.939 259.746 26.795 c 259.746 26.47 259.98 26.228 260.312 26.228 c 260.965
 26.228 261.227 27.228 261.227 27.295 c 261.227 27.361 261.16 27.361 261.145
 27.361 c 261.074 27.361 261.074 27.341 261.035 27.236 c 260.91 26.802 260.688
 26.38 260.328 26.38 c 260.219 26.38 260.16 26.451 260.16 26.607 c 260.16
 26.783 260.203 26.88 260.371 27.298 c h
f
54.012 20.681 m 54.012 20.72 l 53.996 20.72 l 53.996 20.736 l 53.98 20.736
 l 53.98 20.744 l 53.969 20.748 l 53.969 20.752 l 53.953 20.752 l 53.953
 20.755 l 53.941 20.755 l 53.926 20.759 l 53.762 20.759 53.262 20.701 53.082
 20.689 c 53.027 20.681 52.941 20.677 52.941 20.545 c 52.941 20.466 53.012
 20.466 53.125 20.466 c 53.457 20.466 53.457 20.404 53.457 20.349 c 53.441
 20.213 l 52.57 16.763 l 52.555 16.685 52.527 16.634 52.527 16.525 c 52.527
 16.134 52.848 15.892 53.164 15.892 c 53.387 15.892 53.566 16.029 53.676
 16.279 c 53.801 16.541 53.887 16.939 53.887 16.955 c 53.887 17.025 53.828
 17.025 53.801 17.025 c 53.734 17.025 53.734 16.994 53.703 16.896 c 53.594
 16.451 53.457 16.045 53.18 16.045 c 52.973 16.045 52.973 16.263 52.973 
16.361 c 52.973 16.525 52.984 16.56 53.012 16.693 c h
f
173.223 28.213 m 173.211 28.193 l 173.211 28.154 l 173.195 28.134 l 173.195
 28.099 l 173.184 28.088 l 173.184 28.072 l 173.168 28.056 l 173.168 28.033
 l 173.156 28.021 l 173.156 28.009 l 173.141 28.002 l 173.141 27.994 l 173.129
 27.986 l 173.113 27.978 l 173.113 27.97 l 173.098 27.963 l 173.086 27.959
 l 173.07 27.951 l 173.059 27.947 l 173.043 27.943 l 173.031 27.943 l 173.004
 27.939 l 172.988 27.935 l 172.961 27.935 l 172.945 27.931 l 172.852 27.931
 l 172.766 27.931 172.684 27.931 172.684 27.798 c 172.684 27.744 172.727
 27.716 172.781 27.716 c 172.961 27.716 173.168 27.74 173.363 27.74 c 173.586
 27.74 173.82 27.716 174.043 27.716 c 174.07 27.716 174.168 27.716 174.168
 27.853 c 174.168 27.931 174.098 27.931 174 27.931 c 173.652 27.931 173.652
 27.982 173.652 28.041 c 173.652 28.123 173.945 29.248 174 29.42 c 174.082
 29.22 174.277 28.978 174.625 28.978 c 174.625 29.13 l 174.168 29.13 174.07
 29.705 174.07 29.748 c 174.07 29.759 174.07 29.775 174.098 29.857 c 174.43
 31.209 l 174.484 31.396 174.664 31.588 174.789 31.693 c 175.039 31.908 
175.234 31.955 175.359 31.955 c 175.637 31.955 175.801 31.713 175.801 31.306
 c 175.801 30.9 175.566 30.107 175.441 29.841 c 175.207 29.357 174.871 29.13
 174.625 29.13 c 174.625 28.978 l 175.426 28.978 176.285 29.986 176.285 
31.002 c 176.285 31.65 175.898 32.107 175.371 32.107 c 175.023 32.107 174.691
 31.861 174.473 31.588 c 174.402 31.963 174.109 32.107 173.848 32.107 c 
173.527 32.107 173.391 31.838 173.336 31.713 c 173.211 31.478 173.129 31.064
 173.129 31.045 c 173.129 30.974 173.195 30.974 173.211 30.974 c 173.281
 30.974 173.281 30.982 173.32 31.134 c 173.445 31.623 173.586 31.955 173.832
 31.955 c 173.945 31.955 174.043 31.9 174.043 31.638 c 174.043 31.478 174.016
 31.404 174 31.287 c h
f
177.742 31.213 m 177.742 31.22 l 177.754 31.224 l 177.754 31.275 l 177.77
 31.279 l 177.77 31.291 l 177.77 31.314 177.742 31.361 177.684 31.361 c 
177.59 31.361 177.188 31.322 177.062 31.31 c 177.035 31.306 176.965 31.298
 176.965 31.201 c 176.965 31.13 177.035 31.13 177.09 31.13 c 177.324 31.13
 177.324 31.099 177.324 31.056 c 177.324 31.025 177.312 30.994 177.297 30.951
 c 176.703 28.568 l 176.688 28.521 176.688 28.466 176.688 28.42 c 176.688
 28.111 176.949 27.963 177.188 27.963 c 177.312 27.963 177.449 28.002 177.574
 28.216 c 177.672 28.392 177.742 28.677 177.742 28.697 c 177.742 28.763 
177.684 28.763 177.672 28.763 c 177.602 28.763 177.59 28.732 177.574 28.642
 c 177.504 28.404 177.41 28.095 177.199 28.095 c 177.074 28.095 177.047 
28.216 177.047 28.33 c 177.047 28.384 177.062 28.474 177.074 28.529 c h
f
298.883 52.662 m 298.871 52.638 l 298.871 52.619 l 298.855 52.599 l 298.855
 52.564 l 298.844 52.548 l 298.844 52.517 l 298.828 52.505 l 298.828 52.478
 l 298.816 52.466 l 298.816 52.459 l 298.801 52.447 l 298.801 52.439 l 298.785
 52.431 l 298.773 52.423 l 298.758 52.416 l 298.758 52.412 l 298.746 52.404
 l 298.73 52.4 l 298.719 52.396 l 298.703 52.392 l 298.691 52.388 l 298.66
 52.384 l 298.648 52.384 l 298.633 52.38 l 298.578 52.38 l 298.566 52.377
 l 298.508 52.377 l 298.426 52.377 298.344 52.377 298.344 52.248 c 298.344
 52.189 298.387 52.162 298.441 52.162 c 298.621 52.162 298.828 52.185 299.023
 52.185 c 299.242 52.185 299.48 52.162 299.699 52.162 c 299.73 52.162 299.824
 52.162 299.824 52.302 c 299.824 52.377 299.758 52.377 299.66 52.377 c 299.312
 52.377 299.312 52.427 299.312 52.486 c 299.312 52.572 299.605 53.697 299.66
 53.869 c 299.742 53.67 299.938 53.427 300.281 53.427 c 300.281 53.58 l 
299.824 53.58 299.73 54.154 299.73 54.193 c 299.73 54.205 299.73 54.22 299.758
 54.302 c 300.09 55.658 l 300.145 55.841 300.324 56.037 300.449 56.138 c
 300.699 56.353 300.895 56.4 301.016 56.4 c 301.281 56.4 301.461 56.162 
301.461 55.752 c 301.461 55.345 301.227 54.552 301.102 54.287 c 300.863 
53.806 300.531 53.58 300.281 53.58 c 300.281 53.427 l 301.086 53.427 301.945
 54.435 301.945 55.451 c 301.945 56.099 301.559 56.552 301.031 56.552 c 
300.684 56.552 300.352 56.306 300.129 56.037 c 300.062 56.408 299.758 56.552
 299.508 56.552 c 299.188 56.552 299.051 56.283 298.996 56.162 c 298.871
 55.927 298.785 55.513 298.785 55.49 c 298.785 55.423 298.855 55.423 298.871
 55.423 c 298.938 55.423 298.938 55.431 298.98 55.58 c 299.105 56.072 299.242
 56.4 299.48 56.4 c 299.605 56.4 299.699 56.345 299.699 56.084 c 299.699
 55.927 299.672 55.849 299.66 55.732 c h
f
303.609 55.474 m 303.609 55.517 l 303.594 55.525 l 303.594 55.548 l 303.582
 55.556 l 303.582 55.572 l 303.566 55.58 l 303.566 55.591 l 303.551 55.599
 l 303.551 55.607 l 303.539 55.611 l 303.539 55.619 l 303.523 55.623 l 303.523
 55.63 l 303.512 55.634 l 303.496 55.638 l 303.496 55.642 l 303.484 55.646
 l 303.469 55.65 l 303.457 55.65 l 303.457 55.654 l 303.441 55.654 l 303.43
 55.658 l 303.414 55.658 l 303.277 55.658 303.137 55.533 303.137 55.392 
c 303.137 55.306 303.207 55.209 303.332 55.209 c 303.469 55.209 303.609 
55.341 303.609 55.474 c h
f
302.625 53.021 m 302.625 53.009 l 302.609 52.998 l 302.609 52.963 l 302.598
 52.951 l 302.598 52.916 l 302.582 52.9 l 302.582 52.818 l 302.582 52.591
 302.777 52.408 303.039 52.408 c 303.523 52.408 303.734 53.072 303.734 53.146
 c 303.734 53.209 303.676 53.209 303.648 53.209 c 303.594 53.209 303.582
 53.181 303.566 53.127 c 303.457 52.74 303.234 52.541 303.055 52.541 c 302.957
 52.541 302.93 52.603 302.93 52.709 c 302.93 52.822 302.973 52.916 303.012
 53.021 c 303.055 53.15 303.109 53.279 303.164 53.404 c 303.207 53.521 303.387
 53.963 303.398 54.021 c 303.414 54.068 303.43 54.127 303.43 54.173 c 303.43
 54.4 303.234 54.584 302.973 54.584 c 302.484 54.584 302.266 53.927 302.266
 53.845 c 302.266 53.783 302.332 53.783 302.348 53.783 c 302.418 53.783 
302.43 53.806 302.445 53.861 c 302.57 54.275 302.777 54.451 302.957 54.451
 c 303.027 54.451 303.066 54.412 303.066 54.279 c 303.066 54.17 303.055 
54.095 302.93 53.798 c h
f
136.621 30.623 m 136.621 30.685 l 136.605 30.701 l 136.605 30.72 l 136.594
 30.732 l 136.594 30.755 l 136.578 30.763 l 136.578 30.775 l 136.562 30.783
 l 136.562 30.791 l 136.551 30.802 l 136.551 30.81 l 136.535 30.818 l 136.523
 30.826 l 136.523 30.83 l 136.508 30.838 l 136.496 30.845 l 136.48 30.849
 l 136.469 30.853 l 136.469 30.857 l 136.453 30.861 l 136.441 30.865 l 136.41
 30.873 l 136.371 30.873 l 136.176 30.873 135.996 30.693 135.996 30.509 
c 135.996 30.377 136.094 30.259 136.258 30.259 c 136.41 30.259 136.621 30.416
 136.621 30.623 c h
f
136.094 28.029 m 136.105 28.048 l 136.105 28.064 l 136.121 28.08 l 136.121
 28.095 l 136.137 28.111 l 136.137 28.138 l 136.148 28.15 l 136.148 28.173
 l 136.164 28.185 l 136.164 28.216 l 136.176 28.236 l 136.176 28.255 l 136.191
 28.275 l 136.191 28.283 l 136.203 28.295 l 136.203 28.33 l 136.219 28.341
 l 136.219 28.369 l 136.23 28.38 l 136.23 28.396 l 136.246 28.412 l 136.246
 28.431 l 136.301 28.568 136.344 28.666 136.344 28.795 c 136.344 29.103 
136.121 29.361 135.773 29.361 c 135.125 29.361 134.859 28.361 134.859 28.298
 c 134.859 28.228 134.93 28.228 134.945 28.228 c 135.012 28.228 135.027 
28.244 135.055 28.353 c 135.25 29.005 135.512 29.209 135.746 29.209 c 135.801
 29.209 135.926 29.209 135.926 28.99 c 135.926 28.841 135.871 28.697 135.844
 28.63 c 135.789 28.451 135.484 27.65 135.371 27.353 c 135.305 27.173 135.207
 26.943 135.207 26.798 c 135.207 26.478 135.441 26.236 135.773 26.236 c 
136.426 26.236 136.688 27.236 136.688 27.298 c 136.688 27.369 136.621 27.369
 136.605 27.369 c 136.535 27.369 136.535 27.345 136.496 27.24 c 136.371 
26.81 136.148 26.388 135.789 26.388 c 135.68 26.388 135.621 26.455 135.621
 26.615 c 135.621 26.787 135.664 26.884 135.832 27.302 c h
f
176.012 20.365 m 176.012 20.404 l 175.996 20.404 l 175.996 20.42 l 175.984
 20.42 l 175.984 20.427 l 175.969 20.431 l 175.969 20.435 l 175.957 20.435
 l 175.957 20.439 l 175.941 20.439 l 175.93 20.443 l 175.762 20.443 175.266
 20.384 175.082 20.373 c 175.027 20.365 174.945 20.361 174.945 20.228 c 
174.945 20.154 175.016 20.154 175.125 20.154 c 175.457 20.154 175.457 20.088
 175.457 20.033 c 175.445 19.896 l 174.57 16.447 l 174.559 16.369 174.531
 16.318 174.531 16.209 c 174.531 15.818 174.848 15.576 175.168 15.576 c 
175.387 15.576 175.57 15.713 175.68 15.963 c 175.805 16.224 175.887 16.627
 175.887 16.638 c 175.887 16.709 175.832 16.709 175.805 16.709 c 175.734
 16.709 175.734 16.677 175.707 16.584 c 175.598 16.134 175.457 15.728 175.18
 15.728 c 174.973 15.728 174.973 15.947 174.973 16.045 c 174.973 16.209 
174.988 16.244 175.016 16.377 c h
f
67.684 30.201 m 67.672 30.177 l 67.672 30.138 l 67.656 30.119 l 67.656 
30.088 l 67.641 30.072 l 67.641 30.056 l 67.629 30.045 l 67.629 30.017 l
 67.613 30.005 l 67.613 29.998 l 67.602 29.986 l 67.602 29.978 l 67.586 
29.97 l 67.574 29.963 l 67.574 29.955 l 67.559 29.951 l 67.547 29.943 l 
67.516 29.935 l 67.504 29.931 l 67.488 29.927 l 67.461 29.923 l 67.449 29.923
 l 67.434 29.92 l 67.379 29.92 l 67.363 29.916 l 67.309 29.916 l 67.227 
29.916 67.145 29.916 67.145 29.787 c 67.145 29.728 67.184 29.701 67.242 
29.701 c 67.422 29.701 67.629 29.724 67.824 29.724 c 68.043 29.724 68.281
 29.701 68.5 29.701 c 68.527 29.701 68.625 29.701 68.625 29.841 c 68.625
 29.916 68.555 29.916 68.461 29.916 c 68.113 29.916 68.113 29.966 68.113
 30.025 c 68.113 30.111 68.402 31.236 68.461 31.408 c 68.543 31.209 68.738
 30.966 69.082 30.966 c 69.082 31.119 l 68.625 31.119 68.527 31.693 68.527
 31.732 c 68.527 31.744 68.527 31.759 68.555 31.841 c 68.891 33.197 l 68.945
 33.38 69.125 33.576 69.25 33.677 c 69.5 33.892 69.691 33.939 69.816 33.939
 c 70.094 33.939 70.262 33.701 70.262 33.291 c 70.262 32.884 70.023 32.091
 69.902 31.826 c 69.664 31.345 69.332 31.119 69.082 31.119 c 69.082 30.966
 l 69.887 30.966 70.746 31.974 70.746 32.99 c 70.746 33.638 70.359 34.091
 69.832 34.091 c 69.484 34.091 69.152 33.845 68.93 33.576 c 68.863 33.947
 68.57 34.091 68.309 34.091 c 67.988 34.091 67.852 33.822 67.793 33.701 
c 67.672 33.466 67.586 33.052 67.586 33.029 c 67.586 32.959 67.656 32.959
 67.672 32.959 c 67.738 32.959 67.738 32.97 67.781 33.119 c 67.906 33.607
 68.043 33.939 68.293 33.939 c 68.402 33.939 68.5 33.884 68.5 33.623 c 68.5
 33.466 68.473 33.388 68.461 33.271 c h
f
72.199 33.201 m 72.199 33.209 l 72.215 33.209 l 72.215 33.259 l 72.227 
33.263 l 72.227 33.275 l 72.227 33.302 72.199 33.345 72.145 33.345 c 72.047
 33.345 71.645 33.306 71.523 33.295 c 71.492 33.291 71.426 33.287 71.426
 33.185 c 71.426 33.119 71.492 33.119 71.551 33.119 c 71.785 33.119 71.785
 33.084 71.785 33.045 c 71.785 33.013 71.77 32.982 71.758 32.939 c 71.16
 30.556 l 71.148 30.505 71.148 30.451 71.148 30.404 c 71.148 30.095 71.41
 29.947 71.645 29.947 c 71.77 29.947 71.91 29.986 72.035 30.201 c 72.133
 30.38 72.199 30.666 72.199 30.685 c 72.199 30.748 72.145 30.748 72.133 
30.748 c 72.062 30.748 72.047 30.72 72.035 30.63 c 71.965 30.392 71.867 
30.08 71.66 30.08 c 71.535 30.08 71.508 30.201 71.508 30.318 c 71.508 30.373
 71.523 30.463 71.535 30.513 c h
f
Q Q
showpage
%%Trailer
end restore
%%EOF
