%!PS-Adobe-3.0 EPSF-3.0
%%Creator: cairo 1.12.2 (http://cairographics.org)
%%CreationDate: Thu May 31 17:39:59 2012
%%Pages: 1
%%DocumentData: Clean7Bit
%%LanguageLevel: 2
%%BoundingBox: 0 -1 364 99
%%EndComments
%%BeginProlog
save
50 dict begin
/q { gsave } bind def
/Q { grestore } bind def
/cm { 6 array astore concat } bind def
/w { setlinewidth } bind def
/J { setlinecap } bind def
/j { setlinejoin } bind def
/M { setmiterlimit } bind def
/d { setdash } bind def
/m { moveto } bind def
/l { lineto } bind def
/c { curveto } bind def
/h { closepath } bind def
/re { exch dup neg 3 1 roll 5 3 roll moveto 0 rlineto
      0 exch rlineto 0 rlineto closepath } bind def
/S { stroke } bind def
/f { fill } bind def
/f* { eofill } bind def
/n { newpath } bind def
/W { clip } bind def
/W* { eoclip } bind def
/BT { } bind def
/ET { } bind def
/pdfmark where { pop globaldict /?pdfmark /exec load put }
    { globaldict begin /?pdfmark /pop load def /pdfmark
    /cleartomark load def end } ifelse
/BDC { mark 3 1 roll /BDC pdfmark } bind def
/EMC { mark /EMC pdfmark } bind def
/cairo_store_point { /cairo_point_y exch def /cairo_point_x exch def } def
/Tj { show currentpoint cairo_store_point } bind def
/TJ {
  {
    dup
    type /stringtype eq
    { show } { -0.001 mul 0 cairo_font_matrix dtransform rmoveto } ifelse
  } forall
  currentpoint cairo_store_point
} bind def
/cairo_selectfont { cairo_font_matrix aload pop pop pop 0 0 6 array astore
    cairo_font exch selectfont cairo_point_x cairo_point_y moveto } bind def
/Tf { pop /cairo_font exch def /cairo_font_matrix where
      { pop cairo_selectfont } if } bind def
/Td { matrix translate cairo_font_matrix matrix concatmatrix dup
      /cairo_font_matrix exch def dup 4 get exch 5 get cairo_store_point
      /cairo_font where { pop cairo_selectfont } if } bind def
/Tm { 2 copy 8 2 roll 6 array astore /cairo_font_matrix exch def
      cairo_store_point /cairo_font where { pop cairo_selectfont } if } bind def
/g { setgray } bind def
/rg { setrgbcolor } bind def
/d1 { setcachedevice } bind def
%%EndProlog
%%Page: 1 1
%%BeginPageSetup
%%PageBoundingBox: 0 -1 364 99
%%EndPageSetup
q 0 -1 364 100 rectclip q
0 g
0.8 w
0 J
0 j
[] 0.0 d
4 M q 1 0 0 -1 0 98.355957 cm
0 79.758 m 362.836 79.758 l S Q
q 1 0 0 -1 0 98.355957 cm
113.387 74.09 m 113.387 85.426 l S Q
q 1 0 0 -1 0 98.355957 cm
170.078 74.09 m 170.078 85.426 l S Q
q 1 0 0 -1 0 98.355957 cm
323.465 74.09 m 323.465 85.426 l S Q
q 1 0 0 -1 0 98.355957 cm
0 79.758 m 57.453 81.355 68.551 23.363 90.707 28.734 c 106.004 41.32 91.656
 75.805 113.387 79.758 c 124.66 77.414 137.492 59.102 147.402 62.75 c 153.07
 68.418 156.594 79.344 170.078 79.758 c S Q
q 1 0 0 -1 0 98.355957 cm
170.078 79.758 m 193.793 73.543 180.293 33.281 198.426 23.066 c 211.656
 23.441 209.766 28.734 221.102 28.734 c 243.223 29.055 238.109 17.395 255.117
 17.395 c 294.805 17.395 294.805 74.09 323.148 79.758 c S Q
q 1 0 0 -1 0 98.355957 cm
323.148 79.758 m 333.906 78.715 334.488 0.387 340.156 0.387 c 345.828 0.387
 349.684 70.074 362.836 79.758 c S Q
0 0 1 rg
0.467701 w
q 1 0 0 -1 0 98.355957 cm
51.023 51.656 m 102.047 51.656 l S Q
0.476205 w
q 1 0 0 -1 0 98.355957 cm
181.418 51.668 m 306.141 51.668 l S Q
q 1 0 0 -1 0 98.355957 cm
328.82 51.668 m 357.164 51.668 l S Q
0 g
57.496 12.985 m 57.496 12.993 l 57.492 13 l 57.492 13.032 l 57.488 13.04
 l 57.484 13.043 l 57.48 13.055 l 57.48 13.059 l 57.477 13.071 l 57.473 
13.075 l 57.465 13.086 l 57.453 13.098 l 57.449 13.106 l 57.445 13.11 l 
57.438 13.114 l 57.434 13.118 l 57.426 13.122 l 57.418 13.129 l 57.414 13.129
 l 57.406 13.133 l 57.402 13.137 l 57.395 13.137 l 57.391 13.141 l 57.383
 13.145 l 57.371 13.145 l 57.363 13.149 l 57.348 13.149 l 57.34 13.153 l
 57.324 13.153 l 57.316 13.157 l 57.301 13.157 l 56.945 13.157 55.828 13.028
 55.43 13 c 55.305 12.985 55.137 12.969 55.137 12.696 c 55.137 12.508 55.277
 12.508 55.508 12.508 c 56.242 12.508 56.27 12.407 56.27 12.25 c 56.27 12.141
 56.133 11.622 56.055 11.301 c 54.801 6.309 l 54.617 5.54 54.555 5.293 54.555
 4.762 c 54.555 3.305 55.367 2.352 56.5 2.352 c 56.5 2.692 l 55.977 2.692
 55.473 3.102 55.473 4.239 c 55.473 4.528 55.473 4.817 55.715 5.786 c 56.055
 7.196 l 56.148 7.536 56.148 7.563 56.285 7.731 c 57.035 8.723 57.727 8.954
 58.125 8.954 c 58.68 8.954 59.09 8.5 59.09 7.512 c 59.09 6.61 58.582 4.852
 58.309 4.266 c 57.805 3.243 57.098 2.692 56.5 2.692 c 56.5 2.352 l 58.309
 2.352 60.191 4.633 60.191 6.844 c 60.191 8.235 59.379 9.29 58.156 9.29 
c 57.453 9.29 56.824 8.852 56.363 8.375 c h
f
63.992 7.047 m 63.992 7.145 l 63.988 7.157 l 63.988 7.192 l 63.984 7.204
 l 63.984 7.231 l 63.98 7.243 l 63.98 7.247 l 63.973 7.262 l 63.969 7.274
 l 63.965 7.282 l 63.957 7.29 l 63.953 7.301 l 63.938 7.317 l 63.926 7.321
 l 63.914 7.329 l 63.906 7.333 l 63.895 7.333 l 63.879 7.34 l 63.863 7.34
 l 63.855 7.344 l 63.848 7.344 l 63.84 7.348 l 63.668 7.348 l 62.984 6.672
 62.012 6.665 61.57 6.665 c 61.57 6.278 l 61.828 6.278 62.539 6.278 63.121
 6.579 c 63.121 1.114 l 63.121 0.758 63.121 0.618 62.051 0.618 c 61.648 
0.618 l 61.648 0.235 l 61.84 0.243 63.156 0.278 63.555 0.278 c 63.887 0.278
 65.238 0.243 65.473 0.235 c 65.473 0.618 l 65.066 0.618 l 63.992 0.618 
63.992 0.758 63.992 1.114 c h
f
139.09 12.985 m 139.09 12.993 l 139.086 13 l 139.086 13.032 l 139.082 13.04
 l 139.078 13.043 l 139.074 13.055 l 139.074 13.059 l 139.07 13.071 l 139.066
 13.075 l 139.059 13.086 l 139.047 13.098 l 139.043 13.106 l 139.039 13.11
 l 139.031 13.114 l 139.027 13.118 l 139.02 13.122 l 139.012 13.129 l 139.008
 13.129 l 139 13.133 l 138.996 13.137 l 138.988 13.137 l 138.984 13.141 
l 138.977 13.145 l 138.965 13.145 l 138.957 13.149 l 138.941 13.149 l 138.934
 13.153 l 138.918 13.153 l 138.91 13.157 l 138.895 13.157 l 138.539 13.157
 137.422 13.028 137.023 13 c 136.898 12.985 136.73 12.969 136.73 12.696 
c 136.73 12.508 136.871 12.508 137.102 12.508 c 137.836 12.508 137.863 12.407
 137.863 12.25 c 137.863 12.141 137.727 11.622 137.648 11.301 c 136.395 
6.309 l 136.211 5.54 136.148 5.293 136.148 4.762 c 136.148 3.305 136.961
 2.352 138.094 2.352 c 138.094 2.692 l 137.57 2.692 137.066 3.102 137.066
 4.239 c 137.066 4.528 137.066 4.817 137.309 5.786 c 137.648 7.196 l 137.742
 7.536 137.742 7.563 137.879 7.731 c 138.629 8.723 139.32 8.954 139.719 
8.954 c 140.273 8.954 140.684 8.5 140.684 7.512 c 140.684 6.61 140.176 4.852
 139.902 4.266 c 139.398 3.243 138.691 2.692 138.094 2.692 c 138.094 2.352
 l 139.902 2.352 141.785 4.633 141.785 6.844 c 141.785 8.235 140.973 9.29
 139.75 9.29 c 139.047 9.29 138.418 8.852 137.957 8.375 c h
f
147.406 2.188 m 147.043 2.188 l 147.012 1.95 146.902 1.317 146.762 1.208
 c 146.68 1.149 145.855 1.149 145.707 1.149 c 143.73 1.149 l 144.855 2.141
 145.23 2.438 145.875 2.942 c 146.668 3.579 147.406 4.239 147.406 5.262 
c 147.406 6.555 146.273 7.348 144.898 7.348 c 143.57 7.348 142.672 6.418
 142.672 5.434 c 142.672 4.887 143.133 4.833 143.242 4.833 c 143.496 4.833
 143.809 5.016 143.809 5.399 c 143.809 5.59 143.73 5.965 143.176 5.965 c
 143.508 6.727 144.234 6.961 144.738 6.961 c 145.812 6.961 146.371 6.129
 146.371 5.262 c 146.371 4.329 145.707 3.59 145.359 3.204 c 142.781 0.653
 l 142.672 0.555 142.672 0.532 142.672 0.235 c 147.086 0.235 l h
f
239.016 12.985 m 239.016 12.993 l 239.012 13 l 239.012 13.02 l 239.008 
13.028 l 239.008 13.032 l 239.004 13.04 l 239.004 13.043 l 239 13.055 l 
238.996 13.059 l 238.992 13.071 l 238.988 13.075 l 238.984 13.086 l 238.977
 13.09 l 238.973 13.098 l 238.957 13.114 l 238.953 13.114 l 238.941 13.125
 l 238.934 13.129 l 238.93 13.129 l 238.926 13.133 l 238.918 13.137 l 238.914
 13.137 l 238.906 13.141 l 238.902 13.145 l 238.887 13.145 l 238.883 13.149
 l 238.867 13.149 l 238.859 13.153 l 238.844 13.153 l 238.832 13.157 l 238.816
 13.157 l 238.461 13.157 237.344 13.028 236.949 13 c 236.82 12.985 236.652
 12.969 236.652 12.696 c 236.652 12.508 236.793 12.508 237.023 12.508 c 
237.762 12.508 237.789 12.407 237.789 12.25 c 237.789 12.141 237.648 11.622
 237.574 11.301 c 236.316 6.309 l 236.137 5.54 236.07 5.293 236.07 4.762
 c 236.07 3.305 236.883 2.352 238.02 2.352 c 238.02 2.692 l 237.496 2.692
 236.992 3.102 236.992 4.239 c 236.992 4.528 236.992 4.817 237.234 5.786
 c 237.574 7.196 l 237.664 7.536 237.664 7.563 237.805 7.731 c 238.555 8.723
 239.246 8.954 239.641 8.954 c 240.195 8.954 240.609 8.5 240.609 7.512 c
 240.609 6.61 240.102 4.852 239.828 4.266 c 239.32 3.243 238.613 2.692 238.02
 2.692 c 238.02 2.352 l 239.828 2.352 241.707 4.633 241.707 6.844 c 241.707
 8.235 240.898 9.29 239.672 9.29 c 238.973 9.29 238.34 8.852 237.879 8.375
 c h
f
244.844 3.813 m 244.926 3.813 l 245.004 3.805 l 245.074 3.797 l 245.148
 3.786 l 245.219 3.77 l 245.293 3.75 l 245.359 3.731 l 245.422 3.708 l 245.488
 3.676 l 245.551 3.645 l 245.609 3.606 l 245.668 3.571 l 245.727 3.528 l
 245.777 3.481 l 245.879 3.379 l 245.926 3.325 l 245.969 3.266 l 246.012
 3.204 l 246.047 3.137 l 246.086 3.071 l 246.148 2.922 l 246.203 2.758 l
 246.223 2.672 l 246.242 2.583 l 246.258 2.493 l 246.27 2.395 l 246.273 
2.297 l 246.281 2.196 l 246.285 2.086 l 246.285 0.758 245.508 0.364 244.891
 0.364 c 244.461 0.364 243.516 0.481 243.066 1.114 c 243.57 1.133 243.688
 1.489 243.688 1.711 c 243.688 2.055 243.43 2.301 243.098 2.301 c 242.801
 2.301 242.496 2.118 242.496 1.68 c 242.496 0.668 243.613 0.02 244.91 0.02
 c 246.398 0.02 247.43 1.016 247.43 2.086 c 247.43 2.926 246.746 3.762 245.562
 4.008 c 246.688 4.415 247.098 5.215 247.098 5.872 c 247.098 6.715 246.121
 7.348 244.934 7.348 c 243.742 7.348 242.832 6.77 242.832 5.915 c 242.832
 5.547 243.066 5.348 243.391 5.348 c 243.723 5.348 243.934 5.59 243.934 
5.887 c 243.934 6.204 243.723 6.426 243.391 6.446 c 243.766 6.922 244.5 
7.04 244.902 7.04 c 245.379 7.04 246.059 6.801 246.059 5.872 c 246.059 5.418
 245.91 4.93 245.629 4.598 c 245.277 4.188 244.977 4.165 244.438 4.137 c
 244.168 4.11 244.148 4.11 244.098 4.102 c 244.074 4.102 243.988 4.083 243.988
 3.965 c 243.988 3.813 244.082 3.813 244.266 3.813 c h
f
338.156 14.223 m 338.156 14.231 l 338.152 14.235 l 338.152 14.27 l 338.148
 14.278 l 338.145 14.282 l 338.141 14.29 l 338.141 14.297 l 338.133 14.313
 l 338.125 14.321 l 338.121 14.329 l 338.113 14.333 l 338.109 14.344 l 338.105
 14.348 l 338.098 14.348 l 338.094 14.352 l 338.094 14.356 l 338.086 14.36
 l 338.082 14.364 l 338.078 14.364 l 338.074 14.368 l 338.066 14.372 l 338.062
 14.375 l 338.055 14.375 l 338.051 14.379 l 338.039 14.379 l 338.023 14.387
 l 338.008 14.387 l 338 14.391 l 337.961 14.391 l 337.605 14.391 336.488
 14.266 336.09 14.239 c 335.965 14.223 335.797 14.208 335.797 13.93 c 335.797
 13.747 335.938 13.747 336.168 13.747 c 336.902 13.747 336.93 13.641 336.93
 13.489 c 336.93 13.379 336.793 12.86 336.715 12.54 c 335.461 7.543 l 335.277
 6.774 335.215 6.528 335.215 5.997 c 335.215 4.543 336.027 3.59 337.16 3.59
 c 337.16 3.926 l 336.637 3.926 336.133 4.34 336.133 5.473 c 336.133 5.766
 336.133 6.055 336.375 7.02 c 336.715 8.434 l 336.809 8.77 336.809 8.797
 336.945 8.969 c 337.695 9.961 338.387 10.192 338.785 10.192 c 339.34 10.192
 339.75 9.739 339.75 8.75 c 339.75 7.848 339.242 6.09 338.969 5.504 c 338.465
 4.477 337.758 3.926 337.16 3.926 c 337.16 3.59 l 338.969 3.59 340.852 5.872
 340.852 8.079 c 340.852 9.473 340.039 10.528 338.816 10.528 c 338.113 10.528
 337.484 10.086 337.023 9.61 c h
f
346.734 3.231 m 346.734 3.614 l 345.539 3.614 l 345.539 8.395 l 345.539
 8.618 345.539 8.696 345.309 8.696 c 345.176 8.696 345.133 8.696 345.027
 8.543 c 341.48 3.614 l 341.48 3.231 l 344.633 3.231 l 344.703 3.614 l 341.875
 3.614 l 344.703 7.536 l 344.703 3.614 l 344.633 3.231 l 344.633 2.352 l
 344.633 1.985 344.633 1.856 343.762 1.856 c 343.473 1.856 l 343.473 1.469
 l 344.008 1.489 344.695 1.512 345.078 1.512 c 345.48 1.512 346.16 1.489
 346.699 1.469 c 346.699 1.856 l 346.41 1.856 l 345.539 1.856 345.539 1.985
 345.539 2.352 c 345.539 3.231 l h
f
Q Q
showpage
%%Trailer
end restore
%%EOF
